<?xml version="1.0" encoding="UTF-8" standalone="no"?>
<svg
   xmlns:ooo="http://xml.openoffice.org/svg/export"
   xmlns:dc="http://purl.org/dc/elements/1.1/"
   xmlns:cc="http://creativecommons.org/ns#"
   xmlns:rdf="http://www.w3.org/1999/02/22-rdf-syntax-ns#"
   xmlns:svg="http://www.w3.org/2000/svg"
   xmlns="http://www.w3.org/2000/svg"
   xmlns:sodipodi="http://sodipodi.sourceforge.net/DTD/sodipodi-0.dtd"
   xmlns:inkscape="http://www.inkscape.org/namespaces/inkscape"
   sodipodi:docname="geo.svg"
   inkscape:version="1.0 (6e3e5246a0, 2020-05-07)"
   id="svg8"
   version="1.1"
   viewBox="0 0 178.3811 125.42111"
   height="125.42111mm"
   width="178.3811mm">
  <defs
     id="defs2">
    <clipPath
       id="presentation_clip_path"
       clipPathUnits="userSpaceOnUse">
   <rect
   x="0"
   y="0"
   width="21590"
   height="27940"
   id="rect2409" />

  </clipPath>
    <clipPath
       id="presentation_clip_path_shrink"
       clipPathUnits="userSpaceOnUse">
   <rect
   x="21"
   y="27"
   width="21547"
   height="27885"
   id="rect2412" />

  </clipPath>
    <font
       id="EmbeddedFont_1"
       horiz-adv-x="2048"
       horiz-origin-x="0"
       horiz-origin-y="0"
       vert-origin-x="45"
       vert-origin-y="90"
       vert-adv-y="90">
   <font-face
   font-family="Liberation Sans embedded"
   units-per-em="2048"
   font-weight="normal"
   font-style="normal"
   ascent="1852"
   descent="423"
   id="font-face2417" />

   <missing-glyph
   horiz-adv-x="2048"
   d="M 0,0 L 2047,0 2047,2047 0,2047 0,0 Z"
   id="missing-glyph2419" />

   <glyph
   unicode="u"
   horiz-adv-x="874"
   d="M 314,1082 L 314,396 C 314,325 321,269 335,230 349,191 371,162 402,145 433,128 478,119 537,119 624,119 692,149 742,208 792,267 817,350 817,455 L 817,1082 997,1082 997,231 C 997,105 999,28 1003,0 L 833,0 C 832,3 832,12 831,27 830,42 830,59 829,78 828,97 826,132 825,185 L 822,185 C 781,110 733,58 679,27 624,-4 557,-20 476,-20 357,-20 271,10 216,69 161,128 133,225 133,361 L 133,1082 314,1082 Z"
   id="glyph2421" />

   <glyph
   unicode="t"
   horiz-adv-x="531"
   d="M 554,8 C 495,-8 434,-16 372,-16 228,-16 156,66 156,229 L 156,951 31,951 31,1082 163,1082 216,1324 336,1324 336,1082 536,1082 536,951 336,951 336,268 C 336,216 345,180 362,159 379,138 408,127 450,127 474,127 509,132 554,141 L 554,8 Z"
   id="glyph2423" />

   <glyph
   unicode="s"
   horiz-adv-x="901"
   d="M 950,299 C 950,197 912,118 835,63 758,8 650,-20 511,-20 376,-20 273,2 200,47 127,91 79,160 57,254 L 216,285 C 231,227 263,185 311,158 359,131 426,117 511,117 602,117 669,131 712,159 754,187 775,229 775,285 775,328 760,362 731,389 702,416 654,438 589,455 L 460,489 C 357,516 283,542 240,568 196,593 162,624 137,661 112,698 100,743 100,796 100,895 135,970 206,1022 276,1073 378,1099 513,1099 632,1099 727,1078 798,1036 868,994 912,927 931,834 L 769,814 C 759,862 732,899 689,925 645,950 586,963 513,963 432,963 372,951 333,926 294,901 275,864 275,814 275,783 283,758 299,738 315,718 339,701 370,687 401,673 467,654 568,629 663,605 732,583 774,563 816,542 849,520 874,495 898,470 917,442 930,410 943,377 950,340 950,299 Z"
   id="glyph2425" />

   <glyph
   unicode="r"
   horiz-adv-x="530"
   d="M 142,0 L 142,830 C 142,906 140,990 136,1082 L 306,1082 C 311,959 314,886 314,861 L 318,861 C 347,954 380,1017 417,1051 454,1085 507,1102 575,1102 599,1102 623,1099 648,1092 L 648,927 C 624,934 592,937 552,937 477,937 420,905 381,841 342,776 322,684 322,564 L 322,0 142,0 Z"
   id="glyph2427" />

   <glyph
   unicode="p"
   horiz-adv-x="953"
   d="M 1053,546 C 1053,169 920,-20 655,-20 488,-20 376,43 319,168 L 314,168 C 317,163 318,106 318,-2 L 318,-425 138,-425 138,861 C 138,972 136,1046 132,1082 L 306,1082 C 307,1079 308,1070 309,1054 310,1037 312,1012 314,978 315,944 316,921 316,908 L 320,908 C 352,975 394,1024 447,1055 500,1086 569,1101 655,1101 788,1101 888,1056 954,967 1020,878 1053,737 1053,546 Z M 864,542 C 864,693 844,800 803,865 762,930 698,962 609,962 538,962 482,947 442,917 401,887 371,840 350,777 329,713 318,630 318,528 318,386 341,281 386,214 431,147 505,113 607,113 696,113 762,146 803,212 844,277 864,387 864,542 Z"
   id="glyph2429" />

   <glyph
   unicode="n"
   horiz-adv-x="874"
   d="M 825,0 L 825,686 C 825,757 818,813 804,852 790,891 768,920 737,937 706,954 661,963 602,963 515,963 447,933 397,874 347,815 322,732 322,627 L 322,0 142,0 142,851 C 142,977 140,1054 136,1082 L 306,1082 C 307,1079 307,1070 308,1055 309,1040 310,1024 311,1005 312,986 313,950 314,897 L 317,897 C 358,972 406,1025 461,1056 515,1087 582,1102 663,1102 782,1102 869,1073 924,1014 979,955 1006,857 1006,721 L 1006,0 825,0 Z"
   id="glyph2431" />

   <glyph
   unicode="m"
   horiz-adv-x="1457"
   d="M 768,0 L 768,686 C 768,791 754,863 725,903 696,943 645,963 570,963 493,963 433,934 388,875 343,816 321,734 321,627 L 321,0 142,0 142,851 C 142,977 140,1054 136,1082 L 306,1082 C 307,1079 307,1070 308,1055 309,1040 310,1024 311,1005 312,986 313,950 314,897 L 317,897 C 356,974 400,1027 450,1057 500,1087 561,1102 633,1102 715,1102 780,1086 828,1053 875,1020 908,968 927,897 L 930,897 C 967,970 1013,1022 1066,1054 1119,1086 1183,1102 1258,1102 1367,1102 1447,1072 1497,1013 1546,954 1571,856 1571,721 L 1571,0 1393,0 1393,686 C 1393,791 1379,863 1350,903 1321,943 1270,963 1195,963 1116,963 1055,934 1012,876 968,817 946,734 946,627 L 946,0 768,0 Z"
   id="glyph2433" />

   <glyph
   unicode="l"
   horiz-adv-x="187"
   d="M 138,0 L 138,1484 318,1484 318,0 138,0 Z"
   id="glyph2435" />

   <glyph
   unicode="i"
   horiz-adv-x="187"
   d="M 137,1312 L 137,1484 317,1484 317,1312 137,1312 Z M 137,0 L 137,1082 317,1082 317,0 137,0 Z"
   id="glyph2437" />

   <glyph
   unicode="h"
   horiz-adv-x="874"
   d="M 317,897 C 356,968 402,1020 457,1053 511,1086 580,1102 663,1102 780,1102 867,1073 923,1015 978,956 1006,858 1006,721 L 1006,0 825,0 825,686 C 825,762 818,819 804,856 790,893 767,920 735,937 703,954 659,963 602,963 517,963 450,934 399,875 348,816 322,737 322,638 L 322,0 142,0 142,1484 322,1484 322,1098 C 322,1057 321,1015 319,972 316,929 315,904 314,897 L 317,897 Z"
   id="glyph2439" />

   <glyph
   unicode="g"
   horiz-adv-x="927"
   d="M 548,-425 C 430,-425 336,-402 266,-356 196,-309 151,-243 131,-158 L 312,-132 C 324,-182 351,-220 392,-248 433,-274 486,-288 553,-288 732,-288 822,-183 822,27 L 822,201 820,201 C 786,132 739,80 680,45 621,10 551,-8 472,-8 339,-8 242,36 180,124 117,212 86,350 86,539 86,730 120,872 187,963 254,1054 355,1099 492,1099 569,1099 635,1082 692,1047 748,1012 791,962 822,897 L 824,897 C 824,917 825,952 828,1001 831,1050 833,1077 836,1082 L 1007,1082 C 1003,1046 1001,971 1001,858 L 1001,31 C 1001,-273 850,-425 548,-425 Z M 822,541 C 822,629 810,705 786,769 762,832 728,881 685,915 641,948 591,965 536,965 444,965 377,932 335,865 293,798 272,690 272,541 272,393 292,287 331,222 370,157 438,125 533,125 590,125 640,142 684,175 728,208 762,256 786,319 810,381 822,455 822,541 Z"
   id="glyph2441" />

   <glyph
   unicode="f"
   horiz-adv-x="557"
   d="M 361,951 L 361,0 181,0 181,951 29,951 29,1082 181,1082 181,1204 C 181,1303 203,1374 246,1417 289,1460 356,1482 445,1482 495,1482 537,1478 572,1470 L 572,1333 C 542,1338 515,1341 492,1341 446,1341 413,1329 392,1306 371,1283 361,1240 361,1179 L 361,1082 572,1082 572,951 361,951 Z"
   id="glyph2443" />

   <glyph
   unicode="e"
   horiz-adv-x="980"
   d="M 276,503 C 276,379 302,283 353,216 404,149 479,115 578,115 656,115 719,131 766,162 813,193 844,233 861,281 L 1019,236 C 954,65 807,-20 578,-20 418,-20 296,28 213,123 129,218 87,360 87,548 87,727 129,864 213,959 296,1054 416,1102 571,1102 889,1102 1048,910 1048,527 L 1048,503 276,503 Z M 862,641 C 852,755 823,838 775,891 727,943 658,969 568,969 481,969 412,940 361,882 310,823 282,743 278,641 L 862,641 Z"
   id="glyph2445" />

   <glyph
   unicode="c"
   horiz-adv-x="901"
   d="M 275,546 C 275,402 298,295 343,226 388,157 457,122 548,122 612,122 666,139 709,174 752,209 778,262 788,334 L 970,322 C 956,218 912,135 837,73 762,11 668,-20 553,-20 402,-20 286,28 207,124 127,219 87,359 87,542 87,724 127,863 207,959 287,1054 402,1102 551,1102 662,1102 754,1073 827,1016 900,959 945,880 964,779 L 779,765 C 770,825 746,873 708,908 670,943 616,961 546,961 451,961 382,929 339,866 296,803 275,696 275,546 Z"
   id="glyph2447" />

   <glyph
   unicode="b"
   horiz-adv-x="953"
   d="M 1053,546 C 1053,169 920,-20 655,-20 573,-20 505,-5 451,25 396,54 352,102 318,168 L 316,168 C 316,147 315,116 312,74 309,31 307,7 306,0 L 132,0 C 136,36 138,110 138,223 L 138,1484 318,1484 318,1061 C 318,1018 317,967 314,908 L 318,908 C 351,977 396,1027 451,1057 506,1087 574,1102 655,1102 792,1102 892,1056 957,964 1021,872 1053,733 1053,546 Z M 864,540 C 864,691 844,800 804,865 764,930 699,963 609,963 508,963 434,928 388,859 341,790 318,680 318,529 318,387 341,282 386,215 431,147 505,113 607,113 698,113 763,147 804,214 844,281 864,389 864,540 Z"
   id="glyph2449" />

   <glyph
   unicode="a"
   horiz-adv-x="1060"
   d="M 414,-20 C 305,-20 224,9 169,66 114,123 87,202 87,302 87,414 124,500 198,560 271,620 390,652 554,656 L 797,660 797,719 C 797,807 778,870 741,908 704,946 645,965 565,965 484,965 426,951 389,924 352,897 330,853 323,793 L 135,810 C 166,1005 310,1102 569,1102 705,1102 807,1071 876,1009 945,946 979,856 979,738 L 979,272 C 979,219 986,179 1000,152 1014,125 1041,111 1080,111 1097,111 1117,113 1139,118 L 1139,6 C 1094,-5 1047,-10 1000,-10 933,-10 885,8 855,43 824,78 807,132 803,207 L 797,207 C 751,124 698,66 637,32 576,-3 501,-20 414,-20 Z M 455,115 C 521,115 580,130 631,160 682,190 723,231 753,284 782,336 797,390 797,445 L 797,534 600,530 C 515,529 451,520 408,504 364,488 330,463 307,430 284,397 272,353 272,299 272,240 288,195 320,163 351,131 396,115 455,115 Z"
   id="glyph2451" />

   <glyph
   unicode="S"
   horiz-adv-x="1192"
   d="M 1272,389 C 1272,259 1221,158 1120,87 1018,16 875,-20 690,-20 347,-20 148,99 93,338 L 278,375 C 299,290 345,228 414,189 483,149 578,129 697,129 820,129 916,150 983,193 1050,235 1083,297 1083,379 1083,425 1073,462 1052,491 1031,520 1001,543 963,562 925,581 880,596 827,609 774,622 716,635 652,650 541,675 456,699 399,724 341,749 295,776 262,807 229,837 203,872 186,913 168,954 159,1000 159,1053 159,1174 205,1267 298,1332 390,1397 522,1430 694,1430 854,1430 976,1406 1061,1357 1146,1308 1205,1224 1239,1106 L 1051,1073 C 1030,1148 991,1202 933,1236 875,1269 795,1286 692,1286 579,1286 493,1267 434,1230 375,1193 345,1137 345,1063 345,1020 357,984 380,956 403,927 436,903 479,884 522,864 609,840 738,811 781,801 825,791 868,781 911,770 952,758 991,744 1030,729 1067,712 1102,693 1136,674 1166,650 1191,622 1216,594 1236,561 1251,523 1265,485 1272,440 1272,389 Z"
   id="glyph2453" />

   <glyph
   unicode="R"
   horiz-adv-x="1244"
   d="M 1164,0 L 798,585 359,585 359,0 168,0 168,1409 831,1409 C 990,1409 1112,1374 1199,1303 1285,1232 1328,1133 1328,1006 1328,901 1298,813 1237,742 1176,671 1091,626 984,607 L 1384,0 1164,0 Z M 1136,1004 C 1136,1086 1108,1149 1053,1192 997,1235 917,1256 812,1256 L 359,1256 359,736 820,736 C 921,736 999,760 1054,807 1109,854 1136,919 1136,1004 Z"
   id="glyph2455" />

   <glyph
   unicode="K"
   horiz-adv-x="1191"
   d="M 1106,0 L 543,680 359,540 359,0 168,0 168,1409 359,1409 359,703 1038,1409 1263,1409 663,797 1343,0 1106,0 Z"
   id="glyph2457" />

   <glyph
   unicode="F"
   horiz-adv-x="1006"
   d="M 359,1253 L 359,729 1145,729 1145,571 359,571 359,0 168,0 168,1409 1169,1409 1169,1253 359,1253 Z"
   id="glyph2459" />

   <glyph
   unicode="D"
   horiz-adv-x="1218"
   d="M 1381,719 C 1381,574 1353,447 1296,338 1239,229 1159,145 1055,87 951,29 831,0 695,0 L 168,0 168,1409 634,1409 C 873,1409 1057,1349 1187,1230 1316,1110 1381,940 1381,719 Z M 1189,719 C 1189,894 1141,1027 1046,1119 950,1210 811,1256 630,1256 L 359,1256 359,153 673,153 C 776,153 867,176 946,221 1024,266 1084,332 1126,417 1168,502 1189,603 1189,719 Z"
   id="glyph2461" />

   <glyph
   unicode="8"
   horiz-adv-x="980"
   d="M 1050,393 C 1050,263 1009,162 926,89 843,16 725,-20 570,-20 419,-20 302,16 217,87 132,158 89,260 89,391 89,483 115,560 168,623 221,686 288,724 370,737 L 370,741 C 293,759 233,798 189,858 144,918 122,988 122,1069 122,1176 162,1263 243,1330 323,1397 431,1430 566,1430 705,1430 814,1397 895,1332 975,1267 1015,1178 1015,1067 1015,986 993,916 948,856 903,796 842,758 765,743 L 765,739 C 855,724 925,686 975,625 1025,563 1050,486 1050,393 Z M 828,1057 C 828,1216 741,1296 566,1296 481,1296 417,1276 373,1236 328,1196 306,1136 306,1057 306,976 329,915 375,873 420,830 485,809 568,809 653,809 717,829 762,868 806,907 828,970 828,1057 Z M 863,410 C 863,497 837,563 785,608 733,652 660,674 566,674 475,674 403,650 352,603 301,555 275,489 275,406 275,212 374,115 572,115 670,115 743,139 791,186 839,233 863,307 863,410 Z"
   id="glyph2463" />

   <glyph
   unicode="5"
   horiz-adv-x="980"
   d="M 1053,459 C 1053,310 1009,193 921,108 832,23 710,-20 553,-20 422,-20 316,9 235,66 154,123 103,206 82,315 L 264,336 C 302,197 400,127 557,127 654,127 729,156 784,215 839,273 866,353 866,455 866,544 839,615 784,670 729,725 654,752 561,752 512,752 467,744 425,729 383,714 341,688 299,651 L 123,651 170,1409 971,1409 971,1256 334,1256 307,809 C 385,869 482,899 598,899 737,899 847,858 930,777 1012,696 1053,590 1053,459 Z"
   id="glyph2465" />

   <glyph
   unicode="4"
   horiz-adv-x="1060"
   d="M 881,319 L 881,0 711,0 711,319 47,319 47,459 692,1409 881,1409 881,461 1079,461 1079,319 881,319 Z M 711,1206 C 710,1202 700,1184 683,1153 666,1122 653,1100 644,1087 L 283,555 229,481 213,461 711,461 711,1206 Z"
   id="glyph2467" />

   <glyph
   unicode="1"
   horiz-adv-x="927"
   d="M 156,0 L 156,153 515,153 515,1237 197,1010 197,1180 530,1409 696,1409 696,153 1039,153 1039,0 156,0 Z"
   id="glyph2469" />

   <glyph
   unicode="0"
   horiz-adv-x="980"
   d="M 1059,705 C 1059,470 1018,290 935,166 852,42 729,-20 567,-20 405,-20 283,42 202,165 121,288 80,468 80,705 80,947 120,1128 199,1249 278,1370 402,1430 573,1430 739,1430 862,1369 941,1247 1020,1125 1059,944 1059,705 Z M 876,705 C 876,908 853,1056 806,1147 759,1238 681,1284 573,1284 462,1284 383,1239 335,1149 286,1059 262,911 262,705 262,505 287,359 336,266 385,173 462,127 569,127 675,127 753,174 802,269 851,364 876,509 876,705 Z"
   id="glyph2471" />

   <glyph
   unicode="-"
   horiz-adv-x="531"
   d="M 91,464 L 91,624 591,624 591,464 91,464 Z"
   id="glyph2473" />

   <glyph
   unicode=","
   horiz-adv-x="239"
   d="M 385,219 L 385,51 C 385,-20 379,-79 366,-126 353,-173 334,-219 307,-262 L 184,-262 C 247,-171 278,-84 278,0 L 190,0 190,219 385,219 Z"
   id="glyph2475" />

   <glyph
   unicode=" "
   horiz-adv-x="556"
   id="glyph2477" />

  </font>
    <font
       id="EmbeddedFont_2"
       horiz-adv-x="2048"
       horiz-origin-x="0"
       horiz-origin-y="0"
       vert-origin-x="45"
       vert-origin-y="90"
       vert-adv-y="90">
   <font-face
   font-family="Liberation Sans embedded"
   units-per-em="2048"
   font-weight="normal"
   font-style="italic"
   ascent="1852"
   descent="423"
   id="font-face2482" />

   <missing-glyph
   horiz-adv-x="2048"
   d="M 0,0 L 2047,0 2047,2047 0,2047 0,0 Z"
   id="missing-glyph2484" />

   <glyph
   unicode="y"
   horiz-adv-x="1271"
   d="M 16,-425 C -32,-425 -76,-420 -116,-411 L -85,-277 C -55,-282 -29,-285 -8,-285 55,-285 111,-264 160,-221 208,-178 255,-116 302,-35 L 329,12 112,1082 295,1082 407,484 C 417,431 426,374 435,314 444,253 448,214 449,196 456,211 464,229 475,250 486,271 637,549 928,1082 L 1127,1082 501,0 C 427,-129 368,-219 323,-271 278,-322 231,-361 182,-387 133,-412 77,-425 16,-425 Z"
   id="glyph2486" />

   <glyph
   unicode="x"
   horiz-adv-x="1192"
   d="M 706,0 L 497,444 117,0 -82,0 410,556 146,1082 335,1082 528,661 878,1082 1084,1082 615,558 896,0 706,0 Z"
   id="glyph2488" />

  </font>
    <g
       ooo:slide="id1"
       ooo:id-list="id3 id4 id5 id6 id7 id8 id9 id10 id11 id12 id13 id14 id15 id16 id17 id18 id19 id20 id21 id22 id23 id24 id25 id26 id27 id28 id29 id30 id31 id32 id33 id34 id35 id36 id37 id38 id39 id40 id41 id42 id43 id44 id45 id46 id47 id48 id49 id50 id51 id52 id53 id54 id55 id56 id57 id58 id59 id60 id61 id62 id63 id64 id65 id66 id67 id68 id69 id70 id71 id72 id73 id74 id75 id76 id77 id78 id79 id80 id81 id82 id83 id84 id85 id86 id87 id88 id89 id90 id91 id92 id93 id94 id95 id96 id97 id98 id99 id100 id101 id102 id103 id104 id105 id106 id107 id108 id109 id110 id111 id112 id113 id114 id115 id116 id117 id118 id119 id120 id121 id122 id123 id124"
       id="g2493" />
    <g
       id="bullet-char-template-57356"
       transform="matrix(4.8828125e-4,0,0,-4.8828125e-4,0,0)">
   <path
   d="M 580,1141 1163,571 580,0 -4,571 Z"
   id="path2497"
   inkscape:connector-curvature="0" />

  </g>
    <g
       id="bullet-char-template-57354"
       transform="matrix(4.8828125e-4,0,0,-4.8828125e-4,0,0)">
   <path
   d="M 8,1128 H 1137 V 0 H 8 Z"
   id="path2500"
   inkscape:connector-curvature="0" />

  </g>
    <g
       id="bullet-char-template-10146"
       transform="matrix(4.8828125e-4,0,0,-4.8828125e-4,0,0)">
   <path
   d="M 174,0 602,739 174,1481 1456,739 Z M 1358,739 309,1346 659,739 Z"
   id="path2503"
   inkscape:connector-curvature="0" />

  </g>
    <g
       id="bullet-char-template-10132"
       transform="matrix(4.8828125e-4,0,0,-4.8828125e-4,0,0)">
   <path
   d="M 2015,739 1276,0 H 717 l 543,543 H 174 v 393 h 1086 l -543,545 h 557 z"
   id="path2506"
   inkscape:connector-curvature="0" />

  </g>
    <g
       id="bullet-char-template-10007"
       transform="matrix(4.8828125e-4,0,0,-4.8828125e-4,0,0)">
   <path
   d="m 0,-2 c -7,16 -16,29 -25,39 l 381,530 c -94,256 -141,385 -141,387 0,25 13,38 40,38 9,0 21,-2 34,-5 21,4 42,12 65,25 l 27,-13 111,-251 280,301 64,-25 24,25 c 21,-10 41,-24 62,-43 C 886,937 835,863 770,784 769,783 710,716 594,584 L 774,223 c 0,-27 -21,-55 -63,-84 l 16,-20 C 717,90 699,76 672,76 641,76 570,178 457,381 L 164,-76 c -22,-34 -53,-51 -92,-51 -42,0 -63,17 -64,51 -7,9 -10,24 -10,44 0,9 1,19 2,30 z"
   id="path2509"
   inkscape:connector-curvature="0" />

  </g>
    <g
       id="bullet-char-template-10004"
       transform="matrix(4.8828125e-4,0,0,-4.8828125e-4,0,0)">
   <path
   d="M 285,-33 C 182,-33 111,30 74,156 52,228 41,333 41,471 c 0,78 14,145 41,201 34,71 87,106 158,106 53,0 88,-31 106,-94 l 23,-176 c 8,-64 28,-97 59,-98 l 735,706 c 11,11 33,17 66,17 42,0 63,-15 63,-46 V 965 c 0,-36 -10,-64 -30,-84 L 442,47 C 390,-6 338,-33 285,-33 Z"
   id="path2512"
   inkscape:connector-curvature="0" />

  </g>
    <g
       id="bullet-char-template-9679"
       transform="matrix(4.8828125e-4,0,0,-4.8828125e-4,0,0)">
   <path
   d="M 813,0 C 632,0 489,54 383,161 276,268 223,411 223,592 c 0,181 53,324 160,431 106,107 249,161 430,161 179,0 323,-54 432,-161 108,-107 162,-251 162,-431 0,-180 -54,-324 -162,-431 C 1136,54 992,0 813,0 Z"
   id="path2515"
   inkscape:connector-curvature="0" />

  </g>
    <g
       id="bullet-char-template-8226"
       transform="matrix(4.8828125e-4,0,0,-4.8828125e-4,0,0)">
   <path
   d="m 346,457 c -73,0 -137,26 -191,78 -54,51 -81,114 -81,188 0,73 27,136 81,188 54,52 118,78 191,78 73,0 134,-26 185,-79 51,-51 77,-114 77,-187 0,-75 -25,-137 -76,-188 -50,-52 -112,-78 -186,-78 z"
   id="path2518"
   inkscape:connector-curvature="0" />

  </g>
    <g
       id="bullet-char-template-8211"
       transform="matrix(4.8828125e-4,0,0,-4.8828125e-4,0,0)">
   <path
   d="M -4,459 H 1135 V 606 H -4 Z"
   id="path2521"
   inkscape:connector-curvature="0" />

  </g>
    <g
       id="bullet-char-template-61548"
       transform="matrix(4.8828125e-4,0,0,-4.8828125e-4,0,0)">
   <path
   d="m 173,740 c 0,163 58,303 173,419 116,115 255,173 419,173 163,0 302,-58 418,-173 116,-116 174,-256 174,-419 0,-163 -58,-303 -174,-418 C 1067,206 928,148 765,148 601,148 462,206 346,322 231,437 173,577 173,740 Z"
   id="path2524"
   inkscape:connector-curvature="0" />

  </g>
  </defs>
  <sodipodi:namedview
     inkscape:window-maximized="0"
     inkscape:window-y="27"
     inkscape:window-x="990"
     inkscape:window-height="1025"
     inkscape:window-width="930"
     showgrid="false"
     inkscape:document-rotation="0"
     inkscape:current-layer="g3638"
     inkscape:document-units="mm"
     inkscape:cy="597.63271"
     inkscape:cx="357.94897"
     inkscape:zoom="0.49497475"
     inkscape:pageshadow="2"
     inkscape:pageopacity="0.0"
     borderopacity="1.0"
     bordercolor="#666666"
     pagecolor="#ffffff"
     id="base" />
  <metadata
     id="metadata5">
    <rdf:RDF>
      <cc:Work
         rdf:about="">
        <dc:format>image/svg+xml</dc:format>
        <dc:type
           rdf:resource="http://purl.org/dc/dcmitype/StillImage" />
        <dc:title></dc:title>
      </cc:Work>
    </rdf:RDF>
  </metadata>
  <g
     transform="translate(-2.7646971,-2.253335)"
     id="layer1"
     inkscape:groupmode="layer"
     inkscape:label="Layer 1">
    <g
       transform="matrix(0.01,0,0,0.01,1.8958071,2.253335)"
       id="g1641"
       style="fill-rule:evenodd;stroke-width:28.222;stroke-linejoin:round">
      <g
         id="g2534"
         transform="translate(-1398,-2983.889)">
  <g
   id="id2"
   class="Master_Slide">
   <g
   id="bg-id2"
   class="Background" />

   <g
   id="bo-id2"
   class="BackgroundObjects" />

  </g>

 </g>
      <g
         class="SlideGroup"
         id="g3900"
         transform="translate(-1398,-2983.889)">
  <g
   id="g3898">
   <g
   id="container-id1">
    <g
   id="id1"
   class="Slide"
   clip-path="url(#presentation_clip_path)">
     <g
   class="Page"
   id="g3894">
      <g
   class="com.sun.star.drawing.PolyPolygonShape"
   id="g2543">
       <g
   id="id3">
        <rect
   class="BoundingBox"
   x="1498"
   y="2997"
   width="10005"
   height="10005"
   id="rect2536"
   style="fill:none;stroke:none" />

        <path
   d="M 6502,13000 H 1499 V 2998 h 10002 v 10002 z"
   id="path2538"
   inkscape:connector-curvature="0"
   style="fill:#aecf00;stroke:none" />

        <path
   d="M 6502,13000 H 1499 V 2998 h 10002 v 10002 z"
   id="path2540"
   inkscape:connector-curvature="0"
   style="fill:none;stroke:#3465a4" />

       </g>

      </g>

      <g
   class="com.sun.star.drawing.PolyPolygonShape"
   id="g2552">
       <g
   id="id4">
        <rect
   class="BoundingBox"
   x="1999"
   y="5999"
   width="1002"
   height="4005"
   id="rect2545"
   style="fill:none;stroke:none" />

        <path
   d="M 2502,10002 H 2000 V 6000 h 999 v 4002 z"
   id="path2547"
   inkscape:connector-curvature="0"
   style="fill:#dd4814;stroke:none" />

        <path
   d="M 2502,10002 H 2000 V 6000 h 999 v 4002 z"
   id="path2549"
   inkscape:connector-curvature="0"
   style="fill:none;stroke:#3465a4" />

       </g>

      </g>

      <g
   class="com.sun.star.drawing.PolyPolygonShape"
   id="g2561">
       <g
   id="id5">
        <rect
   class="BoundingBox"
   x="1999"
   y="7499"
   width="4004"
   height="1002"
   id="rect2554"
   style="fill:none;stroke:none" />

        <path
   d="m 6001,8001 v 498 H 2000 v -999 h 4001 z"
   id="path2556"
   inkscape:connector-curvature="0"
   style="fill:#dd4814;stroke:none" />

        <path
   d="m 6001,8001 v 498 H 2000 v -999 h 4001 z"
   id="path2558"
   inkscape:connector-curvature="0"
   style="fill:none;stroke:#3465a4" />

       </g>

      </g>

      <g
   class="com.sun.star.drawing.PolyPolygonShape"
   id="g2568">
       <g
   id="id6">
        <rect
   class="BoundingBox"
   x="6000"
   y="7496"
   width="503"
   height="1007"
   id="rect2563"
   style="fill:none;stroke:none" />

        <path
   d="M 6000,8502 V 7496 l 502,506 z m 0,0 z m 0,-1006 z"
   id="path2565"
   inkscape:connector-curvature="0"
   style="fill:#dd4814;stroke:none" />

       </g>

      </g>

      <g
   class="com.sun.star.drawing.PolyPolygonShape"
   id="g2575">
       <g
   id="id7">
        <rect
   class="BoundingBox"
   x="5999"
   y="7495"
   width="505"
   height="1009"
   id="rect2570"
   style="fill:none;stroke:none" />

        <path
   d="M 6000,8502 V 7496 l 502,506 z"
   id="path2572"
   inkscape:connector-curvature="0"
   style="fill:none;stroke:#3465a4" />

       </g>

      </g>

      <g
   class="com.sun.star.drawing.PolyPolygonShape"
   id="g2582">
       <g
   id="id8">
        <rect
   class="BoundingBox"
   x="5999"
   y="8500"
   width="3"
   height="3"
   id="rect2577"
   style="fill:none;stroke:none" />

        <path
   d="M 6000,8501 Z"
   id="path2579"
   inkscape:connector-curvature="0"
   style="fill:none;stroke:#3465a4" />

       </g>

      </g>

      <g
   class="com.sun.star.drawing.PolyPolygonShape"
   id="g2589">
       <g
   id="id9">
        <rect
   class="BoundingBox"
   x="5999"
   y="7495"
   width="3"
   height="3"
   id="rect2584"
   style="fill:none;stroke:none" />

        <path
   d="M 6000,7496 Z"
   id="path2586"
   inkscape:connector-curvature="0"
   style="fill:none;stroke:#3465a4" />

       </g>

      </g>

      <g
   class="com.sun.star.drawing.PolyPolygonShape"
   id="g2598">
       <g
   id="id10">
        <rect
   class="BoundingBox"
   x="10000"
   y="5999"
   width="1006"
   height="4005"
   id="rect2591"
   style="fill:none;stroke:none" />

        <path
   d="m 10502,6000 h 502 v 4002 H 10001 V 6000 Z"
   id="path2593"
   inkscape:connector-curvature="0"
   style="fill:#dd4814;stroke:none" />

        <path
   d="m 10502,6000 h 502 v 4002 H 10001 V 6000 Z"
   id="path2595"
   inkscape:connector-curvature="0"
   style="fill:none;stroke:#3465a4" />

       </g>

      </g>

      <g
   class="com.sun.star.drawing.PolyPolygonShape"
   id="g2607">
       <g
   id="id11">
        <rect
   class="BoundingBox"
   x="7001"
   y="7499"
   width="4005"
   height="1002"
   id="rect2600"
   style="fill:none;stroke:none" />

        <path
   d="m 7002,8001 v -501 h 4002 v 999 H 7002 Z"
   id="path2602"
   inkscape:connector-curvature="0"
   style="fill:#dd4814;stroke:none" />

        <path
   d="m 7002,8001 v -501 h 4002 v 999 H 7002 Z"
   id="path2604"
   inkscape:connector-curvature="0"
   style="fill:none;stroke:#3465a4" />

       </g>

      </g>

      <g
   class="com.sun.star.drawing.PolyPolygonShape"
   id="g2614">
       <g
   id="id12">
        <rect
   class="BoundingBox"
   x="6501"
   y="7496"
   width="503"
   height="1007"
   id="rect2609"
   style="fill:none;stroke:none" />

        <path
   d="m 7003,7496 v 1006 l -502,-500 z m 0,0 z m 0,1006 z"
   id="path2611"
   inkscape:connector-curvature="0"
   style="fill:#dd4814;stroke:none" />

       </g>

      </g>

      <g
   class="com.sun.star.drawing.PolyPolygonShape"
   id="g2621">
       <g
   id="id13">
        <rect
   class="BoundingBox"
   x="6500"
   y="7495"
   width="505"
   height="1009"
   id="rect2616"
   style="fill:none;stroke:none" />

        <path
   d="M 7003,7496 V 8502 L 6501,8002 Z"
   id="path2618"
   inkscape:connector-curvature="0"
   style="fill:none;stroke:#3465a4" />

       </g>

      </g>

      <g
   class="com.sun.star.drawing.PolyPolygonShape"
   id="g2628">
       <g
   id="id14">
        <rect
   class="BoundingBox"
   x="7001"
   y="7495"
   width="3"
   height="3"
   id="rect2623"
   style="fill:none;stroke:none" />

        <path
   d="M 7002,7496 Z"
   id="path2625"
   inkscape:connector-curvature="0"
   style="fill:none;stroke:#3465a4" />

       </g>

      </g>

      <g
   class="com.sun.star.drawing.PolyPolygonShape"
   id="g2635">
       <g
   id="id15">
        <rect
   class="BoundingBox"
   x="7001"
   y="8500"
   width="3"
   height="3"
   id="rect2630"
   style="fill:none;stroke:none" />

        <path
   d="M 7002,8501 Z"
   id="path2632"
   inkscape:connector-curvature="0"
   style="fill:none;stroke:#3465a4" />

       </g>

      </g>

      <g
   class="com.sun.star.drawing.ClosedBezierShape"
   id="g2642">
       <g
   id="id16">
        <rect
   class="BoundingBox"
   x="13500"
   y="5495"
   width="5001"
   height="5009"
   id="rect2637"
   style="fill:none;stroke:none" />

        <path
   d="m 18500,7934 v 131 c -17,684 -286,1284 -719,1718 L 16245,8252 h -494 l -1531,1531 c -448,-448 -720,-1076 -720,-1781 0,-711 272,-1339 720,-1783 l 1531,1532 h 497 l 1533,-1532 c 433,434 702,1034 719,1715 z M 13500,5513 v -17 l 7,10 c -3,4 -7,4 -7,7 z m 4,4983 -4,3 v -10 c 0,3 4,3 4,7 z m 4996,-4 v 11 l -7,-7 c 4,0 4,-4 7,-4 z m -7,-4989 7,-4 v 11 c -3,0 -3,-4 -7,-7 z"
   id="path2639"
   inkscape:connector-curvature="0"
   style="fill:#dd4814;stroke:none" />

       </g>

      </g>

      <g
   class="com.sun.star.drawing.ClosedBezierShape"
   id="g2649">
       <g
   id="id17">
        <rect
   class="BoundingBox"
   x="13499"
   y="6218"
   width="5003"
   height="3567"
   id="rect2644"
   style="fill:none;stroke:none" />

        <path
   d="m 18500,7933 v 131 c -17,684 -286,1285 -719,1719 L 16245,8251 h -494 l -1531,1532 c -448,-448 -720,-1077 -720,-1782 0,-710 272,-1338 720,-1782 l 1531,1531 h 497 l 1533,-1531 c 433,434 702,1034 719,1714 z"
   id="path2646"
   inkscape:connector-curvature="0"
   style="fill:none;stroke:#3465a4" />

       </g>

      </g>

      <g
   class="com.sun.star.drawing.ClosedBezierShape"
   id="g2656">
       <g
   id="id18">
        <rect
   class="BoundingBox"
   x="13499"
   y="5495"
   width="11"
   height="21"
   id="rect2651"
   style="fill:none;stroke:none" />

        <path
   d="m 13500,5514 v -18 l 8,11 c -4,4 -8,4 -8,7 z"
   id="path2653"
   inkscape:connector-curvature="0"
   style="fill:none;stroke:#3465a4" />

       </g>

      </g>

      <g
   class="com.sun.star.drawing.ClosedBezierShape"
   id="g2663">
       <g
   id="id19">
        <rect
   class="BoundingBox"
   x="13499"
   y="10487"
   width="8"
   height="14"
   id="rect2658"
   style="fill:none;stroke:none" />

        <path
   d="m 13505,10496 -5,3 v -11 c 0,3 5,3 5,8 z"
   id="path2660"
   inkscape:connector-curvature="0"
   style="fill:none;stroke:#3465a4" />

       </g>

      </g>

      <g
   class="com.sun.star.drawing.ClosedBezierShape"
   id="g2670">
       <g
   id="id20">
        <rect
   class="BoundingBox"
   x="18491"
   y="10490"
   width="11"
   height="15"
   id="rect2665"
   style="fill:none;stroke:none" />

        <path
   d="m 18500,10491 v 12 l -8,-7 c 4,0 4,-5 8,-5 z"
   id="path2667"
   inkscape:connector-curvature="0"
   style="fill:none;stroke:#3465a4" />

       </g>

      </g>

      <g
   class="com.sun.star.drawing.ClosedBezierShape"
   id="g2677">
       <g
   id="id21">
        <rect
   class="BoundingBox"
   x="18491"
   y="5498"
   width="11"
   height="15"
   id="rect2672"
   style="fill:none;stroke:none" />

        <path
   d="m 18492,5503 8,-4 v 12 c -4,0 -4,-4 -8,-8 z"
   id="path2674"
   inkscape:connector-curvature="0"
   style="fill:none;stroke:#3465a4" />

       </g>

      </g>

      <g
   class="com.sun.star.drawing.ClosedBezierShape"
   id="g2742">
       <g
   id="id22">
        <rect
   class="BoundingBox"
   x="5999"
   y="7499"
   width="1003"
   height="1002"
   id="rect2679"
   style="fill:none;stroke:none" />

        <path
   d="m 6502,7500 c 18,0 36,1 53,3"
   id="path2681"
   inkscape:connector-curvature="0"
   style="fill:none;stroke:#000000" />

        <path
   d="m 6608,7510 c 17,4 34,8 51,14"
   id="path2683"
   inkscape:connector-curvature="0"
   style="fill:none;stroke:#000000" />

        <path
   d="m 6709,7542 c 16,7 32,15 47,24"
   id="path2685"
   inkscape:connector-curvature="0"
   style="fill:none;stroke:#000000" />

        <path
   d="m 6800,7595 c 15,10 28,22 41,33"
   id="path2687"
   inkscape:connector-curvature="0"
   style="fill:none;stroke:#000000" />

        <path
   d="m 6878,7666 c 12,14 23,28 33,42"
   id="path2689"
   inkscape:connector-curvature="0"
   style="fill:none;stroke:#000000" />

        <path
   d="m 6939,7753 c 8,16 16,32 22,48"
   id="path2691"
   inkscape:connector-curvature="0"
   style="fill:none;stroke:#000000" />

        <path
   d="m 6979,7851 c 5,17 9,34 12,52"
   id="path2693"
   inkscape:connector-curvature="0"
   style="fill:none;stroke:#000000" />

        <path
   d="m 6998,7955 c 1,15 2,30 2,46 0,3 0,5 0,8"
   id="path2695"
   inkscape:connector-curvature="0"
   style="fill:none;stroke:#000000" />

        <path
   d="m 6997,8062 c -2,18 -5,35 -9,52"
   id="path2697"
   inkscape:connector-curvature="0"
   style="fill:none;stroke:#000000" />

        <path
   d="m 6974,8165 c -6,17 -12,33 -19,49"
   id="path2699"
   inkscape:connector-curvature="0"
   style="fill:none;stroke:#000000" />

        <path
   d="m 6930,8261 c -9,16 -19,30 -29,44"
   id="path2701"
   inkscape:connector-curvature="0"
   style="fill:none;stroke:#000000" />

        <path
   d="m 6866,8346 c -12,13 -25,25 -38,36"
   id="path2703"
   inkscape:connector-curvature="0"
   style="fill:none;stroke:#000000" />

        <path
   d="m 6786,8414 c -15,10 -30,19 -46,28"
   id="path2705"
   inkscape:connector-curvature="0"
   style="fill:none;stroke:#000000" />

        <path
   d="m 6692,8464 c -16,6 -33,12 -50,16"
   id="path2707"
   inkscape:connector-curvature="0"
   style="fill:none;stroke:#000000" />

        <path
   d="m 6590,8492 c -17,3 -35,5 -52,6"
   id="path2709"
   inkscape:connector-curvature="0"
   style="fill:none;stroke:#000000" />

        <path
   d="m 6484,8499 c -18,-1 -36,-2 -53,-5"
   id="path2711"
   inkscape:connector-curvature="0"
   style="fill:none;stroke:#000000" />

        <path
   d="m 6379,8485 c -18,-4 -35,-9 -51,-15"
   id="path2713"
   inkscape:connector-curvature="0"
   style="fill:none;stroke:#000000" />

        <path
   d="m 6279,8450 c -16,-7 -32,-16 -47,-25"
   id="path2715"
   inkscape:connector-curvature="0"
   style="fill:none;stroke:#000000" />

        <path
   d="m 6188,8395 c -14,-10 -27,-22 -40,-34"
   id="path2717"
   inkscape:connector-curvature="0"
   style="fill:none;stroke:#000000" />

        <path
   d="m 6112,8322 c -11,-14 -21,-28 -31,-43"
   id="path2719"
   inkscape:connector-curvature="0"
   style="fill:none;stroke:#000000" />

        <path
   d="m 6054,8233 c -8,-15 -15,-32 -21,-48"
   id="path2721"
   inkscape:connector-curvature="0"
   style="fill:none;stroke:#000000" />

        <path
   d="m 6017,8134 c -5,-17 -8,-34 -11,-52"
   id="path2723"
   inkscape:connector-curvature="0"
   style="fill:none;stroke:#000000" />

        <path
   d="m 6001,8030 c -1,-10 -1,-19 -1,-29 0,-8 0,-17 1,-25"
   id="path2725"
   inkscape:connector-curvature="0"
   style="fill:none;stroke:#000000" />

        <path
   d="m 6005,7923 c 3,-17 6,-35 11,-52"
   id="path2727"
   inkscape:connector-curvature="0"
   style="fill:none;stroke:#000000" />

        <path
   d="m 6031,7821 c 6,-17 13,-33 21,-49"
   id="path2729"
   inkscape:connector-curvature="0"
   style="fill:none;stroke:#000000" />

        <path
   d="m 6077,7726 c 10,-15 20,-30 31,-44"
   id="path2731"
   inkscape:connector-curvature="0"
   style="fill:none;stroke:#000000" />

        <path
   d="m 6144,7643 c 12,-12 25,-24 39,-35"
   id="path2733"
   inkscape:connector-curvature="0"
   style="fill:none;stroke:#000000" />

        <path
   d="m 6226,7577 c 15,-9 31,-18 47,-26"
   id="path2735"
   inkscape:connector-curvature="0"
   style="fill:none;stroke:#000000" />

        <path
   d="m 6322,7531 c 16,-6 33,-11 50,-16"
   id="path2737"
   inkscape:connector-curvature="0"
   style="fill:none;stroke:#000000" />

        <path
   d="m 6424,7505 c 18,-2 35,-4 53,-4"
   id="path2739"
   inkscape:connector-curvature="0"
   style="fill:none;stroke:#000000" />

       </g>

      </g>

      <g
   class="com.sun.star.drawing.PolyPolygonShape"
   id="g2747">
       <g
   id="id23">
        <rect
   class="BoundingBox"
   x="5999"
   y="7499"
   width="3"
   height="3"
   id="rect2744"
   style="fill:none;stroke:none" />

       </g>

      </g>

      <g
   class="com.sun.star.drawing.PolyPolygonShape"
   id="g2752">
       <g
   id="id24">
        <rect
   class="BoundingBox"
   x="7001"
   y="8500"
   width="3"
   height="3"
   id="rect2749"
   style="fill:none;stroke:none" />

       </g>

      </g>

      <g
   class="com.sun.star.drawing.ClosedBezierShape"
   id="g3055">
       <g
   id="id25">
        <rect
   class="BoundingBox"
   x="13499"
   y="5498"
   width="5003"
   height="5003"
   id="rect2754"
   style="fill:none;stroke:none" />

        <path
   d="m 15998,5499 c 18,0 36,0 54,1"
   id="path2756"
   inkscape:connector-curvature="0"
   style="fill:none;stroke:#000000" />

        <path
   d="m 16106,5501 c 18,1 35,2 53,3"
   id="path2758"
   inkscape:connector-curvature="0"
   style="fill:none;stroke:#000000" />

        <path
   d="m 16212,5507 c 18,2 35,3 53,5"
   id="path2760"
   inkscape:connector-curvature="0"
   style="fill:none;stroke:#000000" />

        <path
   d="m 16317,5518 c 17,2 35,4 52,6"
   id="path2762"
   inkscape:connector-curvature="0"
   style="fill:none;stroke:#000000" />

        <path
   d="m 16421,5532 c 18,3 35,6 53,9"
   id="path2764"
   inkscape:connector-curvature="0"
   style="fill:none;stroke:#000000" />

        <path
   d="m 16526,5551 c 18,4 35,7 53,11"
   id="path2766"
   inkscape:connector-curvature="0"
   style="fill:none;stroke:#000000" />

        <path
   d="m 16630,5574 c 17,4 34,9 51,13"
   id="path2768"
   inkscape:connector-curvature="0"
   style="fill:none;stroke:#000000" />

        <path
   d="m 16732,5601 c 17,5 34,10 50,16"
   id="path2770"
   inkscape:connector-curvature="0"
   style="fill:none;stroke:#000000" />

        <path
   d="m 16833,5633 c 17,6 34,11 50,17"
   id="path2772"
   inkscape:connector-curvature="0"
   style="fill:none;stroke:#000000" />

        <path
   d="m 16933,5669 c 17,6 33,13 50,20"
   id="path2774"
   inkscape:connector-curvature="0"
   style="fill:none;stroke:#000000" />

        <path
   d="m 17031,5709 c 17,7 33,14 49,22"
   id="path2776"
   inkscape:connector-curvature="0"
   style="fill:none;stroke:#000000" />

        <path
   d="m 17127,5753 c 16,8 32,16 48,24"
   id="path2778"
   inkscape:connector-curvature="0"
   style="fill:none;stroke:#000000" />

        <path
   d="m 17222,5802 c 15,8 31,17 46,25"
   id="path2780"
   inkscape:connector-curvature="0"
   style="fill:none;stroke:#000000" />

        <path
   d="m 17314,5854 c 15,9 30,19 45,28"
   id="path2782"
   inkscape:connector-curvature="0"
   style="fill:none;stroke:#000000" />

        <path
   d="m 17404,5911 c 15,9 29,19 44,29"
   id="path2784"
   inkscape:connector-curvature="0"
   style="fill:none;stroke:#000000" />

        <path
   d="m 17491,5971 c 14,10 28,21 42,31"
   id="path2786"
   inkscape:connector-curvature="0"
   style="fill:none;stroke:#000000" />

        <path
   d="m 17575,6035 c 14,11 28,22 42,33"
   id="path2788"
   inkscape:connector-curvature="0"
   style="fill:none;stroke:#000000" />

        <path
   d="m 17657,6103 c 13,11 27,23 40,35"
   id="path2790"
   inkscape:connector-curvature="0"
   style="fill:none;stroke:#000000" />

        <path
   d="m 17736,6174 c 12,12 25,24 38,37"
   id="path2792"
   inkscape:connector-curvature="0"
   style="fill:none;stroke:#000000" />

        <path
   d="m 17811,6249 c 12,12 24,25 36,38"
   id="path2794"
   inkscape:connector-curvature="0"
   style="fill:none;stroke:#000000" />

        <path
   d="m 17883,6326 c 11,14 23,27 34,41"
   id="path2796"
   inkscape:connector-curvature="0"
   style="fill:none;stroke:#000000" />

        <path
   d="m 17951,6407 c 11,14 22,28 33,42"
   id="path2798"
   inkscape:connector-curvature="0"
   style="fill:none;stroke:#000000" />

        <path
   d="m 18016,6492 c 11,14 21,28 31,43"
   id="path2800"
   inkscape:connector-curvature="0"
   style="fill:none;stroke:#000000" />

        <path
   d="m 18077,6578 c 10,15 19,29 29,44"
   id="path2802"
   inkscape:connector-curvature="0"
   style="fill:none;stroke:#000000" />

        <path
   d="m 18134,6667 c 9,15 18,31 27,46"
   id="path2804"
   inkscape:connector-curvature="0"
   style="fill:none;stroke:#000000" />

        <path
   d="m 18187,6759 c 9,16 17,31 26,47"
   id="path2806"
   inkscape:connector-curvature="0"
   style="fill:none;stroke:#000000" />

        <path
   d="m 18237,6853 c 7,16 15,32 23,48"
   id="path2808"
   inkscape:connector-curvature="0"
   style="fill:none;stroke:#000000" />

        <path
   d="m 18282,6949 c 7,16 14,32 20,48"
   id="path2810"
   inkscape:connector-curvature="0"
   style="fill:none;stroke:#000000" />

        <path
   d="m 18322,7047 c 7,16 13,33 19,49"
   id="path2812"
   inkscape:connector-curvature="0"
   style="fill:none;stroke:#000000" />

        <path
   d="m 18359,7147 c 6,16 12,33 17,50"
   id="path2814"
   inkscape:connector-curvature="0"
   style="fill:none;stroke:#000000" />

        <path
   d="m 18392,7247 c 5,17 10,34 14,51"
   id="path2816"
   inkscape:connector-curvature="0"
   style="fill:none;stroke:#000000" />

        <path
   d="m 18420,7349 c 4,17 8,34 12,51"
   id="path2818"
   inkscape:connector-curvature="0"
   style="fill:none;stroke:#000000" />

        <path
   d="m 18444,7452 c 3,18 7,35 10,53"
   id="path2820"
   inkscape:connector-curvature="0"
   style="fill:none;stroke:#000000" />

        <path
   d="m 18464,7558 c 2,17 5,34 8,52"
   id="path2822"
   inkscape:connector-curvature="0"
   style="fill:none;stroke:#000000" />

        <path
   d="m 18479,7662 c 2,17 4,34 6,52"
   id="path2824"
   inkscape:connector-curvature="0"
   style="fill:none;stroke:#000000" />

        <path
   d="m 18490,7766 c 1,18 3,36 4,53"
   id="path2826"
   inkscape:connector-curvature="0"
   style="fill:none;stroke:#000000" />

        <path
   d="m 18497,7872 c 1,18 1,36 2,54"
   id="path2828"
   inkscape:connector-curvature="0"
   style="fill:none;stroke:#000000" />

        <path
   d="m 18500,7980 c 0,7 0,15 0,22 0,11 0,21 0,32"
   id="path2830"
   inkscape:connector-curvature="0"
   style="fill:none;stroke:#000000" />

        <path
   d="m 18499,8088 c -1,18 -2,36 -3,53"
   id="path2832"
   inkscape:connector-curvature="0"
   style="fill:none;stroke:#000000" />

        <path
   d="m 18493,8195 c -1,17 -2,35 -4,52"
   id="path2834"
   inkscape:connector-curvature="0"
   style="fill:none;stroke:#000000" />

        <path
   d="m 18484,8300 c -2,17 -4,35 -7,52"
   id="path2836"
   inkscape:connector-curvature="0"
   style="fill:none;stroke:#000000" />

        <path
   d="m 18470,8404 c -3,17 -5,35 -8,52"
   id="path2838"
   inkscape:connector-curvature="0"
   style="fill:none;stroke:#000000" />

        <path
   d="m 18452,8509 c -4,18 -7,35 -11,52"
   id="path2840"
   inkscape:connector-curvature="0"
   style="fill:none;stroke:#000000" />

        <path
   d="m 18429,8613 c -4,17 -8,34 -12,52"
   id="path2842"
   inkscape:connector-curvature="0"
   style="fill:none;stroke:#000000" />

        <path
   d="m 18403,8715 c -5,17 -10,34 -15,51"
   id="path2844"
   inkscape:connector-curvature="0"
   style="fill:none;stroke:#000000" />

        <path
   d="m 18372,8816 c -5,17 -11,34 -17,51"
   id="path2846"
   inkscape:connector-curvature="0"
   style="fill:none;stroke:#000000" />

        <path
   d="m 18337,8917 c -6,16 -13,33 -19,49"
   id="path2848"
   inkscape:connector-curvature="0"
   style="fill:none;stroke:#000000" />

        <path
   d="m 18297,9015 c -7,17 -14,33 -21,49"
   id="path2850"
   inkscape:connector-curvature="0"
   style="fill:none;stroke:#000000" />

        <path
   d="m 18254,9112 c -8,15 -15,31 -23,47"
   id="path2852"
   inkscape:connector-curvature="0"
   style="fill:none;stroke:#000000" />

        <path
   d="m 18206,9206 c -8,16 -17,31 -25,47"
   id="path2854"
   inkscape:connector-curvature="0"
   style="fill:none;stroke:#000000" />

        <path
   d="m 18154,9299 c -9,15 -18,30 -27,45"
   id="path2856"
   inkscape:connector-curvature="0"
   style="fill:none;stroke:#000000" />

        <path
   d="m 18098,9389 c -9,15 -19,30 -29,44"
   id="path2858"
   inkscape:connector-curvature="0"
   style="fill:none;stroke:#000000" />

        <path
   d="m 18039,9476 c -11,15 -21,29 -32,43"
   id="path2860"
   inkscape:connector-curvature="0"
   style="fill:none;stroke:#000000" />

        <path
   d="m 17975,9561 c -11,14 -22,28 -33,42"
   id="path2862"
   inkscape:connector-curvature="0"
   style="fill:none;stroke:#000000" />

        <path
   d="m 17908,9644 c -12,13 -23,26 -35,39"
   id="path2864"
   inkscape:connector-curvature="0"
   style="fill:none;stroke:#000000" />

        <path
   d="m 17837,9723 c -12,12 -24,25 -37,38"
   id="path2866"
   inkscape:connector-curvature="0"
   style="fill:none;stroke:#000000" />

        <path
   d="m 17763,9798 c -13,13 -25,25 -38,37"
   id="path2868"
   inkscape:connector-curvature="0"
   style="fill:none;stroke:#000000" />

        <path
   d="m 17686,9871 c -14,11 -27,23 -40,35"
   id="path2870"
   inkscape:connector-curvature="0"
   style="fill:none;stroke:#000000" />

        <path
   d="m 17605,9940 c -14,11 -27,22 -41,33"
   id="path2872"
   inkscape:connector-curvature="0"
   style="fill:none;stroke:#000000" />

        <path
   d="m 17521,10005 c -14,11 -28,21 -42,31"
   id="path2874"
   inkscape:connector-curvature="0"
   style="fill:none;stroke:#000000" />

        <path
   d="m 17435,10067 c -14,10 -29,19 -44,29"
   id="path2876"
   inkscape:connector-curvature="0"
   style="fill:none;stroke:#000000" />

        <path
   d="m 17347,10124 c -15,10 -31,19 -46,28"
   id="path2878"
   inkscape:connector-curvature="0"
   style="fill:none;stroke:#000000" />

        <path
   d="m 17255,10178 c -15,9 -31,17 -47,26"
   id="path2880"
   inkscape:connector-curvature="0"
   style="fill:none;stroke:#000000" />

        <path
   d="m 17161,10228 c -16,8 -31,16 -47,23"
   id="path2882"
   inkscape:connector-curvature="0"
   style="fill:none;stroke:#000000" />

        <path
   d="m 17066,10274 c -16,7 -32,14 -48,21"
   id="path2884"
   inkscape:connector-curvature="0"
   style="fill:none;stroke:#000000" />

        <path
   d="m 16969,10315 c -17,7 -33,13 -50,19"
   id="path2886"
   inkscape:connector-curvature="0"
   style="fill:none;stroke:#000000" />

        <path
   d="m 16869,10353 c -17,6 -34,11 -51,17"
   id="path2888"
   inkscape:connector-curvature="0"
   style="fill:none;stroke:#000000" />

        <path
   d="m 16768,10386 c -17,5 -34,10 -50,15"
   id="path2890"
   inkscape:connector-curvature="0"
   style="fill:none;stroke:#000000" />

        <path
   d="m 16667,10415 c -17,4 -34,8 -52,12"
   id="path2892"
   inkscape:connector-curvature="0"
   style="fill:none;stroke:#000000" />

        <path
   d="m 16564,10439 c -18,4 -35,8 -53,11"
   id="path2894"
   inkscape:connector-curvature="0"
   style="fill:none;stroke:#000000" />

        <path
   d="m 16459,10460 c -18,3 -36,6 -53,8"
   id="path2896"
   inkscape:connector-curvature="0"
   style="fill:none;stroke:#000000" />

        <path
   d="m 16354,10476 c -17,2 -34,4 -52,6"
   id="path2898"
   inkscape:connector-curvature="0"
   style="fill:none;stroke:#000000" />

        <path
   d="m 16250,10487 c -18,2 -35,4 -53,5"
   id="path2900"
   inkscape:connector-curvature="0"
   style="fill:none;stroke:#000000" />

        <path
   d="m 16144,10495 c -18,1 -36,2 -54,2"
   id="path2902"
   inkscape:connector-curvature="0"
   style="fill:none;stroke:#000000" />

        <path
   d="m 16037,10499 c -13,0 -26,0 -39,0 -5,0 -10,0 -16,0"
   id="path2904"
   inkscape:connector-curvature="0"
   style="fill:none;stroke:#000000" />

        <path
   d="m 15929,10498 c -18,0 -36,-1 -54,-2"
   id="path2906"
   inkscape:connector-curvature="0"
   style="fill:none;stroke:#000000" />

        <path
   d="m 15822,10493 c -18,-1 -36,-2 -53,-4"
   id="path2908"
   inkscape:connector-curvature="0"
   style="fill:none;stroke:#000000" />

        <path
   d="m 15716,10484 c -17,-1 -35,-3 -52,-6"
   id="path2910"
   inkscape:connector-curvature="0"
   style="fill:none;stroke:#000000" />

        <path
   d="m 15612,10471 c -17,-2 -35,-5 -52,-8"
   id="path2912"
   inkscape:connector-curvature="0"
   style="fill:none;stroke:#000000" />

        <path
   d="m 15507,10454 c -18,-3 -35,-7 -52,-10"
   id="path2914"
   inkscape:connector-curvature="0"
   style="fill:none;stroke:#000000" />

        <path
   d="m 15403,10432 c -18,-4 -35,-8 -52,-12"
   id="path2916"
   inkscape:connector-curvature="0"
   style="fill:none;stroke:#000000" />

        <path
   d="m 15300,10406 c -17,-4 -34,-9 -50,-14"
   id="path2918"
   inkscape:connector-curvature="0"
   style="fill:none;stroke:#000000" />

        <path
   d="m 15199,10377 c -17,-6 -33,-12 -50,-17"
   id="path2920"
   inkscape:connector-curvature="0"
   style="fill:none;stroke:#000000" />

        <path
   d="m 15098,10342 c -16,-6 -33,-13 -49,-19"
   id="path2922"
   inkscape:connector-curvature="0"
   style="fill:none;stroke:#000000" />

        <path
   d="m 14999,10303 c -16,-7 -32,-14 -48,-21"
   id="path2924"
   inkscape:connector-curvature="0"
   style="fill:none;stroke:#000000" />

        <path
   d="m 14903,10260 c -16,-7 -32,-15 -48,-23"
   id="path2926"
   inkscape:connector-curvature="0"
   style="fill:none;stroke:#000000" />

        <path
   d="m 14808,10213 c -16,-8 -31,-16 -47,-25"
   id="path2928"
   inkscape:connector-curvature="0"
   style="fill:none;stroke:#000000" />

        <path
   d="m 14715,10162 c -16,-9 -31,-18 -46,-27"
   id="path2930"
   inkscape:connector-curvature="0"
   style="fill:none;stroke:#000000" />

        <path
   d="m 14624,10107 c -15,-10 -29,-19 -44,-29"
   id="path2932"
   inkscape:connector-curvature="0"
   style="fill:none;stroke:#000000" />

        <path
   d="m 14536,10048 c -14,-10 -28,-20 -43,-31"
   id="path2934"
   inkscape:connector-curvature="0"
   style="fill:none;stroke:#000000" />

        <path
   d="m 14451,9985 c -14,-11 -28,-22 -42,-33"
   id="path2936"
   inkscape:connector-curvature="0"
   style="fill:none;stroke:#000000" />

        <path
   d="m 14368,9918 c -13,-11 -27,-22 -40,-34"
   id="path2938"
   inkscape:connector-curvature="0"
   style="fill:none;stroke:#000000" />

        <path
   d="m 14289,9848 c -13,-12 -26,-24 -39,-36"
   id="path2940"
   inkscape:connector-curvature="0"
   style="fill:none;stroke:#000000" />

        <path
   d="m 14212,9775 c -12,-13 -24,-25 -36,-38"
   id="path2942"
   inkscape:connector-curvature="0"
   style="fill:none;stroke:#000000" />

        <path
   d="m 14139,9698 c -11,-13 -23,-26 -35,-40"
   id="path2944"
   inkscape:connector-curvature="0"
   style="fill:none;stroke:#000000" />

        <path
   d="m 14070,9618 c -11,-14 -23,-27 -34,-41"
   id="path2946"
   inkscape:connector-curvature="0"
   style="fill:none;stroke:#000000" />

        <path
   d="m 14004,9535 c -11,-14 -22,-28 -32,-43"
   id="path2948"
   inkscape:connector-curvature="0"
   style="fill:none;stroke:#000000" />

        <path
   d="m 13942,9449 c -10,-14 -20,-29 -30,-44"
   id="path2950"
   inkscape:connector-curvature="0"
   style="fill:none;stroke:#000000" />

        <path
   d="m 13883,9361 c -9,-15 -18,-30 -28,-45"
   id="path2952"
   inkscape:connector-curvature="0"
   style="fill:none;stroke:#000000" />

        <path
   d="m 13829,9270 c -9,-16 -18,-31 -26,-47"
   id="path2954"
   inkscape:connector-curvature="0"
   style="fill:none;stroke:#000000" />

        <path
   d="m 13778,9176 c -8,-15 -16,-31 -24,-47"
   id="path2956"
   inkscape:connector-curvature="0"
   style="fill:none;stroke:#000000" />

        <path
   d="m 13732,9081 c -8,-16 -15,-32 -22,-48"
   id="path2958"
   inkscape:connector-curvature="0"
   style="fill:none;stroke:#000000" />

        <path
   d="m 13690,8984 c -7,-16 -14,-32 -20,-49"
   id="path2960"
   inkscape:connector-curvature="0"
   style="fill:none;stroke:#000000" />

        <path
   d="m 13651,8885 c -6,-17 -12,-34 -17,-50"
   id="path2962"
   inkscape:connector-curvature="0"
   style="fill:none;stroke:#000000" />

        <path
   d="m 13617,8784 c -5,-17 -10,-33 -15,-50"
   id="path2964"
   inkscape:connector-curvature="0"
   style="fill:none;stroke:#000000" />

        <path
   d="m 13588,8683 c -4,-17 -9,-34 -13,-51"
   id="path2966"
   inkscape:connector-curvature="0"
   style="fill:none;stroke:#000000" />

        <path
   d="m 13563,8580 c -4,-17 -8,-34 -11,-52"
   id="path2968"
   inkscape:connector-curvature="0"
   style="fill:none;stroke:#000000" />

        <path
   d="m 13542,8476 c -3,-18 -6,-36 -9,-53"
   id="path2970"
   inkscape:connector-curvature="0"
   style="fill:none;stroke:#000000" />

        <path
   d="m 13525,8371 c -2,-17 -4,-35 -7,-52"
   id="path2972"
   inkscape:connector-curvature="0"
   style="fill:none;stroke:#000000" />

        <path
   d="m 13513,8267 c -2,-18 -3,-36 -5,-53"
   id="path2974"
   inkscape:connector-curvature="0"
   style="fill:none;stroke:#000000" />

        <path
   d="m 13505,8161 c -1,-18 -2,-36 -3,-54"
   id="path2976"
   inkscape:connector-curvature="0"
   style="fill:none;stroke:#000000" />

        <path
   d="m 13500,8054 c 0,-17 0,-35 0,-52 0,-1 0,-2 0,-2"
   id="path2978"
   inkscape:connector-curvature="0"
   style="fill:none;stroke:#000000" />

        <path
   d="m 13501,7946 c 0,-18 0,-36 1,-54"
   id="path2980"
   inkscape:connector-curvature="0"
   style="fill:none;stroke:#000000" />

        <path
   d="m 13505,7839 c 1,-18 2,-36 4,-53"
   id="path2982"
   inkscape:connector-curvature="0"
   style="fill:none;stroke:#000000" />

        <path
   d="m 13513,7733 c 2,-18 4,-35 6,-52"
   id="path2984"
   inkscape:connector-curvature="0"
   style="fill:none;stroke:#000000" />

        <path
   d="m 13526,7629 c 2,-18 5,-35 7,-52"
   id="path2986"
   inkscape:connector-curvature="0"
   style="fill:none;stroke:#000000" />

        <path
   d="m 13542,7524 c 3,-18 7,-35 10,-53"
   id="path2988"
   inkscape:connector-curvature="0"
   style="fill:none;stroke:#000000" />

        <path
   d="m 13563,7419 c 4,-17 8,-34 13,-51"
   id="path2990"
   inkscape:connector-curvature="0"
   style="fill:none;stroke:#000000" />

        <path
   d="m 13589,7316 c 4,-17 9,-34 14,-50"
   id="path2992"
   inkscape:connector-curvature="0"
   style="fill:none;stroke:#000000" />

        <path
   d="m 13618,7215 c 5,-16 11,-33 16,-50"
   id="path2994"
   inkscape:connector-curvature="0"
   style="fill:none;stroke:#000000" />

        <path
   d="m 13652,7114 c 6,-16 12,-33 18,-50"
   id="path2996"
   inkscape:connector-curvature="0"
   style="fill:none;stroke:#000000" />

        <path
   d="m 13690,7015 c 7,-16 14,-33 21,-49"
   id="path2998"
   inkscape:connector-curvature="0"
   style="fill:none;stroke:#000000" />

        <path
   d="m 13732,6918 c 7,-16 15,-32 23,-48"
   id="path3000"
   inkscape:connector-curvature="0"
   style="fill:none;stroke:#000000" />

        <path
   d="m 13778,6823 c 8,-16 17,-31 25,-47"
   id="path3002"
   inkscape:connector-curvature="0"
   style="fill:none;stroke:#000000" />

        <path
   d="m 13829,6729 c 9,-15 18,-30 27,-45"
   id="path3004"
   inkscape:connector-curvature="0"
   style="fill:none;stroke:#000000" />

        <path
   d="m 13883,6638 c 10,-15 19,-29 29,-44"
   id="path3006"
   inkscape:connector-curvature="0"
   style="fill:none;stroke:#000000" />

        <path
   d="m 13942,6550 c 10,-14 20,-29 30,-43"
   id="path3008"
   inkscape:connector-curvature="0"
   style="fill:none;stroke:#000000" />

        <path
   d="m 14004,6464 c 10,-14 21,-28 32,-42"
   id="path3010"
   inkscape:connector-curvature="0"
   style="fill:none;stroke:#000000" />

        <path
   d="m 14070,6381 c 11,-13 23,-27 34,-40"
   id="path3012"
   inkscape:connector-curvature="0"
   style="fill:none;stroke:#000000" />

        <path
   d="m 14139,6301 c 12,-13 24,-26 36,-39"
   id="path3014"
   inkscape:connector-curvature="0"
   style="fill:none;stroke:#000000" />

        <path
   d="m 14212,6224 c 13,-12 25,-25 38,-37"
   id="path3016"
   inkscape:connector-curvature="0"
   style="fill:none;stroke:#000000" />

        <path
   d="m 14288,6151 c 13,-12 27,-24 40,-36"
   id="path3018"
   inkscape:connector-curvature="0"
   style="fill:none;stroke:#000000" />

        <path
   d="m 14368,6080 c 13,-11 27,-22 41,-33"
   id="path3020"
   inkscape:connector-curvature="0"
   style="fill:none;stroke:#000000" />

        <path
   d="m 14451,6014 c 14,-11 28,-22 42,-32"
   id="path3022"
   inkscape:connector-curvature="0"
   style="fill:none;stroke:#000000" />

        <path
   d="m 14536,5951 c 14,-10 29,-20 43,-30"
   id="path3024"
   inkscape:connector-curvature="0"
   style="fill:none;stroke:#000000" />

        <path
   d="m 14624,5892 c 15,-10 30,-19 45,-28"
   id="path3026"
   inkscape:connector-curvature="0"
   style="fill:none;stroke:#000000" />

        <path
   d="m 14714,5837 c 16,-9 31,-18 47,-27"
   id="path3028"
   inkscape:connector-curvature="0"
   style="fill:none;stroke:#000000" />

        <path
   d="m 14807,5785 c 16,-8 32,-16 48,-24"
   id="path3030"
   inkscape:connector-curvature="0"
   style="fill:none;stroke:#000000" />

        <path
   d="m 14902,5738 c 16,-7 32,-15 48,-22"
   id="path3032"
   inkscape:connector-curvature="0"
   style="fill:none;stroke:#000000" />

        <path
   d="m 14999,5695 c 16,-6 32,-13 49,-20"
   id="path3034"
   inkscape:connector-curvature="0"
   style="fill:none;stroke:#000000" />

        <path
   d="m 15098,5657 c 16,-7 33,-13 50,-18"
   id="path3036"
   inkscape:connector-curvature="0"
   style="fill:none;stroke:#000000" />

        <path
   d="m 15199,5622 c 16,-6 33,-11 50,-16"
   id="path3038"
   inkscape:connector-curvature="0"
   style="fill:none;stroke:#000000" />

        <path
   d="m 15299,5592 c 17,-5 34,-9 51,-14"
   id="path3040"
   inkscape:connector-curvature="0"
   style="fill:none;stroke:#000000" />

        <path
   d="m 15402,5566 c 17,-4 34,-8 52,-12"
   id="path3042"
   inkscape:connector-curvature="0"
   style="fill:none;stroke:#000000" />

        <path
   d="m 15506,5544 c 18,-3 35,-6 53,-9"
   id="path3044"
   inkscape:connector-curvature="0"
   style="fill:none;stroke:#000000" />

        <path
   d="m 15611,5527 c 18,-3 35,-5 52,-7"
   id="path3046"
   inkscape:connector-curvature="0"
   style="fill:none;stroke:#000000" />

        <path
   d="m 15715,5514 c 18,-2 35,-4 53,-5"
   id="path3048"
   inkscape:connector-curvature="0"
   style="fill:none;stroke:#000000" />

        <path
   d="m 15821,5505 c 18,-1 35,-2 53,-3"
   id="path3050"
   inkscape:connector-curvature="0"
   style="fill:none;stroke:#000000" />

        <path
   d="m 15928,5500 c 18,-1 36,-1 54,-1"
   id="path3052"
   inkscape:connector-curvature="0"
   style="fill:none;stroke:#000000" />

       </g>

      </g>

      <g
   class="com.sun.star.drawing.PolyPolygonShape"
   id="g3060">
       <g
   id="id26">
        <rect
   class="BoundingBox"
   x="13499"
   y="5498"
   width="3"
   height="3"
   id="rect3057"
   style="fill:none;stroke:none" />

       </g>

      </g>

      <g
   class="com.sun.star.drawing.PolyPolygonShape"
   id="g3065">
       <g
   id="id27">
        <rect
   class="BoundingBox"
   x="18498"
   y="10501"
   width="3"
   height="3"
   id="rect3062"
   style="fill:none;stroke:none" />

       </g>

      </g>

      <g
   class="com.sun.star.drawing.LineShape"
   id="g3072">
       <g
   id="id28">
        <rect
   class="BoundingBox"
   x="12796"
   y="3287"
   width="5"
   height="9428"
   id="rect3067"
   style="fill:none;stroke:none" />

        <path
   d="m 12798,3287 v 9427"
   id="path3069"
   inkscape:connector-curvature="0"
   style="fill:none;stroke:#000000;stroke-width:3;stroke-linejoin:miter" />

       </g>

      </g>

      <g
   class="com.sun.star.drawing.PolyPolygonShape"
   id="g3079">
       <g
   id="id29">
        <rect
   class="BoundingBox"
   x="12700"
   y="2998"
   width="203"
   height="302"
   id="rect3074"
   style="fill:none;stroke:none" />

        <path
   d="m 12799,2998 -99,301 h 202 z"
   id="path3076"
   inkscape:connector-curvature="0"
   style="fill:#000000;stroke:none" />

       </g>

      </g>

      <g
   class="com.sun.star.drawing.PolyPolygonShape"
   id="g3086">
       <g
   id="id30">
        <rect
   class="BoundingBox"
   x="12700"
   y="12700"
   width="203"
   height="301"
   id="rect3081"
   style="fill:none;stroke:none" />

        <path
   d="m 12799,13000 103,-300 h -202 z"
   id="path3083"
   inkscape:connector-curvature="0"
   style="fill:#000000;stroke:none" />

       </g>

      </g>

      <g
   class="com.sun.star.drawing.LineShape"
   id="g3093">
       <g
   id="id31">
        <rect
   class="BoundingBox"
   x="11598"
   y="2997"
   width="1403"
   height="3"
   id="rect3088"
   style="fill:none;stroke:none" />

        <path
   d="m 11599,2998 h 1400"
   id="path3090"
   inkscape:connector-curvature="0"
   style="fill:none;stroke:#000000" />

       </g>

      </g>

      <g
   class="com.sun.star.drawing.LineShape"
   id="g3100">
       <g
   id="id32">
        <rect
   class="BoundingBox"
   x="11598"
   y="12998"
   width="1403"
   height="3"
   id="rect3095"
   style="fill:none;stroke:none" />

        <path
   d="m 11599,12999 h 1400"
   id="path3097"
   inkscape:connector-curvature="0"
   style="fill:none;stroke:#000000" />

       </g>

      </g>

      <g
   class="com.sun.star.drawing.LineShape"
   id="g3107">
       <g
   id="id33">
        <rect
   class="BoundingBox"
   x="1788"
   y="13798"
   width="9424"
   height="5"
   id="rect3102"
   style="fill:none;stroke:none" />

        <path
   d="M 11211,13800 H 1788"
   id="path3104"
   inkscape:connector-curvature="0"
   style="fill:none;stroke:#000000;stroke-width:3;stroke-linejoin:miter" />

       </g>

      </g>

      <g
   class="com.sun.star.drawing.PolyPolygonShape"
   id="g3114">
       <g
   id="id34">
        <rect
   class="BoundingBox"
   x="11200"
   y="13698"
   width="302"
   height="203"
   id="rect3109"
   style="fill:none;stroke:none" />

        <path
   d="m 11501,13801 -301,-103 v 202 z"
   id="path3111"
   inkscape:connector-curvature="0"
   style="fill:#000000;stroke:none" />

       </g>

      </g>

      <g
   class="com.sun.star.drawing.PolyPolygonShape"
   id="g3121">
       <g
   id="id35">
        <rect
   class="BoundingBox"
   x="1499"
   y="13698"
   width="302"
   height="203"
   id="rect3116"
   style="fill:none;stroke:none" />

        <path
   d="m 1499,13801 301,99 v -202 z"
   id="path3118"
   inkscape:connector-curvature="0"
   style="fill:#000000;stroke:none" />

       </g>

      </g>

      <g
   class="com.sun.star.drawing.LineShape"
   id="g3128">
       <g
   id="id36">
        <rect
   class="BoundingBox"
   x="11499"
   y="13097"
   width="3"
   height="906"
   id="rect3123"
   style="fill:none;stroke:none" />

        <path
   d="m 11500,13098 v 903"
   id="path3125"
   inkscape:connector-curvature="0"
   style="fill:none;stroke:#000000" />

       </g>

      </g>

      <g
   class="com.sun.star.drawing.LineShape"
   id="g3135">
       <g
   id="id37">
        <rect
   class="BoundingBox"
   x="1498"
   y="13097"
   width="3"
   height="906"
   id="rect3130"
   style="fill:none;stroke:none" />

        <path
   d="m 1499,13098 v 903"
   id="path3132"
   inkscape:connector-curvature="0"
   style="fill:none;stroke:#000000" />

       </g>

      </g>

      <g
   class="com.sun.star.drawing.TextShape"
   id="g3148">
       <g
   id="id38">
        <rect
   class="BoundingBox"
   x="12243"
   y="7350"
   width="476"
   height="1298"
   id="rect3137"
   style="fill:none;stroke:none" />

        <text
   class="TextShape"
   transform="rotate(-90,12628,8647)"
   id="text3145"><tspan
     class="TextParagraph"
     font-size="423px"
     font-weight="400"
     id="tspan3143"
     style="font-weight:400;font-size:423px;font-family:'Liberation Sans', sans-serif"><tspan
       class="TextPosition"
       x="12628"
       y="8647"
       id="tspan3141"><tspan
         id="tspan3139"
         style="fill:#000000;stroke:none">10 mm</tspan></tspan></tspan></text>


       </g>

      </g>

      <g
   class="com.sun.star.drawing.LineShape"
   id="g3155">
       <g
   id="id39">
        <rect
   class="BoundingBox"
   x="3287"
   y="10796"
   width="1014"
   height="5"
   id="rect3150"
   style="fill:none;stroke:none" />

        <path
   d="M 4300,10798 H 3287"
   id="path3152"
   inkscape:connector-curvature="0"
   style="fill:none;stroke:#000000;stroke-width:3;stroke-linejoin:miter" />

       </g>

      </g>

      <g
   class="com.sun.star.drawing.PolyPolygonShape"
   id="g3162">
       <g
   id="id40">
        <rect
   class="BoundingBox"
   x="2998"
   y="10699"
   width="302"
   height="203"
   id="rect3157"
   style="fill:none;stroke:none" />

        <path
   d="m 2998,10799 301,102 v -202 z"
   id="path3159"
   inkscape:connector-curvature="0"
   style="fill:#000000;stroke:none" />

       </g>

      </g>

      <g
   class="com.sun.star.drawing.LineShape"
   id="g3169">
       <g
   id="id41">
        <rect
   class="BoundingBox"
   x="1499"
   y="10796"
   width="216"
   height="5"
   id="rect3164"
   style="fill:none;stroke:none" />

        <path
   d="M 1714,10798 H 1499"
   id="path3166"
   inkscape:connector-curvature="0"
   style="fill:none;stroke:#000000;stroke-width:3;stroke-linejoin:miter" />

       </g>

      </g>

      <g
   class="com.sun.star.drawing.PolyPolygonShape"
   id="g3176">
       <g
   id="id42">
        <rect
   class="BoundingBox"
   x="1700"
   y="10699"
   width="302"
   height="203"
   id="rect3171"
   style="fill:none;stroke:none" />

        <path
   d="m 2001,10799 -301,-100 v 202 z"
   id="path3173"
   inkscape:connector-curvature="0"
   style="fill:#000000;stroke:none" />

       </g>

      </g>

      <g
   class="com.sun.star.drawing.LineShape"
   id="g3183">
       <g
   id="id43">
        <rect
   class="BoundingBox"
   x="1999"
   y="10797"
   width="1001"
   height="3"
   id="rect3178"
   style="fill:none;stroke:none" />

        <path
   d="M 2998,10798 H 2000"
   id="path3180"
   inkscape:connector-curvature="0"
   style="fill:none;stroke:#000000" />

       </g>

      </g>

      <g
   class="com.sun.star.drawing.LineShape"
   id="g3190">
       <g
   id="id44">
        <rect
   class="BoundingBox"
   x="2997"
   y="10099"
   width="3"
   height="902"
   id="rect3185"
   style="fill:none;stroke:none" />

        <path
   d="m 2998,10100 v 899"
   id="path3187"
   inkscape:connector-curvature="0"
   style="fill:none;stroke:#000000" />

       </g>

      </g>

      <g
   class="com.sun.star.drawing.LineShape"
   id="g3197">
       <g
   id="id45">
        <rect
   class="BoundingBox"
   x="1999"
   y="10099"
   width="3"
   height="902"
   id="rect3192"
   style="fill:none;stroke:none" />

        <path
   d="m 2000,10100 v 899"
   id="path3194"
   inkscape:connector-curvature="0"
   style="fill:none;stroke:#000000" />

       </g>

      </g>

      <g
   class="com.sun.star.drawing.TextShape"
   id="g3210">
       <g
   id="id46">
        <rect
   class="BoundingBox"
   x="5856"
   y="13241"
   width="1298"
   height="476"
   id="rect3199"
   style="fill:none;stroke:none" />

        <text
   class="TextShape"
   id="text3207"><tspan
     class="TextParagraph"
     font-size="423px"
     font-weight="400"
     id="tspan3205"
     style="font-weight:400;font-size:423px;font-family:'Liberation Sans', sans-serif"><tspan
       class="TextPosition"
       x="5856"
       y="13626"
       id="tspan3203"><tspan
         id="tspan3201"
         style="fill:#000000;stroke:none">10 mm</tspan></tspan></tspan></text>


       </g>

      </g>

      <g
   class="com.sun.star.drawing.LineShape"
   id="g3217">
       <g
   id="id47">
        <rect
   class="BoundingBox"
   x="5099"
   y="6198"
   width="5"
   height="1017"
   id="rect3212"
   style="fill:none;stroke:none" />

        <path
   d="M 5101,6198 V 7214"
   id="path3214"
   inkscape:connector-curvature="0"
   style="fill:none;stroke:#000000;stroke-width:3;stroke-linejoin:miter" />

       </g>

      </g>

      <g
   class="com.sun.star.drawing.PolyPolygonShape"
   id="g3224">
       <g
   id="id48">
        <rect
   class="BoundingBox"
   x="4998"
   y="7200"
   width="203"
   height="302"
   id="rect3219"
   style="fill:none;stroke:none" />

        <path
   d="m 5101,7501 99,-301 h -202 z"
   id="path3221"
   inkscape:connector-curvature="0"
   style="fill:#000000;stroke:none" />

       </g>

      </g>

      <g
   class="com.sun.star.drawing.LineShape"
   id="g3231">
       <g
   id="id49">
        <rect
   class="BoundingBox"
   x="5099"
   y="8787"
   width="5"
   height="213"
   id="rect3226"
   style="fill:none;stroke:none" />

        <path
   d="m 5101,8787 v 212"
   id="path3228"
   inkscape:connector-curvature="0"
   style="fill:none;stroke:#000000;stroke-width:3;stroke-linejoin:miter" />

       </g>

      </g>

      <g
   class="com.sun.star.drawing.PolyPolygonShape"
   id="g3238">
       <g
   id="id50">
        <rect
   class="BoundingBox"
   x="4998"
   y="8498"
   width="203"
   height="302"
   id="rect3233"
   style="fill:none;stroke:none" />

        <path
   d="m 5101,8498 -103,301 h 202 z"
   id="path3235"
   inkscape:connector-curvature="0"
   style="fill:#000000;stroke:none" />

       </g>

      </g>

      <g
   class="com.sun.star.drawing.LineShape"
   id="g3245">
       <g
   id="id51">
        <rect
   class="BoundingBox"
   x="5100"
   y="7499"
   width="3"
   height="1001"
   id="rect3240"
   style="fill:none;stroke:none" />

        <path
   d="m 5101,7500 v 998"
   id="path3242"
   inkscape:connector-curvature="0"
   style="fill:none;stroke:#000000" />

       </g>

      </g>

      <g
   class="com.sun.star.drawing.LineShape"
   id="g3252">
       <g
   id="id52">
        <rect
   class="BoundingBox"
   x="4398"
   y="7499"
   width="902"
   height="3"
   id="rect3247"
   style="fill:none;stroke:none" />

        <path
   d="m 4399,7500 h 899"
   id="path3249"
   inkscape:connector-curvature="0"
   style="fill:none;stroke:#000000" />

       </g>

      </g>

      <g
   class="com.sun.star.drawing.LineShape"
   id="g3259">
       <g
   id="id53">
        <rect
   class="BoundingBox"
   x="4398"
   y="8497"
   width="902"
   height="3"
   id="rect3254"
   style="fill:none;stroke:none" />

        <path
   d="m 4399,8498 h 899"
   id="path3256"
   inkscape:connector-curvature="0"
   style="fill:none;stroke:#000000" />

       </g>

      </g>

      <g
   class="com.sun.star.drawing.TextShape"
   id="g3272">
       <g
   id="id54">
        <rect
   class="BoundingBox"
   x="3612"
   y="10246"
   width="1061"
   height="476"
   id="rect3261"
   style="fill:none;stroke:none" />

        <text
   class="TextShape"
   id="text3269"><tspan
     class="TextParagraph"
     font-size="423px"
     font-weight="400"
     id="tspan3267"
     style="font-weight:400;font-size:423px;font-family:'Liberation Sans', sans-serif"><tspan
       class="TextPosition"
       x="3612"
       y="10631"
       id="tspan3265"><tspan
         id="tspan3263"
         style="fill:#000000;stroke:none">1 mm</tspan></tspan></tspan></text>


       </g>

      </g>

      <g
   class="com.sun.star.drawing.LineShape"
   id="g3279">
       <g
   id="id55">
        <rect
   class="BoundingBox"
   x="12098"
   y="6286"
   width="5"
   height="3426"
   id="rect3274"
   style="fill:none;stroke:none" />

        <path
   d="M 12100,6286 V 9711"
   id="path3276"
   inkscape:connector-curvature="0"
   style="fill:none;stroke:#000000;stroke-width:3;stroke-linejoin:miter" />

       </g>

      </g>

      <g
   class="com.sun.star.drawing.PolyPolygonShape"
   id="g3286">
       <g
   id="id56">
        <rect
   class="BoundingBox"
   x="12001"
   y="6000"
   width="200"
   height="302"
   id="rect3281"
   style="fill:none;stroke:none" />

        <path
   d="m 12100,6000 -99,301 h 199 z"
   id="path3283"
   inkscape:connector-curvature="0"
   style="fill:#000000;stroke:none" />

       </g>

      </g>

      <g
   class="com.sun.star.drawing.PolyPolygonShape"
   id="g3293">
       <g
   id="id57">
        <rect
   class="BoundingBox"
   x="12001"
   y="9701"
   width="200"
   height="302"
   id="rect3288"
   style="fill:none;stroke:none" />

        <path
   d="m 12100,10002 100,-301 h -199 z"
   id="path3290"
   inkscape:connector-curvature="0"
   style="fill:#000000;stroke:none" />

       </g>

      </g>

      <g
   class="com.sun.star.drawing.LineShape"
   id="g3300">
       <g
   id="id58">
        <rect
   class="BoundingBox"
   x="11097"
   y="5999"
   width="1206"
   height="3"
   id="rect3295"
   style="fill:none;stroke:none" />

        <path
   d="m 11098,6000 h 1203"
   id="path3297"
   inkscape:connector-curvature="0"
   style="fill:none;stroke:#000000" />

       </g>

      </g>

      <g
   class="com.sun.star.drawing.LineShape"
   id="g3307">
       <g
   id="id59">
        <rect
   class="BoundingBox"
   x="11097"
   y="10000"
   width="1206"
   height="3"
   id="rect3302"
   style="fill:none;stroke:none" />

        <path
   d="m 11098,10001 h 1203"
   id="path3304"
   inkscape:connector-curvature="0"
   style="fill:none;stroke:#000000" />

       </g>

      </g>

      <g
   class="com.sun.star.drawing.TextShape"
   id="g3320">
       <g
   id="id60">
        <rect
   class="BoundingBox"
   x="4545"
   y="5826"
   width="476"
   height="1061"
   id="rect3309"
   style="fill:none;stroke:none" />

        <text
   class="TextShape"
   transform="rotate(-90,4930,6886)"
   id="text3317"><tspan
     class="TextParagraph"
     font-size="423px"
     font-weight="400"
     id="tspan3315"
     style="font-weight:400;font-size:423px;font-family:'Liberation Sans', sans-serif"><tspan
       class="TextPosition"
       x="4930"
       y="6886"
       id="tspan3313"><tspan
         id="tspan3311"
         style="fill:#000000;stroke:none">1 mm</tspan></tspan></tspan></text>


       </g>

      </g>

      <g
   class="com.sun.star.drawing.LineShape"
   id="g3327">
       <g
   id="id61">
        <rect
   class="BoundingBox"
   x="2286"
   y="5296"
   width="3426"
   height="5"
   id="rect3322"
   style="fill:none;stroke:none" />

        <path
   d="M 5711,5298 H 2286"
   id="path3324"
   inkscape:connector-curvature="0"
   style="fill:none;stroke:#000000;stroke-width:3;stroke-linejoin:miter" />

       </g>

      </g>

      <g
   class="com.sun.star.drawing.PolyPolygonShape"
   id="g3334">
       <g
   id="id62">
        <rect
   class="BoundingBox"
   x="5700"
   y="5199"
   width="302"
   height="204"
   id="rect3329"
   style="fill:none;stroke:none" />

        <path
   d="m 6001,5298 -301,-99 v 203 z"
   id="path3331"
   inkscape:connector-curvature="0"
   style="fill:#000000;stroke:none" />

       </g>

      </g>

      <g
   class="com.sun.star.drawing.PolyPolygonShape"
   id="g3341">
       <g
   id="id63">
        <rect
   class="BoundingBox"
   x="2000"
   y="5199"
   width="302"
   height="204"
   id="rect3336"
   style="fill:none;stroke:none" />

        <path
   d="m 2000,5298 301,104 v -203 z"
   id="path3338"
   inkscape:connector-curvature="0"
   style="fill:#000000;stroke:none" />

       </g>

      </g>

      <g
   class="com.sun.star.drawing.LineShape"
   id="g3348">
       <g
   id="id64">
        <rect
   class="BoundingBox"
   x="5999"
   y="5100"
   width="3"
   height="2303"
   id="rect3343"
   style="fill:none;stroke:none" />

        <path
   d="M 6000,7401 V 5101"
   id="path3345"
   inkscape:connector-curvature="0"
   style="fill:none;stroke:#000000" />

       </g>

      </g>

      <g
   class="com.sun.star.drawing.LineShape"
   id="g3355">
       <g
   id="id65">
        <rect
   class="BoundingBox"
   x="1999"
   y="5100"
   width="3"
   height="2303"
   id="rect3350"
   style="fill:none;stroke:none" />

        <path
   d="M 2000,7401 V 5101"
   id="path3352"
   inkscape:connector-curvature="0"
   style="fill:none;stroke:#000000" />

       </g>

      </g>

      <g
   class="com.sun.star.drawing.TextShape"
   id="g3368">
       <g
   id="id66">
        <rect
   class="BoundingBox"
   x="11548"
   y="7477"
   width="476"
   height="1061"
   id="rect3357"
   style="fill:none;stroke:none" />

        <text
   class="TextShape"
   transform="rotate(-90,11933,8537)"
   id="text3365"><tspan
     class="TextParagraph"
     font-size="423px"
     font-weight="400"
     id="tspan3363"
     style="font-weight:400;font-size:423px;font-family:'Liberation Sans', sans-serif"><tspan
       class="TextPosition"
       x="11933"
       y="8537"
       id="tspan3361"><tspan
         id="tspan3359"
         style="fill:#000000;stroke:none">4 mm</tspan></tspan></tspan></text>


       </g>

      </g>

      <g
   class="com.sun.star.drawing.LineShape"
   id="g3375">
       <g
   id="id67">
        <rect
   class="BoundingBox"
   x="7288"
   y="9399"
   width="1013"
   height="5"
   id="rect3370"
   style="fill:none;stroke:none" />

        <path
   d="M 8300,9401 H 7288"
   id="path3372"
   inkscape:connector-curvature="0"
   style="fill:none;stroke:#000000;stroke-width:3;stroke-linejoin:miter" />

       </g>

      </g>

      <g
   class="com.sun.star.drawing.PolyPolygonShape"
   id="g3382">
       <g
   id="id68">
        <rect
   class="BoundingBox"
   x="6999"
   y="9299"
   width="302"
   height="203"
   id="rect3377"
   style="fill:none;stroke:none" />

        <path
   d="m 6999,9402 300,99 v -202 z"
   id="path3379"
   inkscape:connector-curvature="0"
   style="fill:#000000;stroke:none" />

       </g>

      </g>

      <g
   class="com.sun.star.drawing.LineShape"
   id="g3389">
       <g
   id="id69">
        <rect
   class="BoundingBox"
   x="5499"
   y="9399"
   width="213"
   height="5"
   id="rect3384"
   style="fill:none;stroke:none" />

        <path
   d="M 5711,9401 H 5499"
   id="path3386"
   inkscape:connector-curvature="0"
   style="fill:none;stroke:#000000;stroke-width:3;stroke-linejoin:miter" />

       </g>

      </g>

      <g
   class="com.sun.star.drawing.PolyPolygonShape"
   id="g3396">
       <g
   id="id70">
        <rect
   class="BoundingBox"
   x="5700"
   y="9299"
   width="302"
   height="203"
   id="rect3391"
   style="fill:none;stroke:none" />

        <path
   d="m 6001,9402 -301,-103 v 202 z"
   id="path3393"
   inkscape:connector-curvature="0"
   style="fill:#000000;stroke:none" />

       </g>

      </g>

      <g
   class="com.sun.star.drawing.LineShape"
   id="g3403">
       <g
   id="id71">
        <rect
   class="BoundingBox"
   x="5999"
   y="9400"
   width="1002"
   height="3"
   id="rect3398"
   style="fill:none;stroke:none" />

        <path
   d="M 6999,9401 H 6000"
   id="path3400"
   inkscape:connector-curvature="0"
   style="fill:none;stroke:#000000" />

       </g>

      </g>

      <g
   class="com.sun.star.drawing.LineShape"
   id="g3410">
       <g
   id="id72">
        <rect
   class="BoundingBox"
   x="6998"
   y="8698"
   width="3"
   height="903"
   id="rect3405"
   style="fill:none;stroke:none" />

        <path
   d="m 6999,8699 v 900"
   id="path3407"
   inkscape:connector-curvature="0"
   style="fill:none;stroke:#000000" />

       </g>

      </g>

      <g
   class="com.sun.star.drawing.LineShape"
   id="g3417">
       <g
   id="id73">
        <rect
   class="BoundingBox"
   x="5999"
   y="8698"
   width="3"
   height="903"
   id="rect3412"
   style="fill:none;stroke:none" />

        <path
   d="m 6000,8699 v 900"
   id="path3414"
   inkscape:connector-curvature="0"
   style="fill:none;stroke:#000000" />

       </g>

      </g>

      <g
   class="com.sun.star.drawing.TextShape"
   id="g3430">
       <g
   id="id74">
        <rect
   class="BoundingBox"
   x="3461"
   y="4746"
   width="1061"
   height="476"
   id="rect3419"
   style="fill:none;stroke:none" />

        <text
   class="TextShape"
   id="text3427"><tspan
     class="TextParagraph"
     font-size="423px"
     font-weight="400"
     id="tspan3425"
     style="font-weight:400;font-size:423px;font-family:'Liberation Sans', sans-serif"><tspan
       class="TextPosition"
       x="3461"
       y="5131"
       id="tspan3423"><tspan
         id="tspan3421"
         style="fill:#000000;stroke:none">4 mm</tspan></tspan></tspan></text>


       </g>

      </g>

      <g
   class="com.sun.star.drawing.TextShape"
   id="g3443">
       <g
   id="id75">
        <rect
   class="BoundingBox"
   x="7613"
   y="8846"
   width="1061"
   height="476"
   id="rect3432"
   style="fill:none;stroke:none" />

        <text
   class="TextShape"
   id="text3440"><tspan
     class="TextParagraph"
     font-size="423px"
     font-weight="400"
     id="tspan3438"
     style="font-weight:400;font-size:423px;font-family:'Liberation Sans', sans-serif"><tspan
       class="TextPosition"
       x="7613"
       y="9231"
       id="tspan3436"><tspan
         id="tspan3434"
         style="fill:#000000;stroke:none">1 mm</tspan></tspan></tspan></text>


       </g>

      </g>

      <g
   class="com.sun.star.drawing.LineShape"
   id="g3492">
       <g
   id="id76">
        <rect
   class="BoundingBox"
   x="6599"
   y="5400"
   width="805"
   height="2103"
   id="rect3445"
   style="fill:none;stroke:none" />

        <path
   d="m 6600,7501 19,-50"
   id="path3447"
   inkscape:connector-curvature="0"
   style="fill:none;stroke:#000000" />

        <path
   d="m 6638,7402 19,-50"
   id="path3449"
   inkscape:connector-curvature="0"
   style="fill:none;stroke:#000000" />

        <path
   d="m 6676,7303 19,-50"
   id="path3451"
   inkscape:connector-curvature="0"
   style="fill:none;stroke:#000000" />

        <path
   d="m 6713,7204 19,-50"
   id="path3453"
   inkscape:connector-curvature="0"
   style="fill:none;stroke:#000000" />

        <path
   d="m 6751,7105 19,-50"
   id="path3455"
   inkscape:connector-curvature="0"
   style="fill:none;stroke:#000000" />

        <path
   d="m 6789,7006 19,-50"
   id="path3457"
   inkscape:connector-curvature="0"
   style="fill:none;stroke:#000000" />

        <path
   d="m 6827,6907 19,-50"
   id="path3459"
   inkscape:connector-curvature="0"
   style="fill:none;stroke:#000000" />

        <path
   d="m 6865,6808 19,-50"
   id="path3461"
   inkscape:connector-curvature="0"
   style="fill:none;stroke:#000000" />

        <path
   d="m 6903,6709 18,-50"
   id="path3463"
   inkscape:connector-curvature="0"
   style="fill:none;stroke:#000000" />

        <path
   d="m 6940,6610 19,-50"
   id="path3465"
   inkscape:connector-curvature="0"
   style="fill:none;stroke:#000000" />

        <path
   d="m 6978,6511 19,-50"
   id="path3467"
   inkscape:connector-curvature="0"
   style="fill:none;stroke:#000000" />

        <path
   d="m 7016,6412 19,-50"
   id="path3469"
   inkscape:connector-curvature="0"
   style="fill:none;stroke:#000000" />

        <path
   d="m 7054,6313 19,-50"
   id="path3471"
   inkscape:connector-curvature="0"
   style="fill:none;stroke:#000000" />

        <path
   d="m 7092,6214 19,-50"
   id="path3473"
   inkscape:connector-curvature="0"
   style="fill:none;stroke:#000000" />

        <path
   d="m 7129,6115 19,-50"
   id="path3475"
   inkscape:connector-curvature="0"
   style="fill:none;stroke:#000000" />

        <path
   d="m 7167,6016 19,-50"
   id="path3477"
   inkscape:connector-curvature="0"
   style="fill:none;stroke:#000000" />

        <path
   d="m 7205,5917 19,-50"
   id="path3479"
   inkscape:connector-curvature="0"
   style="fill:none;stroke:#000000" />

        <path
   d="m 7243,5818 19,-50"
   id="path3481"
   inkscape:connector-curvature="0"
   style="fill:none;stroke:#000000" />

        <path
   d="m 7281,5719 19,-50"
   id="path3483"
   inkscape:connector-curvature="0"
   style="fill:none;stroke:#000000" />

        <path
   d="m 7319,5620 18,-50"
   id="path3485"
   inkscape:connector-curvature="0"
   style="fill:none;stroke:#000000" />

        <path
   d="m 7356,5521 19,-50"
   id="path3487"
   inkscape:connector-curvature="0"
   style="fill:none;stroke:#000000" />

        <path
   d="m 7394,5421 8,-20"
   id="path3489"
   inkscape:connector-curvature="0"
   style="fill:none;stroke:#000000" />

       </g>

      </g>

      <g
   class="com.sun.star.drawing.TextShape"
   id="g3505">
       <g
   id="id77">
        <rect
   class="BoundingBox"
   x="7465"
   y="4728"
   width="1269"
   height="557"
   id="rect3494"
   style="fill:none;stroke:none" />

        <text
   class="TextShape"
   id="text3502"><tspan
     class="TextParagraph"
     font-size="494px"
     font-weight="400"
     id="tspan3500"
     style="font-weight:400;font-size:494px;font-family:'Liberation Sans', sans-serif"><tspan
       class="TextPosition"
       x="7465"
       y="5177"
       id="tspan3498"><tspan
         id="tspan3496"
         style="fill:#000000;stroke:none">Detail</tspan></tspan></tspan></text>


       </g>

      </g>

      <g
   class="com.sun.star.drawing.LineShape"
   id="g3512">
       <g
   id="id78">
        <rect
   class="BoundingBox"
   x="16538"
   y="11096"
   width="1624"
   height="5"
   id="rect3507"
   style="fill:none;stroke:none" />

        <path
   d="M 18161,11098 H 16538"
   id="path3509"
   inkscape:connector-curvature="0"
   style="fill:none;stroke:#000000;stroke-width:3;stroke-linejoin:miter" />

       </g>

      </g>

      <g
   class="com.sun.star.drawing.PolyPolygonShape"
   id="g3519">
       <g
   id="id79">
        <rect
   class="BoundingBox"
   x="16252"
   y="10999"
   width="302"
   height="203"
   id="rect3514"
   style="fill:none;stroke:none" />

        <path
   d="m 16252,11098 301,103 v -202 z"
   id="path3516"
   inkscape:connector-curvature="0"
   style="fill:#000000;stroke:none" />

       </g>

      </g>

      <g
   class="com.sun.star.drawing.LineShape"
   id="g3526">
       <g
   id="id80">
        <rect
   class="BoundingBox"
   x="15250"
   y="11096"
   width="213"
   height="5"
   id="rect3521"
   style="fill:none;stroke:none" />

        <path
   d="m 15462,11098 h -212"
   id="path3523"
   inkscape:connector-curvature="0"
   style="fill:none;stroke:#000000;stroke-width:3;stroke-linejoin:miter" />

       </g>

      </g>

      <g
   class="com.sun.star.drawing.PolyPolygonShape"
   id="g3533">
       <g
   id="id81">
        <rect
   class="BoundingBox"
   x="15451"
   y="10999"
   width="302"
   height="203"
   id="rect3528"
   style="fill:none;stroke:none" />

        <path
   d="m 15752,11098 -301,-99 v 202 z"
   id="path3530"
   inkscape:connector-curvature="0"
   style="fill:#000000;stroke:none" />

       </g>

      </g>

      <g
   class="com.sun.star.drawing.LineShape"
   id="g3540">
       <g
   id="id82">
        <rect
   class="BoundingBox"
   x="15750"
   y="11097"
   width="504"
   height="3"
   id="rect3535"
   style="fill:none;stroke:none" />

        <path
   d="m 16252,11098 h -501"
   id="path3537"
   inkscape:connector-curvature="0"
   style="fill:none;stroke:#000000" />

       </g>

      </g>

      <g
   class="com.sun.star.drawing.LineShape"
   id="g3547">
       <g
   id="id83">
        <rect
   class="BoundingBox"
   x="16251"
   y="8398"
   width="3"
   height="2903"
   id="rect3542"
   style="fill:none;stroke:none" />

        <path
   d="m 16252,8399 v 2900"
   id="path3544"
   inkscape:connector-curvature="0"
   style="fill:none;stroke:#000000" />

       </g>

      </g>

      <g
   class="com.sun.star.drawing.LineShape"
   id="g3554">
       <g
   id="id84">
        <rect
   class="BoundingBox"
   x="15750"
   y="8398"
   width="3"
   height="2903"
   id="rect3549"
   style="fill:none;stroke:none" />

        <path
   d="m 15751,8399 v 2900"
   id="path3551"
   inkscape:connector-curvature="0"
   style="fill:none;stroke:#000000" />

       </g>

      </g>

      <g
   class="com.sun.star.drawing.TextShape"
   id="g3567">
       <g
   id="id85">
        <rect
   class="BoundingBox"
   x="15363"
   y="4728"
   width="1269"
   height="557"
   id="rect3556"
   style="fill:none;stroke:none" />

        <text
   class="TextShape"
   id="text3564"><tspan
     class="TextParagraph"
     font-size="494px"
     font-weight="400"
     id="tspan3562"
     style="font-weight:400;font-size:494px;font-family:'Liberation Sans', sans-serif"><tspan
       class="TextPosition"
       x="15363"
       y="5177"
       id="tspan3560"><tspan
         id="tspan3558"
         style="fill:#000000;stroke:none">Detail</tspan></tspan></tspan></text>


       </g>

      </g>

      <g
   class="com.sun.star.drawing.LineShape"
   id="g3574">
       <g
   id="id86">
        <rect
   class="BoundingBox"
   x="19118"
   y="5834"
   width="5"
   height="1624"
   id="rect3569"
   style="fill:none;stroke:none" />

        <path
   d="M 19120,5834 V 7457"
   id="path3571"
   inkscape:connector-curvature="0"
   style="fill:none;stroke:#000000;stroke-width:3;stroke-linejoin:miter" />

       </g>

      </g>

      <g
   class="com.sun.star.drawing.PolyPolygonShape"
   id="g3581">
       <g
   id="id87">
        <rect
   class="BoundingBox"
   x="19018"
   y="7443"
   width="203"
   height="302"
   id="rect3576"
   style="fill:none;stroke:none" />

        <path
   d="m 19120,7744 100,-301 h -202 z"
   id="path3578"
   inkscape:connector-curvature="0"
   style="fill:#000000;stroke:none" />

       </g>

      </g>

      <g
   class="com.sun.star.drawing.LineShape"
   id="g3588">
       <g
   id="id88">
        <rect
   class="BoundingBox"
   x="19118"
   y="8530"
   width="5"
   height="212"
   id="rect3583"
   style="fill:none;stroke:none" />

        <path
   d="m 19120,8530 v 211"
   id="path3585"
   inkscape:connector-curvature="0"
   style="fill:none;stroke:#000000;stroke-width:3;stroke-linejoin:miter" />

       </g>

      </g>

      <g
   class="com.sun.star.drawing.PolyPolygonShape"
   id="g3595">
       <g
   id="id89">
        <rect
   class="BoundingBox"
   x="19018"
   y="8244"
   width="203"
   height="302"
   id="rect3590"
   style="fill:none;stroke:none" />

        <path
   d="m 19120,8244 -102,301 h 202 z"
   id="path3592"
   inkscape:connector-curvature="0"
   style="fill:#000000;stroke:none" />

       </g>

      </g>

      <g
   class="com.sun.star.drawing.LineShape"
   id="g3602">
       <g
   id="id90">
        <rect
   class="BoundingBox"
   x="19119"
   y="7742"
   width="3"
   height="504"
   id="rect3597"
   style="fill:none;stroke:none" />

        <path
   d="m 19120,7743 v 501"
   id="path3599"
   inkscape:connector-curvature="0"
   style="fill:none;stroke:#000000" />

       </g>

      </g>

      <g
   class="com.sun.star.drawing.LineShape"
   id="g3609">
       <g
   id="id91">
        <rect
   class="BoundingBox"
   x="16417"
   y="7742"
   width="2906"
   height="3"
   id="rect3604"
   style="fill:none;stroke:none" />

        <path
   d="m 16418,7743 h 2903"
   id="path3606"
   inkscape:connector-curvature="0"
   style="fill:none;stroke:#000000" />

       </g>

      </g>

      <g
   class="com.sun.star.drawing.LineShape"
   id="g3616">
       <g
   id="id92">
        <rect
   class="BoundingBox"
   x="16417"
   y="8243"
   width="2906"
   height="3"
   id="rect3611"
   style="fill:none;stroke:none" />

        <path
   d="m 16418,8244 h 2903"
   id="path3613"
   inkscape:connector-curvature="0"
   style="fill:none;stroke:#000000" />

       </g>

      </g>

      <g
   class="com.sun.star.drawing.TextShape"
   id="g3629">
       <g
   id="id93">
        <rect
   class="BoundingBox"
   x="16866"
   y="10542"
   width="1654"
   height="476"
   id="rect3618"
   style="fill:none;stroke:none" />

        <text
   class="TextShape"
   id="text3626"><tspan
     class="TextParagraph"
     font-size="423px"
     font-weight="400"
     id="tspan3624"
     style="font-weight:400;font-size:423px;font-family:'Liberation Sans', sans-serif"><tspan
       class="TextPosition"
       x="16866"
       y="10927"
       id="tspan3622"><tspan
         id="tspan3620"
         style="fill:#000000;stroke:none">0,05 mm</tspan></tspan></tspan></text>


       </g>

      </g>

      <g
   class="com.sun.star.drawing.PolyPolygonShape"
   id="g3638">
       
      </g>

      
      
      
      
      
      
      
      
      <g
   class="com.sun.star.drawing.TextShape"
   id="g3709">
       <g
   id="id103">
        <rect
   class="BoundingBox"
   x="18565"
   y="5477"
   width="476"
   height="1654"
   id="rect3698"
   style="fill:none;stroke:none" />

        <text
   class="TextShape"
   transform="rotate(-90,18950,7130)"
   id="text3706"><tspan
     class="TextParagraph"
     font-size="423px"
     font-weight="400"
     id="tspan3704"
     style="font-weight:400;font-size:423px;font-family:'Liberation Sans', sans-serif"><tspan
       class="TextPosition"
       x="18950"
       y="7130"
       id="tspan3702"><tspan
         id="tspan3700"
         style="fill:#000000;stroke:none">0,05 mm</tspan></tspan></tspan></text>


       </g>

      </g>

      <g
   class="com.sun.star.drawing.LineShape"
   id="g3716">
       <g
   id="id104">
        <rect
   class="BoundingBox"
   x="12299"
   y="13666"
   width="5"
   height="1860"
   id="rect3711"
   style="fill:none;stroke:none" />

        <path
   d="m 12301,13666 v 1859"
   id="path3713"
   inkscape:connector-curvature="0"
   style="fill:none;stroke:#000000;stroke-width:3;stroke-linejoin:miter" />

       </g>

      </g>

      
      
      
      
      
      
      
      <g
   class="com.sun.star.drawing.TextShape"
   id="g3784">
       <g
   id="id112">
        <rect
   class="BoundingBox"
   x="11742"
   y="13308"
   width="476"
   height="1891"
   id="rect3773"
   style="fill:none;stroke:none" />

        <text
   class="TextShape"
   transform="rotate(-90,12127,15198)"
   id="text3781"><tspan
     class="TextParagraph"
     font-size="423px"
     font-weight="400"
     id="tspan3779"
     style="font-weight:400;font-size:423px;font-family:'Liberation Sans', sans-serif"><tspan
       class="TextPosition"
       x="12127"
       y="15198"
       id="tspan3777"><tspan
         id="tspan3775"
         style="fill:#000000;stroke:none">0,018 mm</tspan></tspan></tspan></text>


       </g>

      </g>

      
      
      
      
      
      
      <g
   class="com.sun.star.drawing.LineShape"
   id="g3845">
       <g
   id="id119">
        <rect
   class="BoundingBox"
   x="15996"
   y="6328"
   width="5"
   height="1772"
   id="rect3840"
   style="fill:none;stroke:none" />

        <path
   d="M 15998,8099 V 6328"
   id="path3842"
   inkscape:connector-curvature="0"
   style="fill:none;stroke:#000000;stroke-width:3;stroke-linejoin:miter" />

       </g>

      </g>

      <g
   class="com.sun.star.drawing.PolyPolygonShape"
   id="g3852">
       <g
   id="id120">
        <rect
   class="BoundingBox"
   x="15850"
   y="5898"
   width="302"
   height="454"
   id="rect3847"
   style="fill:none;stroke:none" />

        <path
   d="m 15999,5898 -149,453 h 301 z"
   id="path3849"
   inkscape:connector-curvature="0"
   style="fill:#000000;stroke:none" />

       </g>

      </g>

      <g
   class="com.sun.star.drawing.LineShape"
   id="g3859">
       <g
   id="id121">
        <rect
   class="BoundingBox"
   x="15899"
   y="7999"
   width="1172"
   height="5"
   id="rect3854"
   style="fill:none;stroke:none" />

        <path
   d="m 15899,8001 h 1171"
   id="path3856"
   inkscape:connector-curvature="0"
   style="fill:none;stroke:#000000;stroke-width:3;stroke-linejoin:miter" />

       </g>

      </g>

      <g
   class="com.sun.star.drawing.PolyPolygonShape"
   id="g3866">
       <g
   id="id122">
        <rect
   class="BoundingBox"
   x="17049"
   y="7849"
   width="454"
   height="302"
   id="rect3861"
   style="fill:none;stroke:none" />

        <path
   d="m 17502,8002 -453,-153 v 301 z"
   id="path3863"
   inkscape:connector-curvature="0"
   style="fill:#000000;stroke:none" />

       </g>

      </g>

      <g
   class="com.sun.star.drawing.TextShape"
   id="g3879">
       <g
   id="id123">
        <rect
   class="BoundingBox"
   x="16323"
   y="5825"
   width="522"
   height="557"
   id="rect3868"
   style="fill:none;stroke:none" />

        <text
   class="TextShape"
   id="text3876"><tspan
     class="TextParagraph"
     font-size="494px"
     font-style="italic"
     font-weight="400"
     id="tspan3874"
     style="font-style:italic;font-weight:400;font-size:494px;font-family:'Liberation Sans', sans-serif"><tspan
       class="TextPosition"
       x="16351"
       y="6274"
       id="tspan3872"><tspan
         id="tspan3870"
         style="fill:#000000;stroke:none">y</tspan></tspan></tspan></text>


       </g>

      </g>

      <g
   class="com.sun.star.drawing.TextShape"
   id="g3892">
       <g
   id="id124">
        <rect
   class="BoundingBox"
   x="17562"
   y="7678"
   width="514"
   height="557"
   id="rect3881"
   style="fill:none;stroke:none" />

        <text
   class="TextShape"
   id="text3889"><tspan
     class="TextParagraph"
     font-size="494px"
     font-style="italic"
     font-weight="400"
     id="tspan3887"
     style="font-style:italic;font-weight:400;font-size:494px;font-family:'Liberation Sans', sans-serif"><tspan
       class="TextPosition"
       x="17582"
       y="8127"
       id="tspan3885"><tspan
         id="tspan3883"
         style="fill:#000000;stroke:none">x</tspan></tspan></tspan></text>


       </g>

      </g>

     </g>

    </g>

   </g>

  </g>

 </g>
    </g>
  </g>
</svg>
