<?xml version="1.0" encoding="UTF-8" standalone="no"?>
<svg
   xmlns:dc="http://purl.org/dc/elements/1.1/"
   xmlns:cc="http://creativecommons.org/ns#"
   xmlns:rdf="http://www.w3.org/1999/02/22-rdf-syntax-ns#"
   xmlns:svg="http://www.w3.org/2000/svg"
   xmlns="http://www.w3.org/2000/svg"
   xmlns:xlink="http://www.w3.org/1999/xlink"
   xmlns:sodipodi="http://sodipodi.sourceforge.net/DTD/sodipodi-0.dtd"
   xmlns:inkscape="http://www.inkscape.org/namespaces/inkscape"
   inkscape:version="1.0 (6e3e5246a0, 2020-05-07)"
   sodipodi:docname="transGeo1.svg"
   id="svg738"
   width="492.92813pt"
   viewBox="0 0 492.92813 293.01688"
   version="1.1"
   height="293.01688pt">
  <metadata
     id="metadata742">
    <rdf:RDF>
      <cc:Work
         rdf:about="">
        <dc:format>image/svg+xml</dc:format>
        <dc:type
           rdf:resource="http://purl.org/dc/dcmitype/StillImage" />
      </cc:Work>
    </rdf:RDF>
  </metadata>
  <sodipodi:namedview
     inkscape:current-layer="figure_1"
     inkscape:window-maximized="1"
     inkscape:window-y="0"
     inkscape:window-x="61"
     inkscape:cy="184.3175"
     inkscape:cx="349.50417"
     inkscape:zoom="1.6367188"
     showgrid="false"
     id="namedview740"
     inkscape:window-height="1022"
     inkscape:window-width="1619"
     inkscape:pageshadow="2"
     inkscape:pageopacity="0"
     guidetolerance="10"
     gridtolerance="10"
     objecttolerance="10"
     borderopacity="1"
     bordercolor="#666666"
     pagecolor="#ffffff" />
  <defs
     id="defs4">
    <style
       id="style2"
       type="text/css">
*{stroke-linecap:butt;stroke-linejoin:round;}
  </style>
  </defs>
  <g
     transform="translate(-25.871874,-23.761875)"
     id="figure_1">
    <g
       id="axes_1">
      <g
         id="patch_2">
        <path
           id="path9"
           style="fill:#ffffff"
           d="M 72,288.36 H 518.4 V 38.88 H 72 Z" />
      </g>
      <g
         id="matplotlib.axis_1">
        <g
           id="xtick_1">
          <g
             id="line2d_1">
            <path
               id="path12"
               style="fill:none;stroke:#b0b0b0;stroke-width:0.8;stroke-linecap:square"
               d="M 92.290909,288.36 V 38.88"
               clip-path="url(#pa66272d1e9)" />
          </g>
          <g
             id="line2d_2">
            <defs
               id="defs16">
              <path
                 style="stroke:#000000;stroke-width:0.8"
                 id="mc966ddf8d3"
                 d="M 0,0 V 3.5" />
            </defs>
            <g
               id="g20">
              <use
                 height="100%"
                 width="100%"
                 id="use18"
                 y="288.35999"
                 xlink:href="#mc966ddf8d3"
                 x="92.290909"
                 style="stroke:#000000;stroke-width:0.8" />
            </g>
          </g>
          <g
             id="text_1">
            <!-- 0.00 -->
            <defs
               id="defs25">
              <path
                 id="DejaVuSans-30"
                 d="m 31.78125,66.40625 q -7.609375,0 -11.453125,-7.5 Q 16.5,51.421875 16.5,36.375 q 0,-14.984375 3.828125,-22.484375 3.84375,-7.5 11.453125,-7.5 7.671875,0 11.5,7.5 3.84375,7.5 3.84375,22.484375 0,15.046875 -3.84375,22.53125 -3.828125,7.5 -11.5,7.5 z m 0,7.8125 q 12.265625,0 18.734375,-9.703125 6.46875,-9.6875 6.46875,-28.140625 0,-18.40625 -6.46875,-28.109375 -6.46875,-9.6875 -18.734375,-9.6875 -12.25,0 -18.71875,9.6875 Q 6.59375,17.96875 6.59375,36.375 q 0,18.453125 6.46875,28.140625 6.46875,9.703125 18.71875,9.703125 z" />
              <path
                 id="DejaVuSans-2e"
                 d="M 10.6875,12.40625 H 21 V 0 H 10.6875 Z" />
            </defs>
            <g
               id="g35"
               transform="matrix(0.1,0,0,-0.1,81.158097,302.95844)">
              <use
                 height="100%"
                 width="100%"
                 y="0"
                 x="0"
                 id="use27"
                 xlink:href="#DejaVuSans-30" />
              <use
                 height="100%"
                 width="100%"
                 y="0"
                 id="use29"
                 xlink:href="#DejaVuSans-2e"
                 x="63.623047" />
              <use
                 height="100%"
                 width="100%"
                 y="0"
                 id="use31"
                 xlink:href="#DejaVuSans-30"
                 x="95.410156" />
              <use
                 height="100%"
                 width="100%"
                 y="0"
                 id="use33"
                 xlink:href="#DejaVuSans-30"
                 x="159.0332" />
            </g>
          </g>
        </g>
        <g
           id="xtick_2">
          <g
             id="line2d_3">
            <path
               id="path39"
               style="fill:none;stroke:#b0b0b0;stroke-width:0.8;stroke-linecap:square"
               d="M 159.92727,288.36 V 38.88"
               clip-path="url(#pa66272d1e9)" />
          </g>
          <g
             id="line2d_4">
            <g
               id="g44">
              <use
                 height="100%"
                 width="100%"
                 id="use42"
                 y="288.35999"
                 xlink:href="#mc966ddf8d3"
                 x="159.92728"
                 style="stroke:#000000;stroke-width:0.8" />
            </g>
          </g>
          <g
             id="text_2">
            <!-- 0.05 -->
            <defs
               id="defs48">
              <path
                 id="DejaVuSans-35"
                 d="m 10.796875,72.90625 h 38.71875 v -8.3125 h -29.6875 V 46.734375 q 2.140625,0.734375 4.28125,1.09375 2.15625,0.359375 4.3125,0.359375 Q 40.625,48.1875 47.75,41.5 54.890625,34.8125 54.890625,23.390625 54.890625,11.625 47.5625,5.09375 40.234375,-1.421875 26.90625,-1.421875 q -4.59375,0 -9.359375,0.78125 -4.75,0.78125 -9.828125,2.34375 V 11.625 q 4.390625,-2.390625 9.078125,-3.5625 4.6875,-1.171875 9.90625,-1.171875 8.453125,0 13.375,4.4375 4.9375,4.4375 4.9375,12.0625 0,7.609375 -4.9375,12.046875 -4.921875,4.453125 -13.375,4.453125 -3.953125,0 -7.890625,-0.875 -3.921875,-0.875 -8.015625,-2.734375 z" />
            </defs>
            <g
               id="g58"
               transform="matrix(0.1,0,0,-0.1,148.79446,302.95844)">
              <use
                 height="100%"
                 width="100%"
                 y="0"
                 x="0"
                 id="use50"
                 xlink:href="#DejaVuSans-30" />
              <use
                 height="100%"
                 width="100%"
                 y="0"
                 id="use52"
                 xlink:href="#DejaVuSans-2e"
                 x="63.623047" />
              <use
                 height="100%"
                 width="100%"
                 y="0"
                 id="use54"
                 xlink:href="#DejaVuSans-30"
                 x="95.410156" />
              <use
                 height="100%"
                 width="100%"
                 y="0"
                 id="use56"
                 xlink:href="#DejaVuSans-35"
                 x="159.0332" />
            </g>
          </g>
        </g>
        <g
           id="xtick_3">
          <g
             id="line2d_5">
            <path
               id="path62"
               style="fill:none;stroke:#b0b0b0;stroke-width:0.8;stroke-linecap:square"
               d="M 227.56364,288.36 V 38.88"
               clip-path="url(#pa66272d1e9)" />
          </g>
          <g
             id="line2d_6">
            <g
               id="g67">
              <use
                 height="100%"
                 width="100%"
                 id="use65"
                 y="288.35999"
                 xlink:href="#mc966ddf8d3"
                 x="227.56363"
                 style="stroke:#000000;stroke-width:0.8" />
            </g>
          </g>
          <g
             id="text_3">
            <!-- 0.10 -->
            <defs
               id="defs71">
              <path
                 id="DejaVuSans-31"
                 d="m 12.40625,8.296875 h 16.109375 v 55.625 L 10.984375,60.40625 v 8.984375 l 17.4375,3.515625 H 38.28125 V 8.296875 H 54.390625 V 0 H 12.40625 Z" />
            </defs>
            <g
               id="g81"
               transform="matrix(0.1,0,0,-0.1,216.43082,302.95844)">
              <use
                 height="100%"
                 width="100%"
                 y="0"
                 x="0"
                 id="use73"
                 xlink:href="#DejaVuSans-30" />
              <use
                 height="100%"
                 width="100%"
                 y="0"
                 id="use75"
                 xlink:href="#DejaVuSans-2e"
                 x="63.623047" />
              <use
                 height="100%"
                 width="100%"
                 y="0"
                 id="use77"
                 xlink:href="#DejaVuSans-31"
                 x="95.410156" />
              <use
                 height="100%"
                 width="100%"
                 y="0"
                 id="use79"
                 xlink:href="#DejaVuSans-30"
                 x="159.0332" />
            </g>
          </g>
        </g>
        <g
           id="xtick_4">
          <g
             id="line2d_7">
            <path
               id="path85"
               style="fill:none;stroke:#b0b0b0;stroke-width:0.8;stroke-linecap:square"
               d="M 295.2,288.36 V 38.88"
               clip-path="url(#pa66272d1e9)" />
          </g>
          <g
             id="line2d_8">
            <g
               id="g90">
              <use
                 height="100%"
                 width="100%"
                 id="use88"
                 y="288.35999"
                 xlink:href="#mc966ddf8d3"
                 x="295.20001"
                 style="stroke:#000000;stroke-width:0.8" />
            </g>
          </g>
          <g
             id="text_4">
            <!-- 0.15 -->
            <g
               id="g101"
               transform="matrix(0.1,0,0,-0.1,284.06719,302.95844)">
              <use
                 height="100%"
                 width="100%"
                 y="0"
                 x="0"
                 id="use93"
                 xlink:href="#DejaVuSans-30" />
              <use
                 height="100%"
                 width="100%"
                 y="0"
                 id="use95"
                 xlink:href="#DejaVuSans-2e"
                 x="63.623047" />
              <use
                 height="100%"
                 width="100%"
                 y="0"
                 id="use97"
                 xlink:href="#DejaVuSans-31"
                 x="95.410156" />
              <use
                 height="100%"
                 width="100%"
                 y="0"
                 id="use99"
                 xlink:href="#DejaVuSans-35"
                 x="159.0332" />
            </g>
          </g>
        </g>
        <g
           id="xtick_5">
          <g
             id="line2d_9">
            <path
               id="path105"
               style="fill:none;stroke:#b0b0b0;stroke-width:0.8;stroke-linecap:square"
               d="M 362.83636,288.36 V 38.88"
               clip-path="url(#pa66272d1e9)" />
          </g>
          <g
             id="line2d_10">
            <g
               id="g110">
              <use
                 height="100%"
                 width="100%"
                 id="use108"
                 y="288.35999"
                 xlink:href="#mc966ddf8d3"
                 x="362.83636"
                 style="stroke:#000000;stroke-width:0.8" />
            </g>
          </g>
          <g
             id="text_5">
            <!-- 0.20 -->
            <defs
               id="defs114">
              <path
                 id="DejaVuSans-32"
                 d="M 19.1875,8.296875 H 53.609375 V 0 H 7.328125 v 8.296875 q 5.609375,5.8125 15.296875,15.59375 9.703125,9.796875 12.1875,12.640625 4.734375,5.3125 6.609375,9 1.890625,3.6875 1.890625,7.25 0,5.8125 -4.078125,9.46875 -4.078125,3.671875 -10.625,3.671875 -4.640625,0 -9.796875,-1.609375 -5.140625,-1.609375 -11,-4.890625 v 9.96875 Q 13.765625,71.78125 18.9375,73 q 5.1875,1.21875 9.484375,1.21875 11.328125,0 18.0625,-5.671875 6.734375,-5.65625 6.734375,-15.125 0,-4.5 -1.6875,-8.53125 Q 49.859375,40.875 45.40625,35.40625 44.1875,33.984375 37.640625,27.21875 31.109375,20.453125 19.1875,8.296875 Z" />
            </defs>
            <g
               id="g124"
               transform="matrix(0.1,0,0,-0.1,351.70355,302.95844)">
              <use
                 height="100%"
                 width="100%"
                 y="0"
                 x="0"
                 id="use116"
                 xlink:href="#DejaVuSans-30" />
              <use
                 height="100%"
                 width="100%"
                 y="0"
                 id="use118"
                 xlink:href="#DejaVuSans-2e"
                 x="63.623047" />
              <use
                 height="100%"
                 width="100%"
                 y="0"
                 id="use120"
                 xlink:href="#DejaVuSans-32"
                 x="95.410156" />
              <use
                 height="100%"
                 width="100%"
                 y="0"
                 id="use122"
                 xlink:href="#DejaVuSans-30"
                 x="159.0332" />
            </g>
          </g>
        </g>
        <g
           id="xtick_6">
          <g
             id="line2d_11">
            <path
               id="path128"
               style="fill:none;stroke:#b0b0b0;stroke-width:0.8;stroke-linecap:square"
               d="M 430.47273,288.36 V 38.88"
               clip-path="url(#pa66272d1e9)" />
          </g>
          <g
             id="line2d_12">
            <g
               id="g133">
              <use
                 height="100%"
                 width="100%"
                 id="use131"
                 y="288.35999"
                 xlink:href="#mc966ddf8d3"
                 x="430.47272"
                 style="stroke:#000000;stroke-width:0.8" />
            </g>
          </g>
          <g
             id="text_6">
            <!-- 0.25 -->
            <g
               id="g144"
               transform="matrix(0.1,0,0,-0.1,419.33992,302.95844)">
              <use
                 height="100%"
                 width="100%"
                 y="0"
                 x="0"
                 id="use136"
                 xlink:href="#DejaVuSans-30" />
              <use
                 height="100%"
                 width="100%"
                 y="0"
                 id="use138"
                 xlink:href="#DejaVuSans-2e"
                 x="63.623047" />
              <use
                 height="100%"
                 width="100%"
                 y="0"
                 id="use140"
                 xlink:href="#DejaVuSans-32"
                 x="95.410156" />
              <use
                 height="100%"
                 width="100%"
                 y="0"
                 id="use142"
                 xlink:href="#DejaVuSans-35"
                 x="159.0332" />
            </g>
          </g>
        </g>
        <g
           id="xtick_7">
          <g
             id="line2d_13">
            <path
               id="path148"
               style="fill:none;stroke:#b0b0b0;stroke-width:0.8;stroke-linecap:square"
               d="M 498.10909,288.36 V 38.88"
               clip-path="url(#pa66272d1e9)" />
          </g>
          <g
             id="line2d_14">
            <g
               id="g153">
              <use
                 height="100%"
                 width="100%"
                 id="use151"
                 y="288.35999"
                 xlink:href="#mc966ddf8d3"
                 x="498.1091"
                 style="stroke:#000000;stroke-width:0.8" />
            </g>
          </g>
          <g
             id="text_7">
            <!-- 0.30 -->
            <defs
               id="defs157">
              <path
                 id="DejaVuSans-33"
                 d="M 40.578125,39.3125 Q 47.65625,37.796875 51.625,33 q 3.984375,-4.78125 3.984375,-11.8125 0,-10.78125 -7.421875,-16.703125 -7.421875,-5.90625 -21.09375,-5.90625 -4.578125,0 -9.4375,0.90625 -4.859375,0.90625 -10.03125,2.71875 v 9.515625 q 4.09375,-2.390625 8.96875,-3.609375 4.890625,-1.21875 10.21875,-1.21875 9.265625,0 14.125,3.65625 4.859375,3.65625 4.859375,10.640625 0,6.453125 -4.515625,10.078125 -4.515625,3.640625 -12.5625,3.640625 h -8.5 v 8.109375 h 8.890625 q 7.265625,0 11.125,2.90625 3.859375,2.90625 3.859375,8.375 0,5.609375 -3.984375,8.609375 -3.96875,3.015625 -11.390625,3.015625 -4.0625,0 -8.703125,-0.890625 Q 15.375,64.15625 9.8125,62.3125 v 8.78125 q 5.625,1.5625 10.53125,2.34375 4.90625,0.78125 9.25,0.78125 11.234375,0 17.765625,-5.109375 6.546875,-5.09375 6.546875,-13.78125 0,-6.0625 -3.46875,-10.234375 -3.46875,-4.171875 -9.859375,-5.78125 z" />
            </defs>
            <g
               id="g167"
               transform="matrix(0.1,0,0,-0.1,486.97628,302.95844)">
              <use
                 height="100%"
                 width="100%"
                 y="0"
                 x="0"
                 id="use159"
                 xlink:href="#DejaVuSans-30" />
              <use
                 height="100%"
                 width="100%"
                 y="0"
                 id="use161"
                 xlink:href="#DejaVuSans-2e"
                 x="63.623047" />
              <use
                 height="100%"
                 width="100%"
                 y="0"
                 id="use163"
                 xlink:href="#DejaVuSans-33"
                 x="95.410156" />
              <use
                 height="100%"
                 width="100%"
                 y="0"
                 id="use165"
                 xlink:href="#DejaVuSans-30"
                 x="159.0332" />
            </g>
          </g>
        </g>
        <g
           id="text_8">
          <!-- Time in s -->
          <defs
             id="defs178">
            <path
               id="DejaVuSans-54"
               d="M -0.296875,72.90625 H 61.375 v -8.3125 H 35.5 V 0 H 25.59375 V 64.59375 H -0.296875 Z" />
            <path
               id="DejaVuSans-69"
               d="M 9.421875,54.6875 H 18.40625 V 0 H 9.421875 Z m 0,21.296875 H 18.40625 V 64.59375 H 9.421875 Z" />
            <path
               id="DejaVuSans-6d"
               d="M 52,44.1875 Q 55.375,50.25 60.0625,53.125 64.75,56 71.09375,56 q 8.546875,0 13.1875,-5.984375 4.640625,-5.96875 4.640625,-17 V 0 h -9.03125 v 32.71875 q 0,7.859375 -2.796875,11.65625 -2.78125,3.8125 -8.484375,3.8125 -6.984375,0 -11.046875,-4.640625 -4.046875,-4.625 -4.046875,-12.640625 V 0 h -9.03125 v 32.71875 q 0,7.90625 -2.78125,11.6875 -2.78125,3.78125 -8.59375,3.78125 -6.890625,0 -10.953125,-4.65625 -4.046875,-4.65625 -4.046875,-12.625 V 0 h -9.03125 v 54.6875 h 9.03125 v -8.5 q 3.078125,5.03125 7.375,7.421875 Q 29.78125,56 35.6875,56 41.65625,56 45.828125,52.96875 50,49.953125 52,44.1875 Z" />
            <path
               id="DejaVuSans-65"
               d="m 56.203125,29.59375 v -4.390625 h -41.3125 q 0.59375,-9.28125 5.59375,-14.140625 5,-4.859375 13.9375,-4.859375 5.171875,0 10.03125,1.265625 4.859375,1.265625 9.65625,3.8125 v -8.5 q -4.84375,-2.046875 -9.921875,-3.125 -5.078125,-1.078125 -10.296875,-1.078125 -13.09375,0 -20.734375,7.609375 -7.640625,7.625 -7.640625,20.625 0,13.421875 7.25,21.296875 Q 20.015625,56 32.328125,56 q 11.03125,0 17.453125,-7.109375 6.421875,-7.09375 6.421875,-19.296875 z m -8.984375,2.640625 q -0.09375,7.359375 -4.125,11.75 -4.03125,4.40625 -10.671875,4.40625 -7.515625,0 -12.03125,-4.25 -4.515625,-4.25 -5.203125,-11.96875 z" />
            <path
               d=""
               id="DejaVuSans-20" />
            <path
               id="DejaVuSans-6e"
               d="M 54.890625,33.015625 V 0 H 45.90625 v 32.71875 q 0,7.765625 -3.03125,11.609375 -3.03125,3.859375 -9.078125,3.859375 -7.28125,0 -11.484375,-4.640625 -4.203125,-4.625 -4.203125,-12.640625 V 0 h -9.03125 v 54.6875 h 9.03125 v -8.5 q 3.234375,4.9375 7.59375,7.375 4.375,2.4375 10.09375,2.4375 9.421875,0 14.25,-5.828125 4.84375,-5.828125 4.84375,-17.15625 z" />
            <path
               id="DejaVuSans-73"
               d="m 44.28125,53.078125 v -8.5 Q 40.484375,46.53125 36.375,47.5 q -4.09375,0.984375 -8.5,0.984375 -6.6875,0 -10.03125,-2.046875 Q 14.5,44.390625 14.5,40.28125 q 0,-3.125 2.390625,-4.90625 2.390625,-1.78125 9.625,-3.390625 l 3.078125,-0.6875 Q 39.15625,29.25 43.1875,25.515625 47.21875,21.78125 47.21875,15.09375 q 0,-7.625 -6.03125,-12.078125 -6.03125,-4.4375 -16.578125,-4.4375 -4.390625,0 -9.15625,0.859375 Q 10.6875,0.296875 5.421875,2 v 9.28125 q 4.984375,-2.59375 9.8125,-3.890625 4.828125,-1.28125 9.578125,-1.28125 6.34375,0 9.75,2.171875 3.421875,2.171875 3.421875,6.125 0,3.65625 -2.46875,5.609375 -2.453125,1.953125 -10.8125,3.765625 l -3.125,0.734375 q -8.34375,1.75 -12.0625,5.390625 -3.703125,3.640625 -3.703125,9.984375 0,7.71875 5.46875,11.90625 Q 16.75,56 26.8125,56 q 4.96875,0 9.359375,-0.734375 4.40625,-0.71875 8.109375,-2.1875 z" />
          </defs>
          <g
             id="g198"
             transform="matrix(0.1,0,0,-0.1,272.47187,316.63656)">
            <use
               height="100%"
               width="100%"
               y="0"
               x="0"
               id="use180"
               xlink:href="#DejaVuSans-54" />
            <use
               height="100%"
               width="100%"
               y="0"
               id="use182"
               xlink:href="#DejaVuSans-69"
               x="61.037109" />
            <use
               height="100%"
               width="100%"
               y="0"
               id="use184"
               xlink:href="#DejaVuSans-6d"
               x="88.820312" />
            <use
               height="100%"
               width="100%"
               y="0"
               id="use186"
               xlink:href="#DejaVuSans-65"
               x="186.23242" />
            <use
               height="100%"
               width="100%"
               y="0"
               id="use188"
               xlink:href="#DejaVuSans-20"
               x="247.75586" />
            <use
               height="100%"
               width="100%"
               y="0"
               id="use190"
               xlink:href="#DejaVuSans-69"
               x="279.54297" />
            <use
               height="100%"
               width="100%"
               y="0"
               id="use192"
               xlink:href="#DejaVuSans-6e"
               x="307.32617" />
            <use
               height="100%"
               width="100%"
               y="0"
               id="use194"
               xlink:href="#DejaVuSans-20"
               x="370.70508" />
            <use
               height="100%"
               width="100%"
               y="0"
               id="use196"
               xlink:href="#DejaVuSans-73"
               x="402.49219" />
          </g>
        </g>
      </g>
      <g
         id="matplotlib.axis_2">
        <g
           id="ytick_1">
          <g
             id="line2d_15">
            <path
               id="path202"
               style="fill:none;stroke:#b0b0b0;stroke-width:0.8;stroke-linecap:square"
               d="M 72,282.37097 H 518.4"
               clip-path="url(#pa66272d1e9)" />
          </g>
          <g
             id="line2d_16">
            <defs
               id="defs206">
              <path
                 style="stroke:#000000;stroke-width:0.8"
                 id="m2c22a4058c"
                 d="M 0,0 H -3.5" />
            </defs>
            <g
               id="g210">
              <use
                 height="100%"
                 width="100%"
                 id="use208"
                 y="282.37097"
                 xlink:href="#m2c22a4058c"
                 x="72"
                 style="stroke:#000000;stroke-width:0.8" />
            </g>
          </g>
          <g
             id="text_9">
            <!-- 0 -->
            <g
               id="g215"
               transform="matrix(0.1,0,0,-0.1,58.6375,286.17019)">
              <use
                 height="100%"
                 width="100%"
                 y="0"
                 x="0"
                 id="use213"
                 xlink:href="#DejaVuSans-30" />
            </g>
          </g>
        </g>
        <g
           id="ytick_2">
          <g
             id="line2d_17">
            <path
               id="path219"
               style="fill:none;stroke:#b0b0b0;stroke-width:0.8;stroke-linecap:square"
               d="M 72,239.56318 H 518.4"
               clip-path="url(#pa66272d1e9)" />
          </g>
          <g
             id="line2d_18">
            <g
               id="g224">
              <use
                 height="100%"
                 width="100%"
                 id="use222"
                 y="239.56317"
                 xlink:href="#m2c22a4058c"
                 x="72"
                 style="stroke:#000000;stroke-width:0.8" />
            </g>
          </g>
          <g
             id="text_10">
            <!-- 200 -->
            <g
               id="g233"
               transform="matrix(0.1,0,0,-0.1,45.9125,243.36239)">
              <use
                 height="100%"
                 width="100%"
                 y="0"
                 x="0"
                 id="use227"
                 xlink:href="#DejaVuSans-32" />
              <use
                 height="100%"
                 width="100%"
                 y="0"
                 id="use229"
                 xlink:href="#DejaVuSans-30"
                 x="63.623047" />
              <use
                 height="100%"
                 width="100%"
                 y="0"
                 id="use231"
                 xlink:href="#DejaVuSans-30"
                 x="127.24609" />
            </g>
          </g>
        </g>
        <g
           id="ytick_3">
          <g
             id="line2d_19">
            <path
               id="path237"
               style="fill:none;stroke:#b0b0b0;stroke-width:0.8;stroke-linecap:square"
               d="M 72,196.75538 H 518.4"
               clip-path="url(#pa66272d1e9)" />
          </g>
          <g
             id="line2d_20">
            <g
               id="g242">
              <use
                 height="100%"
                 width="100%"
                 id="use240"
                 y="196.75537"
                 xlink:href="#m2c22a4058c"
                 x="72"
                 style="stroke:#000000;stroke-width:0.8" />
            </g>
          </g>
          <g
             id="text_11">
            <!-- 400 -->
            <defs
               id="defs246">
              <path
                 id="DejaVuSans-34"
                 d="M 37.796875,64.3125 12.890625,25.390625 h 24.90625 z m -2.59375,8.59375 h 12.40625 V 25.390625 h 10.40625 V 17.1875 H 47.609375 V 0 h -9.8125 V 17.1875 H 4.890625 v 9.515625 z" />
            </defs>
            <g
               id="g254"
               transform="matrix(0.1,0,0,-0.1,45.9125,200.5546)">
              <use
                 height="100%"
                 width="100%"
                 y="0"
                 x="0"
                 id="use248"
                 xlink:href="#DejaVuSans-34" />
              <use
                 height="100%"
                 width="100%"
                 y="0"
                 id="use250"
                 xlink:href="#DejaVuSans-30"
                 x="63.623047" />
              <use
                 height="100%"
                 width="100%"
                 y="0"
                 id="use252"
                 xlink:href="#DejaVuSans-30"
                 x="127.24609" />
            </g>
          </g>
        </g>
        <g
           id="ytick_4">
          <g
             id="line2d_21">
            <path
               id="path258"
               style="fill:none;stroke:#b0b0b0;stroke-width:0.8;stroke-linecap:square"
               d="M 72,153.94758 H 518.4"
               clip-path="url(#pa66272d1e9)" />
          </g>
          <g
             id="line2d_22">
            <g
               id="g263">
              <use
                 height="100%"
                 width="100%"
                 id="use261"
                 y="153.94757"
                 xlink:href="#m2c22a4058c"
                 x="72"
                 style="stroke:#000000;stroke-width:0.8" />
            </g>
          </g>
          <g
             id="text_12">
            <!-- 600 -->
            <defs
               id="defs267">
              <path
                 id="DejaVuSans-36"
                 d="m 33.015625,40.375 q -6.640625,0 -10.53125,-4.546875 -3.875,-4.53125 -3.875,-12.4375 0,-7.859375 3.875,-12.4375 3.890625,-4.5625 10.53125,-4.5625 6.640625,0 10.515625,4.5625 3.875,4.578125 3.875,12.4375 0,7.90625 -3.875,12.4375 Q 39.65625,40.375 33.015625,40.375 Z M 52.59375,71.296875 V 62.3125 q -3.71875,1.75 -7.5,2.671875 -3.78125,0.9375 -7.5,0.9375 -9.765625,0 -14.921875,-6.59375 -5.140625,-6.59375 -5.875,-19.921875 2.875,4.25 7.21875,6.515625 4.359375,2.265625 9.578125,2.265625 10.984375,0 17.359375,-6.671875 6.375,-6.65625 6.375,-18.125 0,-11.234375 -6.640625,-18.03125 -6.640625,-6.78125 -17.671875,-6.78125 -12.65625,0 -19.34375,9.6875 -6.6875,9.703125 -6.6875,28.109375 0,17.28125 8.203125,27.5625 8.203125,10.28125 22.015625,10.28125 3.71875,0 7.5,-0.734375 3.78125,-0.734375 7.890625,-2.1875 z" />
            </defs>
            <g
               id="g275"
               transform="matrix(0.1,0,0,-0.1,45.9125,157.7468)">
              <use
                 height="100%"
                 width="100%"
                 y="0"
                 x="0"
                 id="use269"
                 xlink:href="#DejaVuSans-36" />
              <use
                 height="100%"
                 width="100%"
                 y="0"
                 id="use271"
                 xlink:href="#DejaVuSans-30"
                 x="63.623047" />
              <use
                 height="100%"
                 width="100%"
                 y="0"
                 id="use273"
                 xlink:href="#DejaVuSans-30"
                 x="127.24609" />
            </g>
          </g>
        </g>
        <g
           id="ytick_5">
          <g
             id="line2d_23">
            <path
               id="path279"
               style="fill:none;stroke:#b0b0b0;stroke-width:0.8;stroke-linecap:square"
               d="M 72,111.13978 H 518.4"
               clip-path="url(#pa66272d1e9)" />
          </g>
          <g
             id="line2d_24">
            <g
               id="g284">
              <use
                 height="100%"
                 width="100%"
                 id="use282"
                 y="111.13978"
                 xlink:href="#m2c22a4058c"
                 x="72"
                 style="stroke:#000000;stroke-width:0.8" />
            </g>
          </g>
          <g
             id="text_13">
            <!-- 800 -->
            <defs
               id="defs288">
              <path
                 id="DejaVuSans-38"
                 d="m 31.78125,34.625 q -7.03125,0 -11.0625,-3.765625 -4.015625,-3.765625 -4.015625,-10.34375 0,-6.59375 4.015625,-10.359375 4.03125,-3.765625 11.0625,-3.765625 7.03125,0 11.078125,3.78125 4.0625,3.796875 4.0625,10.34375 0,6.578125 -4.03125,10.34375 Q 38.875,34.625 31.78125,34.625 Z m -9.859375,4.1875 Q 15.578125,40.375 12.03125,44.71875 8.5,49.078125 8.5,55.328125 q 0,8.734375 6.21875,13.8125 6.234375,5.078125 17.0625,5.078125 10.890625,0 17.09375,-5.078125 6.203125,-5.078125 6.203125,-13.8125 0,-6.25 -3.546875,-10.609375 Q 48,40.375 41.703125,38.8125 q 7.125,-1.65625 11.09375,-6.5 3.984375,-4.828125 3.984375,-11.796875 0,-10.609375 -6.46875,-16.28125 -6.46875,-5.65625 -18.53125,-5.65625 -12.046875,0 -18.53125,5.65625 -6.46875,5.671875 -6.46875,16.28125 0,6.96875 4,11.796875 4.015625,4.84375 11.140625,6.5 z M 18.3125,54.390625 q 0,-5.65625 3.53125,-8.828125 3.546875,-3.171875 9.9375,-3.171875 6.359375,0 9.9375,3.171875 3.59375,3.171875 3.59375,8.828125 0,5.671875 -3.59375,8.84375 -3.578125,3.171875 -9.9375,3.171875 -6.390625,0 -9.9375,-3.171875 Q 18.3125,60.0625 18.3125,54.390625 Z" />
            </defs>
            <g
               id="g296"
               transform="matrix(0.1,0,0,-0.1,45.9125,114.939)">
              <use
                 height="100%"
                 width="100%"
                 y="0"
                 x="0"
                 id="use290"
                 xlink:href="#DejaVuSans-38" />
              <use
                 height="100%"
                 width="100%"
                 y="0"
                 id="use292"
                 xlink:href="#DejaVuSans-30"
                 x="63.623047" />
              <use
                 height="100%"
                 width="100%"
                 y="0"
                 id="use294"
                 xlink:href="#DejaVuSans-30"
                 x="127.24609" />
            </g>
          </g>
        </g>
        <g
           id="ytick_6">
          <g
             id="line2d_25">
            <path
               id="path300"
               style="fill:none;stroke:#b0b0b0;stroke-width:0.8;stroke-linecap:square"
               d="M 72,68.33198 H 518.4"
               clip-path="url(#pa66272d1e9)" />
          </g>
          <g
             id="line2d_26">
            <g
               id="g305">
              <use
                 height="100%"
                 width="100%"
                 id="use303"
                 y="68.331978"
                 xlink:href="#m2c22a4058c"
                 x="72"
                 style="stroke:#000000;stroke-width:0.8" />
            </g>
          </g>
          <g
             id="text_14">
            <!-- 1000 -->
            <g
               id="g316"
               transform="matrix(0.1,0,0,-0.1,39.55,72.131199)">
              <use
                 height="100%"
                 width="100%"
                 y="0"
                 x="0"
                 id="use308"
                 xlink:href="#DejaVuSans-31" />
              <use
                 height="100%"
                 width="100%"
                 y="0"
                 id="use310"
                 xlink:href="#DejaVuSans-30"
                 x="63.623047" />
              <use
                 height="100%"
                 width="100%"
                 y="0"
                 id="use312"
                 xlink:href="#DejaVuSans-30"
                 x="127.24609" />
              <use
                 height="100%"
                 width="100%"
                 y="0"
                 id="use314"
                 xlink:href="#DejaVuSans-30"
                 x="190.86914" />
            </g>
          </g>
        </g>
        <g
           id="text_15">
          <!-- Temperature in °C -->
          <defs
             id="defs327">
            <path
               id="DejaVuSans-70"
               d="m 18.109375,8.203125 v -29 H 9.078125 V 54.6875 h 9.03125 v -8.296875 q 2.84375,4.875 7.15625,7.234375 Q 29.59375,56 35.59375,56 q 9.96875,0 16.1875,-7.90625 6.234375,-7.90625 6.234375,-20.796875 0,-12.890625 -6.234375,-20.8125 -6.21875,-7.90625 -16.1875,-7.90625 -6,0 -10.328125,2.375 -4.3125,2.375 -7.15625,7.25 z M 48.6875,27.296875 q 0,9.90625 -4.078125,15.546875 -4.078125,5.640625 -11.203125,5.640625 -7.140625,0 -11.21875,-5.640625 -4.078125,-5.640625 -4.078125,-15.546875 0,-9.90625 4.078125,-15.546875 4.078125,-5.640625 11.21875,-5.640625 7.125,0 11.203125,5.640625 4.078125,5.640625 4.078125,15.546875 z" />
            <path
               id="DejaVuSans-72"
               d="m 41.109375,46.296875 q -1.515625,0.875 -3.296875,1.28125 Q 36.03125,48 33.890625,48 26.265625,48 22.1875,43.046875 18.109375,38.09375 18.109375,28.8125 V 0 h -9.03125 v 54.6875 h 9.03125 v -8.5 q 2.84375,4.984375 7.375,7.390625 Q 30.03125,56 36.53125,56 q 0.921875,0 2.046875,-0.125 1.125,-0.109375 2.484375,-0.359375 z" />
            <path
               id="DejaVuSans-61"
               d="m 34.28125,27.484375 q -10.890625,0 -15.09375,-2.484375 -4.203125,-2.484375 -4.203125,-8.5 0,-4.78125 3.15625,-7.59375 3.15625,-2.796875 8.5625,-2.796875 7.484375,0 12,5.296875 4.515625,5.296875 4.515625,14.078125 v 2 z m 17.921875,3.71875 V 0 H 43.21875 v 8.296875 q -3.078125,-4.96875 -7.671875,-7.34375 -4.59375,-2.375 -11.234375,-2.375 -8.390625,0 -13.359375,4.71875 Q 6,8.015625 6,15.921875 q 0,9.21875 6.171875,13.90625 6.1875,4.6875 18.4375,4.6875 H 43.21875 v 0.890625 q 0,6.203125 -4.078125,9.59375 -4.078125,3.390625 -11.453125,3.390625 -4.6875,0 -9.140625,-1.125 -4.4375,-1.125 -8.53125,-3.375 v 8.3125 q 4.921875,1.90625 9.5625,2.84375 Q 24.21875,56 28.609375,56 q 11.875,0 17.734375,-6.15625 5.859375,-6.140625 5.859375,-18.640625 z" />
            <path
               id="DejaVuSans-74"
               d="M 18.3125,70.21875 V 54.6875 h 18.5 v -6.984375 h -18.5 v -29.6875 q 0,-6.6875 1.828125,-8.59375 1.828125,-1.90625 7.453125,-1.90625 H 36.8125 V 0 H 27.59375 Q 17.1875,0 13.234375,3.875 9.28125,7.765625 9.28125,18.015625 v 29.6875 H 2.6875 V 54.6875 h 6.59375 v 15.53125 z" />
            <path
               id="DejaVuSans-75"
               d="M 8.5,21.578125 V 54.6875 h 8.984375 V 21.921875 q 0,-7.765625 3.015625,-11.65625 3.03125,-3.875 9.09375,-3.875 7.265625,0 11.484375,4.640625 4.234375,4.640625 4.234375,12.65625 v 31 h 8.984375 V 0 H 45.3125 V 8.40625 Q 42.046875,3.421875 37.71875,1 33.40625,-1.421875 27.6875,-1.421875 18.265625,-1.421875 13.375,4.4375 8.5,10.296875 8.5,21.578125 Z M 31.109375,56 Z" />
            <path
               id="DejaVuSans-b0"
               d="m 25,67.921875 q -3.90625,0 -6.59375,-2.71875 -2.6875,-2.703125 -2.6875,-6.609375 0,-3.859375 2.6875,-6.515625 2.6875,-2.65625 6.59375,-2.65625 3.90625,0 6.59375,2.65625 2.6875,2.65625 2.6875,6.515625 0,3.859375 -2.71875,6.59375 Q 28.859375,67.921875 25,67.921875 Z m 0,6.296875 q 3.125,0 6,-1.203125 2.890625,-1.1875 4.984375,-3.4375 2.25,-2.1875 3.375,-4.984375 1.125,-2.78125 1.125,-6 0,-6.4375 -4.515625,-10.90625 -4.515625,-4.46875 -11.0625,-4.46875 -6.59375,0 -11,4.390625 Q 9.515625,52 9.515625,58.59375 q 0,6.546875 4.484375,11.078125 4.5,4.546875 11,4.546875 z" />
            <path
               id="DejaVuSans-43"
               d="M 64.40625,67.28125 V 56.890625 q -4.984375,4.640625 -10.625,6.921875 -5.640625,2.296875 -11.984375,2.296875 -12.5,0 -19.140625,-7.640625 -6.640625,-7.640625 -6.640625,-22.09375 0,-14.40625 6.640625,-22.046875 Q 29.296875,6.6875 41.796875,6.6875 q 6.34375,0 11.984375,2.296875 5.640625,2.296875 10.625,6.9375 V 5.609375 Q 59.234375,2.09375 53.4375,0.328125 q -5.78125,-1.75 -12.21875,-1.75 -16.5625,0 -26.09375,10.125 Q 5.609375,18.84375 5.609375,36.375 q 0,17.578125 9.515625,27.703125 9.53125,10.140625 26.09375,10.140625 6.53125,0 12.3125,-1.734375 5.796875,-1.734375 10.875,-5.203125 z" />
          </defs>
          <g
             id="g363"
             transform="matrix(0,-0.1,-0.1,0,33.470312,209.96453)">
            <use
               height="100%"
               width="100%"
               y="0"
               x="0"
               id="use329"
               xlink:href="#DejaVuSans-54" />
            <use
               height="100%"
               width="100%"
               y="0"
               id="use331"
               xlink:href="#DejaVuSans-65"
               x="60.818359" />
            <use
               height="100%"
               width="100%"
               y="0"
               id="use333"
               xlink:href="#DejaVuSans-6d"
               x="122.3418" />
            <use
               height="100%"
               width="100%"
               y="0"
               id="use335"
               xlink:href="#DejaVuSans-70"
               x="219.75391" />
            <use
               height="100%"
               width="100%"
               y="0"
               id="use337"
               xlink:href="#DejaVuSans-65"
               x="283.23047" />
            <use
               height="100%"
               width="100%"
               y="0"
               id="use339"
               xlink:href="#DejaVuSans-72"
               x="344.75391" />
            <use
               height="100%"
               width="100%"
               y="0"
               id="use341"
               xlink:href="#DejaVuSans-61"
               x="385.86719" />
            <use
               height="100%"
               width="100%"
               y="0"
               id="use343"
               xlink:href="#DejaVuSans-74"
               x="447.14648" />
            <use
               height="100%"
               width="100%"
               y="0"
               id="use345"
               xlink:href="#DejaVuSans-75"
               x="486.35547" />
            <use
               height="100%"
               width="100%"
               y="0"
               id="use347"
               xlink:href="#DejaVuSans-72"
               x="549.73438" />
            <use
               height="100%"
               width="100%"
               y="0"
               id="use349"
               xlink:href="#DejaVuSans-65"
               x="590.81641" />
            <use
               height="100%"
               width="100%"
               y="0"
               id="use351"
               xlink:href="#DejaVuSans-20"
               x="652.33984" />
            <use
               height="100%"
               width="100%"
               y="0"
               id="use353"
               xlink:href="#DejaVuSans-69"
               x="684.12695" />
            <use
               height="100%"
               width="100%"
               y="0"
               id="use355"
               xlink:href="#DejaVuSans-6e"
               x="711.91016" />
            <use
               height="100%"
               width="100%"
               y="0"
               id="use357"
               xlink:href="#DejaVuSans-20"
               x="775.28906" />
            <use
               height="100%"
               width="100%"
               y="0"
               id="use359"
               xlink:href="#DejaVuSans-b0"
               x="807.07617" />
            <use
               height="100%"
               width="100%"
               y="0"
               id="use361"
               xlink:href="#DejaVuSans-43"
               x="857.07617" />
          </g>
        </g>
      </g>
      <g
         id="line2d_27">
        <path
           id="path367"
           style="fill:none;stroke:#1f77b4;stroke-width:1.5;stroke-linecap:square"
           d="M 92.290909,277.02 V 63.942651 L 93.648161,50.22 h 9.500759 l 1.35725,49.555299 1.35725,39.902141 1.35726,19.91572 1.35725,12.77736 1.35725,9.20738 1.35725,7.09476 1.35725,5.71171 1.35725,4.74329 1.35725,4.03192 1.35726,3.49036 1.35725,3.06636 1.35725,2.72685 1.35725,2.44982 2.7145,4.24718 2.71451,3.58397 2.7145,3.08912 2.7145,2.70637 2.7145,2.40156 2.71451,2.15289 2.7145,1.94599 4.07175,2.59893 4.07176,2.28408 4.07175,2.02732 4.07176,1.81403 5.429,2.14378 5.42901,1.88409 5.429,1.67002 6.78626,1.83936 6.78626,1.61208 8.14351,1.69027 8.14351,1.47279 9.50076,1.49577 10.85801,1.47312 12.21526,1.41766 13.57251,1.34076 14.92977,1.25166 17.64427,1.24547 20.35877,1.19618 23.07328,1.12018 27.14502,1.07937 31.21679,1.00684 36.64579,0.95005 43.43204,0.89433 35.28854,0.59172 v 0"
           clip-path="url(#pa66272d1e9)" />
      </g>
      <g
         id="line2d_28">
        <path
           id="path370"
           style="fill:none;stroke:#ff7f0e;stroke-width:1.5;stroke-linecap:square"
           d="M 92.290909,277.02 V 101.35133 L 93.648161,70.996193 95.005412,56.885825 96.362663,50.22 h 52.932807 l 1.35725,5.272745 1.35725,30.83652 1.35725,16.447735 1.35726,11.25534 1.35725,8.61107 1.35725,7.00903 1.35725,5.93161 1.35725,5.155 1.35725,4.56703 1.35725,4.10539 2.71451,7.15737 2.7145,6.11047 2.7145,5.33899 2.71451,4.74338 2.7145,4.26704 2.7145,3.87554 2.7145,3.54672 2.71451,3.26575 4.07175,4.45182 4.07176,3.99975 4.07175,3.62045 4.07175,3.29735 4.07176,3.01882 4.07175,2.7763 4.07176,2.56343 5.429,3.12887 5.42901,2.84204 5.429,2.59418 5.42901,2.37829 6.78626,2.70927 6.78625,2.45571 6.78626,2.2368 8.14351,2.43499 8.14351,2.20083 9.50076,2.31492 9.50076,2.08238 10.85801,2.13808 10.85801,1.9187 12.21527,1.93642 13.57251,1.91865 14.92977,1.87326 16.28701,1.8075 17.64427,1.72765 19.00152,1.63893 21.71603,1.64172 23.07327,1.52296 25.78778,1.48253 21.71602,1.10027 v 0"
           clip-path="url(#pa66272d1e9)" />
      </g>
      <g
         id="line2d_29">
        <path
           id="path373"
           style="fill:none;stroke:#2ca02c;stroke-width:1.5;stroke-linecap:square"
           d="M 92.290909,277.02 V 175.49958 l 1.357252,-17.99177 1.357251,-8.92299 1.357251,-5.48804 1.357252,-4.74208 1.357251,-3.4967 1.357254,-2.95567 1.35725,-2.5819 1.35725,-2.30169 1.35725,-2.08211 6.78626,-7.96246 2.7145,-2.67042 2.71451,-2.40616 4.07175,-3.21492 4.07175,-2.83926 4.07176,-2.5409 4.07175,-2.29759 5.42901,-2.754128 5.429,-2.464801 5.42901,-2.227797 6.78626,-2.510651 6.78625,-2.259374 8.14351,-2.439862 8.14351,-2.196133 9.50076,-2.309553 9.50076,-2.084758 10.85801,-2.15537 12.21527,-2.185395 13.57251,-2.183839 14.92977,-2.158525 16.28701,-2.116209 17.64427,-2.061082 19.00152,-1.996467 21.71603,-2.047835 23.07327,-1.950524 25.78778,-1.954093 28.50228,-1.931726 31.21678,-1.890299 35.28854,-1.904727 29.85953,-1.45221 v 0"
           clip-path="url(#pa66272d1e9)" />
      </g>
      <g
         id="line2d_30">
        <path
           id="path376"
           style="fill:none;stroke:#d62728;stroke-width:1.5;stroke-linecap:square"
           d="M 92.290909,277.02 V 138.65328 l 1.357252,-24.28992 1.357251,-11.42424 1.357251,-7.008681 1.357252,-5.705187 1.357251,-5.090421 1.357254,-3.882897 1.35725,-3.365899 1.35725,-2.993811 1.35725,-2.705056 2.71451,-4.246224 2.7145,-4.121386 2.7145,-3.642614 2.7145,-3.24678 2.71451,-2.924848 2.7145,-2.658755 1.35725,-1.126561 h 375.95865 v 0"
           clip-path="url(#pa66272d1e9)" />
      </g>
      <g
         id="patch_3">
        <path
           id="path379"
           style="fill:none;stroke:#000000;stroke-width:0.8;stroke-linecap:square;stroke-linejoin:miter"
           d="M 72,288.36 V 38.88" />
      </g>
      <g
         id="patch_4">
        <path
           id="path382"
           style="fill:none;stroke:#000000;stroke-width:0.8;stroke-linecap:square;stroke-linejoin:miter"
           d="M 518.4,288.36 V 38.88" />
      </g>
      <g
         id="patch_5">
        <path
           id="path385"
           style="fill:none;stroke:#000000;stroke-width:0.8;stroke-linecap:square;stroke-linejoin:miter"
           d="M 72,288.36 H 518.4" />
      </g>
      <g
         id="patch_6">
        <path
           id="path388"
           style="fill:none;stroke:#000000;stroke-width:0.8;stroke-linecap:square;stroke-linejoin:miter"
           d="M 72,38.88 H 518.4" />
      </g>
      <g
         id="patch_7">
        <path
           id="path391"
           style="fill:none;stroke:#000000;stroke-linecap:round"
           d="m 422.72822,202.76277 q -8.86991,32.29061 -17.44367,63.50311" />
        <path
           id="path393"
           style="fill:none;stroke:#000000;stroke-linecap:round"
           d="m 408.27263,262.93851 -2.98808,3.32737 -0.86905,-4.38688" />
      </g>
      <g
         id="text_16">
        <!-- $U_0$ = 1.3V, $I_{max}$ = 40.55A -->
        <defs
           id="defs405">
          <path
             id="DejaVuSans-Oblique-55"
             d="m 15.484375,72.90625 h 9.90625 l -8.59375,-44.296875 q -0.53125,-2.96875 -0.75,-4.90625 -0.21875,-1.921875 -0.21875,-3.390625 0,-6.734375 3.75,-10.234375 3.765625,-3.484375 11.03125,-3.484375 9.4375,0 14.671875,5.171875 5.25,5.171875 7.5,16.84375 L 61.375,72.90625 h 9.921875 L 62.5,27.390625 Q 59.625,12.640625 51.5625,5.609375 43.5,-1.421875 29.5,-1.421875 q -10.9375,0 -17.3125,5.5 -6.375,5.5 -6.375,14.921875 0,1.703125 0.234375,3.828125 0.25,2.125 0.734375,4.5625 z" />
          <path
             id="DejaVuSans-3d"
             d="M 10.59375,45.40625 H 73.1875 V 37.203125 H 10.59375 Z m 0,-19.921875 H 73.1875 V 17.1875 H 10.59375 Z" />
          <path
             id="DejaVuSans-56"
             d="M 28.609375,0 0.78125,72.90625 h 10.296875 l 23.109375,-61.375 23.140625,61.375 h 10.25 L 39.796875,0 Z" />
          <path
             id="DejaVuSans-2c"
             d="M 11.71875,12.40625 H 22.015625 V 4 l -8,-15.625 H 7.71875 l 4,15.625 z" />
          <path
             id="DejaVuSans-Oblique-49"
             d="M 16.890625,72.90625 H 26.8125 L 12.59375,0 H 2.6875 Z" />
          <path
             id="DejaVuSans-Oblique-6d"
             d="M 89.796875,33.015625 83.40625,0 h -8.984375 l 6.296875,32.71875 q 0.390625,2.09375 0.578125,3.609375 Q 81.5,37.84375 81.5,38.921875 81.5,43.3125 79.046875,45.75 q -2.4375,2.4375 -6.828125,2.4375 -6.546875,0 -11.671875,-4.90625 -5.125,-4.90625 -6.640625,-12.765625 L 47.90625,0 H 38.921875 L 45.3125,32.71875 q 0.390625,1.796875 0.578125,3.328125 0.203125,1.546875 0.203125,2.765625 0,4.453125 -2.4375,6.90625 -2.4375,2.46875 -6.734375,2.46875 -6.640625,0 -11.78125,-4.90625 Q 20.015625,38.375 18.5,30.515625 L 12.5,0 H 3.515625 l 10.6875,54.6875 H 23.1875 l -1.703125,-8.5 q 3.65625,4.796875 8.5625,7.296875 Q 34.96875,56 40.578125,56 q 5.953125,0 9.78125,-3.125 3.84375,-3.125 4.625,-8.6875 4.09375,5.765625 9.484375,8.78125 Q 69.875,56 75.875,56 q 7.03125,0 10.859375,-4.046875 3.84375,-4.046875 3.84375,-11.46875 0,-1.609375 -0.203125,-3.546875 -0.1875,-1.921875 -0.578125,-3.921875 z" />
          <path
             id="DejaVuSans-Oblique-61"
             d="M 53.71875,31.203125 47.609375,0 H 38.625 l 1.65625,8.296875 Q 36.328125,3.421875 31.265625,1 26.21875,-1.421875 20.015625,-1.421875 13.03125,-1.421875 8.5625,2.84375 4.109375,7.125 4.109375,13.8125 q 0,9.578125 7.640625,15.140625 7.640625,5.5625 21.0625,5.5625 h 12.5 l 0.484375,2.40625 q 0.109375,0.390625 0.15625,0.84375 Q 46,38.234375 46,39.203125 q 0,4.359375 -3.546875,6.765625 -3.53125,2.421875 -9.9375,2.421875 -4.390625,0 -9.015625,-1.125 -4.609375,-1.125 -9.484375,-3.375 l 1.5625,8.3125 q 5.078125,1.90625 9.9375,2.84375 Q 30.375,56 34.90625,56 q 9.671875,0 14.71875,-4.203125 5.0625,-4.1875 5.0625,-12.203125 0,-1.609375 -0.25,-3.78125 -0.234375,-2.171875 -0.71875,-4.609375 z M 44,27.484375 h -8.984375 q -11.046875,0 -16.34375,-2.953125 Q 13.375,21.578125 13.375,15.375 q 0,-4.296875 2.703125,-6.734375 2.71875,-2.4375 7.5,-2.4375 7.328125,0 12.796875,5.25 5.46875,5.25 7.234375,14.03125 z" />
          <path
             id="DejaVuSans-Oblique-78"
             d="M 60.015625,54.6875 34.90625,27.875 50.296875,0 h -10.3125 L 28.421875,21.6875 8.296875,0 H -2.59375 L 24.3125,28.8125 10.015625,54.6875 H 20.3125 l 10.5,-19.78125 18.3125,19.78125 z" />
          <path
             id="DejaVuSans-41"
             d="M 34.1875,63.1875 20.796875,26.90625 h 26.8125 z m -5.578125,9.71875 h 11.1875 L 67.578125,0 h -10.25 L 50.6875,18.703125 H 17.828125 L 11.1875,0 H 0.78125 Z" />
        </defs>
        <g
           id="g455"
           transform="matrix(0.1,0,0,-0.1,362.83636,196.75538)">
          <use
             height="100%"
             width="100%"
             y="0"
             x="0"
             id="use407"
             xlink:href="#DejaVuSans-Oblique-55"
             transform="translate(0,0.78125)" />
          <use
             height="100%"
             width="100%"
             y="0"
             x="0"
             id="use409"
             xlink:href="#DejaVuSans-30"
             transform="matrix(0.7,0,0,0.7,73.193359,-15.625)" />
          <use
             height="100%"
             width="100%"
             y="0"
             x="0"
             id="use411"
             xlink:href="#DejaVuSans-20"
             transform="translate(120.46387,0.78125)" />
          <use
             height="100%"
             width="100%"
             y="0"
             x="0"
             id="use413"
             xlink:href="#DejaVuSans-3d"
             transform="translate(152.25098,0.78125)" />
          <use
             height="100%"
             width="100%"
             y="0"
             x="0"
             id="use415"
             xlink:href="#DejaVuSans-20"
             transform="translate(236.04004,0.78125)" />
          <use
             height="100%"
             width="100%"
             y="0"
             x="0"
             id="use417"
             xlink:href="#DejaVuSans-31"
             transform="translate(267.82715,0.78125)" />
          <use
             height="100%"
             width="100%"
             y="0"
             x="0"
             id="use419"
             xlink:href="#DejaVuSans-2e"
             transform="translate(331.45019,0.78125)" />
          <use
             height="100%"
             width="100%"
             y="0"
             x="0"
             id="use421"
             xlink:href="#DejaVuSans-33"
             transform="translate(363.2373,0.78125)" />
          <use
             height="100%"
             width="100%"
             y="0"
             x="0"
             id="use423"
             xlink:href="#DejaVuSans-56"
             transform="translate(426.84473,0.78125)" />
          <use
             height="100%"
             width="100%"
             y="0"
             x="0"
             id="use425"
             xlink:href="#DejaVuSans-2c"
             transform="translate(495.25293,0.78125)" />
          <use
             height="100%"
             width="100%"
             y="0"
             x="0"
             id="use427"
             xlink:href="#DejaVuSans-20"
             transform="translate(527.04004,0.78125)" />
          <use
             height="100%"
             width="100%"
             y="0"
             x="0"
             id="use429"
             xlink:href="#DejaVuSans-Oblique-49"
             transform="translate(558.82715,0.78125)" />
          <use
             height="100%"
             width="100%"
             y="0"
             x="0"
             id="use431"
             xlink:href="#DejaVuSans-Oblique-6d"
             transform="matrix(0.7,0,0,0.7,588.31934,-15.625)" />
          <use
             height="100%"
             width="100%"
             y="0"
             x="0"
             id="use433"
             xlink:href="#DejaVuSans-Oblique-61"
             transform="matrix(0.7,0,0,0.7,656.50781,-15.625)" />
          <use
             height="100%"
             width="100%"
             y="0"
             x="0"
             id="use435"
             xlink:href="#DejaVuSans-Oblique-78"
             transform="matrix(0.7,0,0,0.7,699.40332,-15.625)" />
          <use
             height="100%"
             width="100%"
             y="0"
             x="0"
             id="use437"
             xlink:href="#DejaVuSans-20"
             transform="translate(743.56348,0.78125)" />
          <use
             height="100%"
             width="100%"
             y="0"
             x="0"
             id="use439"
             xlink:href="#DejaVuSans-3d"
             transform="translate(775.35059,0.78125)" />
          <use
             height="100%"
             width="100%"
             y="0"
             x="0"
             id="use441"
             xlink:href="#DejaVuSans-20"
             transform="translate(859.13965,0.78125)" />
          <use
             height="100%"
             width="100%"
             y="0"
             x="0"
             id="use443"
             xlink:href="#DejaVuSans-34"
             transform="translate(890.92676,0.78125)" />
          <use
             height="100%"
             width="100%"
             y="0"
             x="0"
             id="use445"
             xlink:href="#DejaVuSans-30"
             transform="translate(954.5498,0.78125)" />
          <use
             height="100%"
             width="100%"
             y="0"
             x="0"
             id="use447"
             xlink:href="#DejaVuSans-2e"
             transform="translate(1018.1729,0.78125)" />
          <use
             height="100%"
             width="100%"
             y="0"
             x="0"
             id="use449"
             xlink:href="#DejaVuSans-35"
             transform="translate(1049.96,0.78125)" />
          <use
             height="100%"
             width="100%"
             y="0"
             x="0"
             id="use451"
             xlink:href="#DejaVuSans-35"
             transform="translate(1113.583,0.78125)" />
          <use
             height="100%"
             width="100%"
             y="0"
             x="0"
             id="use453"
             xlink:href="#DejaVuSans-41"
             transform="translate(1177.2061,0.78125)" />
        </g>
      </g>
      <g
         id="patch_8">
        <path
           id="path458"
           style="fill:none;stroke:#000000;stroke-linecap:round"
           d="m 407.63025,173.09761 q -68.53063,29.90863 -136.03656,59.37006" />
        <path
           id="path460"
           style="fill:none;stroke:#000000;stroke-linecap:round"
           d="m 276.05975,232.70073 -4.46606,-0.23306 2.86609,-3.43301" />
      </g>
      <g
         id="text_17">
        <!-- $U_0$ = 1.1V, $I_{max}$ = 28.96A -->
        <defs
           id="defs464">
          <path
             id="DejaVuSans-39"
             d="M 10.984375,1.515625 V 10.5 Q 14.703125,8.734375 18.5,7.8125 q 3.8125,-0.921875 7.484375,-0.921875 9.765625,0 14.90625,6.5625 5.15625,6.5625 5.890625,19.953125 -2.828125,-4.203125 -7.1875,-6.453125 -4.34375,-2.25 -9.609375,-2.25 -10.9375,0 -17.3125,6.609375 -6.375,6.625 -6.375,18.109375 0,11.21875 6.640625,18 6.640625,6.796875 17.671875,6.796875 12.65625,0 19.3125,-9.703125 6.671875,-9.6875 6.671875,-28.140625 0,-17.234375 -8.1875,-27.515625 -8.171875,-10.28125 -21.984375,-10.28125 -3.71875,0 -7.53125,0.734375 -3.796875,0.734375 -7.90625,2.203125 z m 19.625,30.90625 q 6.640625,0 10.515625,4.53125 3.890625,4.546875 3.890625,12.46875 0,7.859375 -3.890625,12.421875 -3.875,4.5625 -10.515625,4.5625 -6.640625,0 -10.515625,-4.5625 -3.875,-4.5625 -3.875,-12.421875 0,-7.921875 3.875,-12.46875 3.875,-4.53125 10.515625,-4.53125 z" />
        </defs>
        <g
           id="g514"
           transform="matrix(0.1,0,0,-0.1,362.83636,168.21684)">
          <use
             height="100%"
             width="100%"
             y="0"
             x="0"
             id="use466"
             xlink:href="#DejaVuSans-Oblique-55"
             transform="translate(0,0.78125)" />
          <use
             height="100%"
             width="100%"
             y="0"
             x="0"
             id="use468"
             xlink:href="#DejaVuSans-30"
             transform="matrix(0.7,0,0,0.7,73.193359,-15.625)" />
          <use
             height="100%"
             width="100%"
             y="0"
             x="0"
             id="use470"
             xlink:href="#DejaVuSans-20"
             transform="translate(120.46387,0.78125)" />
          <use
             height="100%"
             width="100%"
             y="0"
             x="0"
             id="use472"
             xlink:href="#DejaVuSans-3d"
             transform="translate(152.25098,0.78125)" />
          <use
             height="100%"
             width="100%"
             y="0"
             x="0"
             id="use474"
             xlink:href="#DejaVuSans-20"
             transform="translate(236.04004,0.78125)" />
          <use
             height="100%"
             width="100%"
             y="0"
             x="0"
             id="use476"
             xlink:href="#DejaVuSans-31"
             transform="translate(267.82715,0.78125)" />
          <use
             height="100%"
             width="100%"
             y="0"
             x="0"
             id="use478"
             xlink:href="#DejaVuSans-2e"
             transform="translate(331.45019,0.78125)" />
          <use
             height="100%"
             width="100%"
             y="0"
             x="0"
             id="use480"
             xlink:href="#DejaVuSans-31"
             transform="translate(363.2373,0.78125)" />
          <use
             height="100%"
             width="100%"
             y="0"
             x="0"
             id="use482"
             xlink:href="#DejaVuSans-56"
             transform="translate(426.86035,0.78125)" />
          <use
             height="100%"
             width="100%"
             y="0"
             x="0"
             id="use484"
             xlink:href="#DejaVuSans-2c"
             transform="translate(495.26855,0.78125)" />
          <use
             height="100%"
             width="100%"
             y="0"
             x="0"
             id="use486"
             xlink:href="#DejaVuSans-20"
             transform="translate(527.05566,0.78125)" />
          <use
             height="100%"
             width="100%"
             y="0"
             x="0"
             id="use488"
             xlink:href="#DejaVuSans-Oblique-49"
             transform="translate(558.84277,0.78125)" />
          <use
             height="100%"
             width="100%"
             y="0"
             x="0"
             id="use490"
             xlink:href="#DejaVuSans-Oblique-6d"
             transform="matrix(0.7,0,0,0.7,588.33496,-15.625)" />
          <use
             height="100%"
             width="100%"
             y="0"
             x="0"
             id="use492"
             xlink:href="#DejaVuSans-Oblique-61"
             transform="matrix(0.7,0,0,0.7,656.52344,-15.625)" />
          <use
             height="100%"
             width="100%"
             y="0"
             x="0"
             id="use494"
             xlink:href="#DejaVuSans-Oblique-78"
             transform="matrix(0.7,0,0,0.7,699.41894,-15.625)" />
          <use
             height="100%"
             width="100%"
             y="0"
             x="0"
             id="use496"
             xlink:href="#DejaVuSans-20"
             transform="translate(743.5791,0.78125)" />
          <use
             height="100%"
             width="100%"
             y="0"
             x="0"
             id="use498"
             xlink:href="#DejaVuSans-3d"
             transform="translate(775.36621,0.78125)" />
          <use
             height="100%"
             width="100%"
             y="0"
             x="0"
             id="use500"
             xlink:href="#DejaVuSans-20"
             transform="translate(859.15527,0.78125)" />
          <use
             height="100%"
             width="100%"
             y="0"
             x="0"
             id="use502"
             xlink:href="#DejaVuSans-32"
             transform="translate(890.94238,0.78125)" />
          <use
             height="100%"
             width="100%"
             y="0"
             x="0"
             id="use504"
             xlink:href="#DejaVuSans-38"
             transform="translate(954.56543,0.78125)" />
          <use
             height="100%"
             width="100%"
             y="0"
             x="0"
             id="use506"
             xlink:href="#DejaVuSans-2e"
             transform="translate(1018.1885,0.78125)" />
          <use
             height="100%"
             width="100%"
             y="0"
             x="0"
             id="use508"
             xlink:href="#DejaVuSans-39"
             transform="translate(1049.9756,0.78125)" />
          <use
             height="100%"
             width="100%"
             y="0"
             x="0"
             id="use510"
             xlink:href="#DejaVuSans-36"
             transform="translate(1113.5986,0.78125)" />
          <use
             height="100%"
             width="100%"
             y="0"
             x="0"
             id="use512"
             xlink:href="#DejaVuSans-41"
             transform="translate(1177.2217,0.78125)" />
        </g>
      </g>
      <g
         id="patch_9">
        <path
           id="path517"
           style="fill:none;stroke:#000000;stroke-linecap:round"
           d="M 389.67624,129.67947 Q 282.68142,107.83562 176.78204,86.215413" />
        <path
           id="path519"
           style="fill:none;stroke:#000000;stroke-linecap:round"
           d="m 180.30113,88.97512 -3.51909,-2.759707 4.31922,-1.159451" />
      </g>
      <g
         id="text_18">
        <!-- $U_0$ = 0.7V, $I_{max}$ = 22.06A -->
        <defs
           id="defs523">
          <path
             id="DejaVuSans-37"
             d="m 8.203125,72.90625 h 46.875 V 68.703125 L 28.609375,0 H 18.3125 L 43.21875,64.59375 H 8.203125 Z" />
        </defs>
        <g
           id="g573"
           transform="matrix(0.1,0,0,-0.1,362.83636,139.67831)">
          <use
             height="100%"
             width="100%"
             y="0"
             x="0"
             id="use525"
             xlink:href="#DejaVuSans-Oblique-55"
             transform="translate(0,0.78125)" />
          <use
             height="100%"
             width="100%"
             y="0"
             x="0"
             id="use527"
             xlink:href="#DejaVuSans-30"
             transform="matrix(0.7,0,0,0.7,73.193359,-15.625)" />
          <use
             height="100%"
             width="100%"
             y="0"
             x="0"
             id="use529"
             xlink:href="#DejaVuSans-20"
             transform="translate(120.46387,0.78125)" />
          <use
             height="100%"
             width="100%"
             y="0"
             x="0"
             id="use531"
             xlink:href="#DejaVuSans-3d"
             transform="translate(152.25098,0.78125)" />
          <use
             height="100%"
             width="100%"
             y="0"
             x="0"
             id="use533"
             xlink:href="#DejaVuSans-20"
             transform="translate(236.04004,0.78125)" />
          <use
             height="100%"
             width="100%"
             y="0"
             x="0"
             id="use535"
             xlink:href="#DejaVuSans-30"
             transform="translate(267.82715,0.78125)" />
          <use
             height="100%"
             width="100%"
             y="0"
             x="0"
             id="use537"
             xlink:href="#DejaVuSans-2e"
             transform="translate(331.45019,0.78125)" />
          <use
             height="100%"
             width="100%"
             y="0"
             x="0"
             id="use539"
             xlink:href="#DejaVuSans-37"
             transform="translate(363.12793,0.78125)" />
          <use
             height="100%"
             width="100%"
             y="0"
             x="0"
             id="use541"
             xlink:href="#DejaVuSans-56"
             transform="translate(426.50098,0.78125)" />
          <use
             height="100%"
             width="100%"
             y="0"
             x="0"
             id="use543"
             xlink:href="#DejaVuSans-2c"
             transform="translate(494.90918,0.78125)" />
          <use
             height="100%"
             width="100%"
             y="0"
             x="0"
             id="use545"
             xlink:href="#DejaVuSans-20"
             transform="translate(526.69629,0.78125)" />
          <use
             height="100%"
             width="100%"
             y="0"
             x="0"
             id="use547"
             xlink:href="#DejaVuSans-Oblique-49"
             transform="translate(558.4834,0.78125)" />
          <use
             height="100%"
             width="100%"
             y="0"
             x="0"
             id="use549"
             xlink:href="#DejaVuSans-Oblique-6d"
             transform="matrix(0.7,0,0,0.7,587.97559,-15.625)" />
          <use
             height="100%"
             width="100%"
             y="0"
             x="0"
             id="use551"
             xlink:href="#DejaVuSans-Oblique-61"
             transform="matrix(0.7,0,0,0.7,656.16406,-15.625)" />
          <use
             height="100%"
             width="100%"
             y="0"
             x="0"
             id="use553"
             xlink:href="#DejaVuSans-Oblique-78"
             transform="matrix(0.7,0,0,0.7,699.05957,-15.625)" />
          <use
             height="100%"
             width="100%"
             y="0"
             x="0"
             id="use555"
             xlink:href="#DejaVuSans-20"
             transform="translate(743.21973,0.78125)" />
          <use
             height="100%"
             width="100%"
             y="0"
             x="0"
             id="use557"
             xlink:href="#DejaVuSans-3d"
             transform="translate(775.00684,0.78125)" />
          <use
             height="100%"
             width="100%"
             y="0"
             x="0"
             id="use559"
             xlink:href="#DejaVuSans-20"
             transform="translate(858.7959,0.78125)" />
          <use
             height="100%"
             width="100%"
             y="0"
             x="0"
             id="use561"
             xlink:href="#DejaVuSans-32"
             transform="translate(890.58301,0.78125)" />
          <use
             height="100%"
             width="100%"
             y="0"
             x="0"
             id="use563"
             xlink:href="#DejaVuSans-32"
             transform="translate(954.20605,0.78125)" />
          <use
             height="100%"
             width="100%"
             y="0"
             x="0"
             id="use565"
             xlink:href="#DejaVuSans-2e"
             transform="translate(1017.8291,0.78125)" />
          <use
             height="100%"
             width="100%"
             y="0"
             x="0"
             id="use567"
             xlink:href="#DejaVuSans-30"
             transform="translate(1049.6162,0.78125)" />
          <use
             height="100%"
             width="100%"
             y="0"
             x="0"
             id="use569"
             xlink:href="#DejaVuSans-36"
             transform="translate(1113.2393,0.78125)" />
          <use
             height="100%"
             width="100%"
             y="0"
             x="0"
             id="use571"
             xlink:href="#DejaVuSans-41"
             transform="translate(1176.8623,0.78125)" />
        </g>
      </g>
      <g
         id="patch_10">
        <path
           id="path576"
           style="fill:none;stroke:#000000;stroke-linecap:round"
           d="M 390.90218,101.12651 Q 271.75442,75.880267 153.7004,50.865774" />
        <path
           id="path578"
           style="fill:none;stroke:#000000;stroke-linecap:round"
           d="m 157.19895,53.651486 -3.49855,-2.785712 4.3277,-1.127408" />
      </g>
      <g
         id="text_19">
        <!-- $U_0$ = 0.9V, $I_{max}$ = 20.13A -->
        <g
           id="g629"
           transform="matrix(0.1,0,0,-0.1,362.83636,111.13978)">
          <use
             height="100%"
             width="100%"
             y="0"
             x="0"
             id="use581"
             xlink:href="#DejaVuSans-Oblique-55"
             transform="translate(0,0.78125)" />
          <use
             height="100%"
             width="100%"
             y="0"
             x="0"
             id="use583"
             xlink:href="#DejaVuSans-30"
             transform="matrix(0.7,0,0,0.7,73.193359,-15.625)" />
          <use
             height="100%"
             width="100%"
             y="0"
             x="0"
             id="use585"
             xlink:href="#DejaVuSans-20"
             transform="translate(120.46387,0.78125)" />
          <use
             height="100%"
             width="100%"
             y="0"
             x="0"
             id="use587"
             xlink:href="#DejaVuSans-3d"
             transform="translate(152.25098,0.78125)" />
          <use
             height="100%"
             width="100%"
             y="0"
             x="0"
             id="use589"
             xlink:href="#DejaVuSans-20"
             transform="translate(236.04004,0.78125)" />
          <use
             height="100%"
             width="100%"
             y="0"
             x="0"
             id="use591"
             xlink:href="#DejaVuSans-30"
             transform="translate(267.82715,0.78125)" />
          <use
             height="100%"
             width="100%"
             y="0"
             x="0"
             id="use593"
             xlink:href="#DejaVuSans-2e"
             transform="translate(331.45019,0.78125)" />
          <use
             height="100%"
             width="100%"
             y="0"
             x="0"
             id="use595"
             xlink:href="#DejaVuSans-39"
             transform="translate(363.2373,0.78125)" />
          <use
             height="100%"
             width="100%"
             y="0"
             x="0"
             id="use597"
             xlink:href="#DejaVuSans-56"
             transform="translate(426.86035,0.78125)" />
          <use
             height="100%"
             width="100%"
             y="0"
             x="0"
             id="use599"
             xlink:href="#DejaVuSans-2c"
             transform="translate(495.26855,0.78125)" />
          <use
             height="100%"
             width="100%"
             y="0"
             x="0"
             id="use601"
             xlink:href="#DejaVuSans-20"
             transform="translate(527.05566,0.78125)" />
          <use
             height="100%"
             width="100%"
             y="0"
             x="0"
             id="use603"
             xlink:href="#DejaVuSans-Oblique-49"
             transform="translate(558.84277,0.78125)" />
          <use
             height="100%"
             width="100%"
             y="0"
             x="0"
             id="use605"
             xlink:href="#DejaVuSans-Oblique-6d"
             transform="matrix(0.7,0,0,0.7,588.33496,-15.625)" />
          <use
             height="100%"
             width="100%"
             y="0"
             x="0"
             id="use607"
             xlink:href="#DejaVuSans-Oblique-61"
             transform="matrix(0.7,0,0,0.7,656.52344,-15.625)" />
          <use
             height="100%"
             width="100%"
             y="0"
             x="0"
             id="use609"
             xlink:href="#DejaVuSans-Oblique-78"
             transform="matrix(0.7,0,0,0.7,699.41894,-15.625)" />
          <use
             height="100%"
             width="100%"
             y="0"
             x="0"
             id="use611"
             xlink:href="#DejaVuSans-20"
             transform="translate(743.5791,0.78125)" />
          <use
             height="100%"
             width="100%"
             y="0"
             x="0"
             id="use613"
             xlink:href="#DejaVuSans-3d"
             transform="translate(775.36621,0.78125)" />
          <use
             height="100%"
             width="100%"
             y="0"
             x="0"
             id="use615"
             xlink:href="#DejaVuSans-20"
             transform="translate(859.15527,0.78125)" />
          <use
             height="100%"
             width="100%"
             y="0"
             x="0"
             id="use617"
             xlink:href="#DejaVuSans-32"
             transform="translate(890.94238,0.78125)" />
          <use
             height="100%"
             width="100%"
             y="0"
             x="0"
             id="use619"
             xlink:href="#DejaVuSans-30"
             transform="translate(954.56543,0.78125)" />
          <use
             height="100%"
             width="100%"
             y="0"
             x="0"
             id="use621"
             xlink:href="#DejaVuSans-2e"
             transform="translate(1018.1885,0.78125)" />
          <use
             height="100%"
             width="100%"
             y="0"
             x="0"
             id="use623"
             xlink:href="#DejaVuSans-31"
             transform="translate(1049.9756,0.78125)" />
          <use
             height="100%"
             width="100%"
             y="0"
             x="0"
             id="use625"
             xlink:href="#DejaVuSans-33"
             transform="translate(1113.5986,0.78125)" />
          <use
             height="100%"
             width="100%"
             y="0"
             x="0"
             id="use627"
             xlink:href="#DejaVuSans-41"
             transform="translate(1177.2217,0.78125)" />
        </g>
      </g>
      <g
         id="text_20">
        <!-- Transient Simulation for the First Geometry -->
        <defs
           id="defs640">
          <path
             id="DejaVuSans-53"
             d="m 53.515625,70.515625 v -9.625 q -5.609375,2.6875 -10.59375,4 -4.984375,1.328125 -9.625,1.328125 -8.046875,0 -12.421875,-3.125 -4.375,-3.125 -4.375,-8.890625 0,-4.84375 2.90625,-7.3125 2.90625,-2.453125 11.015625,-3.96875 L 36.375,41.703125 Q 47.40625,39.59375 52.65625,34.296875 57.90625,29 57.90625,20.125 q 0,-10.609375 -7.109375,-16.078125 -7.09375,-5.46875 -20.8125,-5.46875 -5.171875,0 -11.015625,1.171875 Q 13.140625,0.921875 6.890625,3.21875 V 13.375 q 6,-3.359375 11.765625,-5.078125 5.765625,-1.703125 11.328125,-1.703125 8.4375,0 13.03125,3.3125 4.59375,3.328125 4.59375,9.484375 0,5.359375 -3.296875,8.390625 Q 41.015625,30.8125 33.5,32.328125 L 27.484375,33.5 q -11.03125,2.1875 -15.96875,6.875 -4.921875,4.6875 -4.921875,13.046875 0,9.671875 6.8125,15.234375 6.8125,5.5625 18.765625,5.5625 5.140625,0 10.453125,-0.9375 5.328125,-0.921875 10.890625,-2.765625 z" />
          <path
             id="DejaVuSans-6c"
             d="M 9.421875,75.984375 H 18.40625 V 0 H 9.421875 Z" />
          <path
             id="DejaVuSans-6f"
             d="m 30.609375,48.390625 q -7.21875,0 -11.421875,-5.640625 -4.203125,-5.640625 -4.203125,-15.453125 0,-9.8125 4.171875,-15.453125 4.1875,-5.640625 11.453125,-5.640625 7.1875,0 11.375,5.65625 4.203125,5.671875 4.203125,15.4375 0,9.71875 -4.203125,15.40625 -4.1875,5.6875 -11.375,5.6875 z m 0,7.609375 q 11.71875,0 18.40625,-7.625 6.703125,-7.609375 6.703125,-21.078125 0,-13.421875 -6.703125,-21.078125 -6.6875,-7.640625 -18.40625,-7.640625 -11.765625,0 -18.4375,7.640625 -6.65625,7.65625 -6.65625,21.078125 0,13.46875 6.65625,21.078125 Q 18.84375,56 30.609375,56 Z" />
          <path
             id="DejaVuSans-66"
             d="M 37.109375,75.984375 V 68.5 h -8.59375 q -4.828125,0 -6.71875,-1.953125 -1.875,-1.953125 -1.875,-7.03125 V 54.6875 H 34.71875 V 47.703125 H 19.921875 V 0 h -9.03125 V 47.703125 H 2.296875 V 54.6875 h 8.59375 V 58.5 q 0,9.125 4.25,13.296875 4.25,4.1875 13.46875,4.1875 z" />
          <path
             id="DejaVuSans-68"
             d="M 54.890625,33.015625 V 0 H 45.90625 v 32.71875 q 0,7.765625 -3.03125,11.609375 -3.03125,3.859375 -9.078125,3.859375 -7.28125,0 -11.484375,-4.640625 -4.203125,-4.625 -4.203125,-12.640625 V 0 h -9.03125 v 75.984375 h 9.03125 V 46.1875 q 3.234375,4.9375 7.59375,7.375 4.375,2.4375 10.09375,2.4375 9.421875,0 14.25,-5.828125 4.84375,-5.828125 4.84375,-17.15625 z" />
          <path
             id="DejaVuSans-46"
             d="m 9.8125,72.90625 h 41.890625 v -8.3125 H 19.671875 V 43.109375 h 28.90625 V 34.8125 H 19.671875 V 0 H 9.8125 Z" />
          <path
             id="DejaVuSans-47"
             d="M 59.515625,10.40625 V 29.984375 H 43.40625 v 8.109375 h 25.875 V 6.78125 Q 63.578125,2.734375 56.6875,0.65625 49.8125,-1.421875 42,-1.421875 q -17.09375,0 -26.75,9.984375 -9.640625,10 -9.640625,27.8125 0,17.875 9.640625,27.859375 9.65625,9.984375 26.75,9.984375 7.125,0 13.546875,-1.765625 6.421875,-1.75 11.84375,-5.171875 v -10.5 q -5.46875,4.640625 -11.625,6.984375 -6.15625,2.34375 -12.9375,2.34375 -13.390625,0 -20.109375,-7.46875 -6.703125,-7.46875 -6.703125,-22.265625 0,-14.75 6.703125,-22.21875 6.71875,-7.46875 20.109375,-7.46875 5.21875,0 9.3125,0.90625 4.109375,0.90625 7.375,2.8125 z" />
          <path
             id="DejaVuSans-79"
             d="M 32.171875,-5.078125 Q 28.375,-14.84375 24.75,-17.8125 q -3.609375,-2.984375 -9.65625,-2.984375 h -7.1875 v 7.515625 h 5.28125 q 3.703125,0 5.75,1.765625 2.0625,1.75 4.546875,8.296875 L 25.09375,0.875 2.984375,54.6875 H 12.5 L 29.59375,11.921875 46.6875,54.6875 h 9.515625 z" />
        </defs>
        <g
           id="g728"
           transform="matrix(0.12,0,0,-0.12,164.39906,32.88)">
          <use
             height="100%"
             width="100%"
             y="0"
             x="0"
             id="use642"
             xlink:href="#DejaVuSans-54" />
          <use
             height="100%"
             width="100%"
             y="0"
             id="use644"
             xlink:href="#DejaVuSans-72"
             x="60.865234" />
          <use
             height="100%"
             width="100%"
             y="0"
             id="use646"
             xlink:href="#DejaVuSans-61"
             x="101.97852" />
          <use
             height="100%"
             width="100%"
             y="0"
             id="use648"
             xlink:href="#DejaVuSans-6e"
             x="163.25781" />
          <use
             height="100%"
             width="100%"
             y="0"
             id="use650"
             xlink:href="#DejaVuSans-73"
             x="226.63672" />
          <use
             height="100%"
             width="100%"
             y="0"
             id="use652"
             xlink:href="#DejaVuSans-69"
             x="278.73633" />
          <use
             height="100%"
             width="100%"
             y="0"
             id="use654"
             xlink:href="#DejaVuSans-65"
             x="306.51953" />
          <use
             height="100%"
             width="100%"
             y="0"
             id="use656"
             xlink:href="#DejaVuSans-6e"
             x="368.04297" />
          <use
             height="100%"
             width="100%"
             y="0"
             id="use658"
             xlink:href="#DejaVuSans-74"
             x="431.42188" />
          <use
             height="100%"
             width="100%"
             y="0"
             id="use660"
             xlink:href="#DejaVuSans-20"
             x="470.63086" />
          <use
             height="100%"
             width="100%"
             y="0"
             id="use662"
             xlink:href="#DejaVuSans-53"
             x="502.41797" />
          <use
             height="100%"
             width="100%"
             y="0"
             id="use664"
             xlink:href="#DejaVuSans-69"
             x="565.89453" />
          <use
             height="100%"
             width="100%"
             y="0"
             id="use666"
             xlink:href="#DejaVuSans-6d"
             x="593.67773" />
          <use
             height="100%"
             width="100%"
             y="0"
             id="use668"
             xlink:href="#DejaVuSans-75"
             x="691.08984" />
          <use
             height="100%"
             width="100%"
             y="0"
             id="use670"
             xlink:href="#DejaVuSans-6c"
             x="754.46875" />
          <use
             height="100%"
             width="100%"
             y="0"
             id="use672"
             xlink:href="#DejaVuSans-61"
             x="782.25195" />
          <use
             height="100%"
             width="100%"
             y="0"
             id="use674"
             xlink:href="#DejaVuSans-74"
             x="843.53125" />
          <use
             height="100%"
             width="100%"
             y="0"
             id="use676"
             xlink:href="#DejaVuSans-69"
             x="882.74023" />
          <use
             height="100%"
             width="100%"
             y="0"
             id="use678"
             xlink:href="#DejaVuSans-6f"
             x="910.52344" />
          <use
             height="100%"
             width="100%"
             y="0"
             id="use680"
             xlink:href="#DejaVuSans-6e"
             x="971.70508" />
          <use
             height="100%"
             width="100%"
             y="0"
             id="use682"
             xlink:href="#DejaVuSans-20"
             x="1035.084" />
          <use
             height="100%"
             width="100%"
             y="0"
             id="use684"
             xlink:href="#DejaVuSans-66"
             x="1066.8711" />
          <use
             height="100%"
             width="100%"
             y="0"
             id="use686"
             xlink:href="#DejaVuSans-6f"
             x="1102.0762" />
          <use
             height="100%"
             width="100%"
             y="0"
             id="use688"
             xlink:href="#DejaVuSans-72"
             x="1163.2578" />
          <use
             height="100%"
             width="100%"
             y="0"
             id="use690"
             xlink:href="#DejaVuSans-20"
             x="1204.3711" />
          <use
             height="100%"
             width="100%"
             y="0"
             id="use692"
             xlink:href="#DejaVuSans-74"
             x="1236.1582" />
          <use
             height="100%"
             width="100%"
             y="0"
             id="use694"
             xlink:href="#DejaVuSans-68"
             x="1275.3672" />
          <use
             height="100%"
             width="100%"
             y="0"
             id="use696"
             xlink:href="#DejaVuSans-65"
             x="1338.7461" />
          <use
             height="100%"
             width="100%"
             y="0"
             id="use698"
             xlink:href="#DejaVuSans-20"
             x="1400.2695" />
          <use
             height="100%"
             width="100%"
             y="0"
             id="use700"
             xlink:href="#DejaVuSans-46"
             x="1432.0566" />
          <use
             height="100%"
             width="100%"
             y="0"
             id="use702"
             xlink:href="#DejaVuSans-69"
             x="1489.4668" />
          <use
             height="100%"
             width="100%"
             y="0"
             id="use704"
             xlink:href="#DejaVuSans-72"
             x="1517.25" />
          <use
             height="100%"
             width="100%"
             y="0"
             id="use706"
             xlink:href="#DejaVuSans-73"
             x="1558.3633" />
          <use
             height="100%"
             width="100%"
             y="0"
             id="use708"
             xlink:href="#DejaVuSans-74"
             x="1610.4629" />
          <use
             height="100%"
             width="100%"
             y="0"
             id="use710"
             xlink:href="#DejaVuSans-20"
             x="1649.6719" />
          <use
             height="100%"
             width="100%"
             y="0"
             id="use712"
             xlink:href="#DejaVuSans-47"
             x="1681.459" />
          <use
             height="100%"
             width="100%"
             y="0"
             id="use714"
             xlink:href="#DejaVuSans-65"
             x="1758.9492" />
          <use
             height="100%"
             width="100%"
             y="0"
             id="use716"
             xlink:href="#DejaVuSans-6f"
             x="1820.4727" />
          <use
             height="100%"
             width="100%"
             y="0"
             id="use718"
             xlink:href="#DejaVuSans-6d"
             x="1881.6543" />
          <use
             height="100%"
             width="100%"
             y="0"
             id="use720"
             xlink:href="#DejaVuSans-65"
             x="1979.0664" />
          <use
             height="100%"
             width="100%"
             y="0"
             id="use722"
             xlink:href="#DejaVuSans-74"
             x="2040.5898" />
          <use
             height="100%"
             width="100%"
             y="0"
             id="use724"
             xlink:href="#DejaVuSans-72"
             x="2079.7988" />
          <use
             height="100%"
             width="100%"
             y="0"
             id="use726"
             xlink:href="#DejaVuSans-79"
             x="2120.9121" />
        </g>
      </g>
    </g>
  </g>
  <defs
     id="defs736">
    <clipPath
       id="pa66272d1e9">
      <rect
         id="rect733"
         y="38.880001"
         x="72"
         width="446.39999"
         height="249.48" />
    </clipPath>
  </defs>
</svg>
