\relax 
\providecommand\hyper@newdestlabel[2]{}
\@writefile{toc}{\defcounter {refsection}{0}\relax }\@writefile{toc}{\contentsline {section}{\numberline {5}Coupled Problem}{11}{section.5}}
\@writefile{lof}{\defcounter {refsection}{0}\relax }\@writefile{lof}{\contentsline {figure}{\numberline {5.1}{\ignorespaces Plot of the simulated temperature $T$ for the third geometry with $U\@uscore .0=25V$ and $T\@uscore .{end}=3s$.\relax }}{11}{figure.caption.11}}
\newlabel{fig:coupledT}{{5.1}{11}{Plot of the simulated temperature $T$ for the third geometry with $U_0=25V$ and $T_{end}=3s$.\relax }{figure.caption.11}{}}
\newlabel{fig:coupledT@cref}{{[figure][1][5]5.1}{[1][11][]11}}
\@writefile{lof}{\defcounter {refsection}{0}\relax }\@writefile{lof}{\contentsline {figure}{\numberline {5.2}{\ignorespaces Plot of the simulated electric conductivity $\sigma $ for the third geometry with $U\@uscore .0=25V$ and $T\@uscore .{end}=3s$.\relax }}{11}{figure.caption.12}}
\newlabel{fig:coupledSigma}{{5.2}{11}{Plot of the simulated electric conductivity $\sigma $ for the third geometry with $U_0=25V$ and $T_{end}=3s$.\relax }{figure.caption.12}{}}
\newlabel{fig:coupledSigma@cref}{{[figure][2][5]5.2}{[1][11][]11}}
\@writefile{lof}{\defcounter {refsection}{0}\relax }\@writefile{lof}{\contentsline {figure}{\numberline {5.3}{\ignorespaces Plot of the simulated thermal conductivity $\lambda $ for the third geometry with $U\@uscore .0=25V$ and $T\@uscore .{end}=3s$.\relax }}{12}{figure.caption.13}}
\newlabel{fig:coupledLambda}{{5.3}{12}{Plot of the simulated thermal conductivity $\lambda $ for the third geometry with $U_0=25V$ and $T_{end}=3s$.\relax }{figure.caption.13}{}}
\newlabel{fig:coupledLambda@cref}{{[figure][3][5]5.3}{[1][11][]12}}
\@setckpt{sections/coupledProblem}{
\setcounter{page}{13}
\setcounter{equation}{0}
\setcounter{enumi}{0}
\setcounter{enumii}{0}
\setcounter{enumiii}{0}
\setcounter{enumiv}{0}
\setcounter{footnote}{0}
\setcounter{mpfootnote}{0}
\setcounter{part}{0}
\setcounter{section}{5}
\setcounter{subsection}{0}
\setcounter{subsubsection}{0}
\setcounter{paragraph}{0}
\setcounter{subparagraph}{0}
\setcounter{figure}{3}
\setcounter{table}{2}
\setcounter{parentequation}{0}
\setcounter{float@type}{8}
\setcounter{Item}{0}
\setcounter{Hfootnote}{0}
\setcounter{bookmark@seq@number}{16}
\setcounter{su@anzahl}{0}
\setcounter{LT@tables}{0}
\setcounter{LT@chunks}{0}
\setcounter{tabx@nest}{0}
\setcounter{listtotal}{0}
\setcounter{listcount}{0}
\setcounter{liststart}{0}
\setcounter{liststop}{0}
\setcounter{citecount}{0}
\setcounter{citetotal}{0}
\setcounter{multicitecount}{0}
\setcounter{multicitetotal}{0}
\setcounter{instcount}{10}
\setcounter{maxnames}{3}
\setcounter{minnames}{1}
\setcounter{maxitems}{3}
\setcounter{minitems}{1}
\setcounter{citecounter}{0}
\setcounter{savedcitecounter}{0}
\setcounter{uniquelist}{0}
\setcounter{uniquename}{0}
\setcounter{refsection}{0}
\setcounter{refsegment}{0}
\setcounter{maxextratitle}{0}
\setcounter{maxextratitleyear}{0}
\setcounter{maxextradate}{0}
\setcounter{maxextraalpha}{0}
\setcounter{abbrvpenalty}{50}
\setcounter{highnamepenalty}{50}
\setcounter{lownamepenalty}{25}
\setcounter{maxparens}{3}
\setcounter{parenlevel}{0}
\setcounter{mincomprange}{10}
\setcounter{maxcomprange}{100000}
\setcounter{mincompwidth}{1}
\setcounter{afterword}{0}
\setcounter{savedafterword}{0}
\setcounter{annotator}{0}
\setcounter{savedannotator}{0}
\setcounter{author}{0}
\setcounter{savedauthor}{0}
\setcounter{bookauthor}{0}
\setcounter{savedbookauthor}{0}
\setcounter{commentator}{0}
\setcounter{savedcommentator}{0}
\setcounter{editor}{0}
\setcounter{savededitor}{0}
\setcounter{editora}{0}
\setcounter{savededitora}{0}
\setcounter{editorb}{0}
\setcounter{savededitorb}{0}
\setcounter{editorc}{0}
\setcounter{savededitorc}{0}
\setcounter{foreword}{0}
\setcounter{savedforeword}{0}
\setcounter{holder}{0}
\setcounter{savedholder}{0}
\setcounter{introduction}{0}
\setcounter{savedintroduction}{0}
\setcounter{namea}{0}
\setcounter{savednamea}{0}
\setcounter{nameb}{0}
\setcounter{savednameb}{0}
\setcounter{namec}{0}
\setcounter{savednamec}{0}
\setcounter{translator}{0}
\setcounter{savedtranslator}{0}
\setcounter{shortauthor}{0}
\setcounter{savedshortauthor}{0}
\setcounter{shorteditor}{0}
\setcounter{savedshorteditor}{0}
\setcounter{labelname}{0}
\setcounter{savedlabelname}{0}
\setcounter{institution}{0}
\setcounter{savedinstitution}{0}
\setcounter{lista}{0}
\setcounter{savedlista}{0}
\setcounter{listb}{0}
\setcounter{savedlistb}{0}
\setcounter{listc}{0}
\setcounter{savedlistc}{0}
\setcounter{listd}{0}
\setcounter{savedlistd}{0}
\setcounter{liste}{0}
\setcounter{savedliste}{0}
\setcounter{listf}{0}
\setcounter{savedlistf}{0}
\setcounter{location}{0}
\setcounter{savedlocation}{0}
\setcounter{organization}{0}
\setcounter{savedorganization}{0}
\setcounter{origlocation}{0}
\setcounter{savedoriglocation}{0}
\setcounter{origpublisher}{0}
\setcounter{savedorigpublisher}{0}
\setcounter{publisher}{0}
\setcounter{savedpublisher}{0}
\setcounter{language}{0}
\setcounter{savedlanguage}{0}
\setcounter{origlanguage}{0}
\setcounter{savedoriglanguage}{0}
\setcounter{pageref}{0}
\setcounter{savedpageref}{0}
\setcounter{textcitecount}{0}
\setcounter{textcitetotal}{0}
\setcounter{textcitemaxnames}{0}
\setcounter{biburlnumpenalty}{0}
\setcounter{biburlucpenalty}{0}
\setcounter{biburllcpenalty}{0}
\setcounter{smartand}{1}
\setcounter{bbx:relatedcount}{0}
\setcounter{bbx:relatedtotal}{0}
\setcounter{ContinuedFloat}{0}
\setcounter{subfigure}{0}
\setcounter{subtable}{0}
\setcounter{lips@count}{0}
\setcounter{lstnumber}{7}
\setcounter{@pps}{0}
\setcounter{@ppsavesec}{0}
\setcounter{@ppsaveapp}{0}
\setcounter{section@level}{1}
\setcounter{lstlisting}{0}
}
