\relax 
\providecommand\hyper@newdestlabel[2]{}
\@writefile{toc}{\defcounter {refsection}{0}\relax }\@writefile{toc}{\contentsline {section}{\numberline {5}Simulation Results}{14}{section.5}}
\@writefile{toc}{\defcounter {refsection}{0}\relax }\@writefile{toc}{\contentsline {subsection}{\numberline {5.1}Simulation of the Stationary Case}{14}{subsection.5.1}}
\@writefile{lot}{\defcounter {refsection}{0}\relax }\@writefile{lot}{\contentsline {table}{\numberline {3}{\ignorespaces Variation of the electric voltage $U\@uscore .0$ in the stationary case. The values \textit  {True} or \textit  {False} in the column \textit  {melted} prescribe if the fuse has been melted. The ratio in the brackets indicate the percentage of the volume in the diminution that has been melted.\relax }}{14}{table.caption.15}}
\newlabel{tab:simulationResultsStationary}{{3}{14}{Variation of the electric voltage $U_0$ in the stationary case. The values \textit {True} or \textit {False} in the column \textit {melted} prescribe if the fuse has been melted. The ratio in the brackets indicate the percentage of the volume in the diminution that has been melted.\relax }{table.caption.15}{}}
\newlabel{tab:simulationResultsStationary@cref}{{[table][3][]3}{[1][14][]14}}
\@writefile{lof}{\defcounter {refsection}{0}\relax }\@writefile{lof}{\contentsline {figure}{\numberline {5.1}{\ignorespaces Profile of the temperature $T$ along the $y=0$ and $z=0.009$ mm line for different voltages $U\@uscore .0$ and geometry 1 in the stationary case. \relax }}{15}{figure.caption.16}}
\newlabel{fig:profileStat1}{{5.1}{15}{Profile of the temperature $T$ along the $y=0$ and $z=0.009$ mm line for different voltages $U_0$ and geometry 1 in the stationary case. \relax }{figure.caption.16}{}}
\newlabel{fig:profileStat1@cref}{{[figure][1][5]5.1}{[1][14][]15}}
\@writefile{lof}{\defcounter {refsection}{0}\relax }\@writefile{lof}{\contentsline {figure}{\numberline {5.2}{\ignorespaces Profile of the temperature $T$ along the $y=0$ and $z=0.009$ mm line for different voltages $U\@uscore .0$ and geometry 2 in the stationary case. \relax }}{15}{figure.caption.17}}
\newlabel{fig:profileStat2}{{5.2}{15}{Profile of the temperature $T$ along the $y=0$ and $z=0.009$ mm line for different voltages $U_0$ and geometry 2 in the stationary case. \relax }{figure.caption.17}{}}
\newlabel{fig:profileStat2@cref}{{[figure][2][5]5.2}{[1][15][]15}}
\@writefile{lof}{\defcounter {refsection}{0}\relax }\@writefile{lof}{\contentsline {figure}{\numberline {5.3}{\ignorespaces Profile of the temperature $T$ along the $y=0$ and $z=0.009$ mm line for different voltages $U\@uscore .0$ and geometry 3 in the stationary case. \relax }}{16}{figure.caption.18}}
\newlabel{fig:profileStat3}{{5.3}{16}{Profile of the temperature $T$ along the $y=0$ and $z=0.009$ mm line for different voltages $U_0$ and geometry 3 in the stationary case. \relax }{figure.caption.18}{}}
\newlabel{fig:profileStat3@cref}{{[figure][3][5]5.3}{[1][15][]16}}
\@writefile{toc}{\defcounter {refsection}{0}\relax }\@writefile{toc}{\contentsline {subsection}{\numberline {5.2}Simulation of the Transient Case}{16}{subsection.5.2}}
\@writefile{lot}{\defcounter {refsection}{0}\relax }\@writefile{lot}{\contentsline {table}{\numberline {4}{\ignorespaces Variation of the electric voltage $U\@uscore .0$ for the transient problem. The values \textit  {True} or \textit  {False} in the column \textit  {melted} prescribe if the fuse has been melted. The duration value in the brackets indicate the time, when the fuse has been melted.\relax }}{17}{table.caption.19}}
\newlabel{tab:simulationResultsTransient}{{4}{17}{Variation of the electric voltage $U_0$ for the transient problem. The values \textit {True} or \textit {False} in the column \textit {melted} prescribe if the fuse has been melted. The duration value in the brackets indicate the time, when the fuse has been melted.\relax }{table.caption.19}{}}
\newlabel{tab:simulationResultsTransient@cref}{{[table][4][]4}{[1][16][]17}}
\@writefile{lof}{\defcounter {refsection}{0}\relax }\@writefile{lof}{\contentsline {figure}{\numberline {5.4}{\ignorespaces Transient progression of the temperature $T$ in the point $(x,y,z) = (0, 0, 0.009)$ mm different voltages $U\@uscore .0$ and geometry 1. \relax }}{17}{figure.caption.20}}
\newlabel{fig:profileTrans1}{{5.4}{17}{Transient progression of the temperature $T$ in the point $(x,y,z) = (0, 0, 0.009)$ mm different voltages $U_0$ and geometry 1. \relax }{figure.caption.20}{}}
\newlabel{fig:profileTrans1@cref}{{[figure][4][5]5.4}{[1][17][]17}}
\@writefile{lof}{\defcounter {refsection}{0}\relax }\@writefile{lof}{\contentsline {figure}{\numberline {5.5}{\ignorespaces Transient progression of the temperature $T$ in the point $(x,y,z) = (0, 0, 0.009)$ mm different voltages $U\@uscore .0$ and geometry 2. \relax }}{18}{figure.caption.21}}
\newlabel{fig:profileTrans2}{{5.5}{18}{Transient progression of the temperature $T$ in the point $(x,y,z) = (0, 0, 0.009)$ mm different voltages $U_0$ and geometry 2. \relax }{figure.caption.21}{}}
\newlabel{fig:profileTrans2@cref}{{[figure][5][5]5.5}{[1][17][]18}}
\@writefile{lof}{\defcounter {refsection}{0}\relax }\@writefile{lof}{\contentsline {figure}{\numberline {5.6}{\ignorespaces Transient progression of the temperature $T$ in the point $(x,y,z) = (0, 0, 0.009)$ mm different voltages $U\@uscore .0$ and geometry 3. \relax }}{18}{figure.caption.22}}
\newlabel{fig:profileTrans3}{{5.6}{18}{Transient progression of the temperature $T$ in the point $(x,y,z) = (0, 0, 0.009)$ mm different voltages $U_0$ and geometry 3. \relax }{figure.caption.22}{}}
\newlabel{fig:profileTrans3@cref}{{[figure][6][5]5.6}{[1][18][]18}}
\@setckpt{sections/simulationresults}{
\setcounter{page}{19}
\setcounter{equation}{0}
\setcounter{enumi}{0}
\setcounter{enumii}{0}
\setcounter{enumiii}{0}
\setcounter{enumiv}{0}
\setcounter{footnote}{0}
\setcounter{mpfootnote}{0}
\setcounter{part}{0}
\setcounter{section}{5}
\setcounter{subsection}{2}
\setcounter{subsubsection}{0}
\setcounter{paragraph}{0}
\setcounter{subparagraph}{0}
\setcounter{figure}{6}
\setcounter{table}{4}
\setcounter{parentequation}{0}
\setcounter{float@type}{8}
\setcounter{Item}{0}
\setcounter{Hfootnote}{0}
\setcounter{bookmark@seq@number}{18}
\setcounter{su@anzahl}{0}
\setcounter{LT@tables}{0}
\setcounter{LT@chunks}{0}
\setcounter{tabx@nest}{0}
\setcounter{listtotal}{0}
\setcounter{listcount}{0}
\setcounter{liststart}{0}
\setcounter{liststop}{0}
\setcounter{citecount}{0}
\setcounter{citetotal}{0}
\setcounter{multicitecount}{0}
\setcounter{multicitetotal}{0}
\setcounter{instcount}{8}
\setcounter{maxnames}{3}
\setcounter{minnames}{1}
\setcounter{maxitems}{3}
\setcounter{minitems}{1}
\setcounter{citecounter}{0}
\setcounter{savedcitecounter}{0}
\setcounter{uniquelist}{0}
\setcounter{uniquename}{0}
\setcounter{refsection}{0}
\setcounter{refsegment}{0}
\setcounter{maxextratitle}{0}
\setcounter{maxextratitleyear}{0}
\setcounter{maxextradate}{0}
\setcounter{maxextraalpha}{0}
\setcounter{abbrvpenalty}{50}
\setcounter{highnamepenalty}{50}
\setcounter{lownamepenalty}{25}
\setcounter{maxparens}{3}
\setcounter{parenlevel}{0}
\setcounter{mincomprange}{10}
\setcounter{maxcomprange}{100000}
\setcounter{mincompwidth}{1}
\setcounter{afterword}{0}
\setcounter{savedafterword}{0}
\setcounter{annotator}{0}
\setcounter{savedannotator}{0}
\setcounter{author}{0}
\setcounter{savedauthor}{0}
\setcounter{bookauthor}{0}
\setcounter{savedbookauthor}{0}
\setcounter{commentator}{0}
\setcounter{savedcommentator}{0}
\setcounter{editor}{0}
\setcounter{savededitor}{0}
\setcounter{editora}{0}
\setcounter{savededitora}{0}
\setcounter{editorb}{0}
\setcounter{savededitorb}{0}
\setcounter{editorc}{0}
\setcounter{savededitorc}{0}
\setcounter{foreword}{0}
\setcounter{savedforeword}{0}
\setcounter{holder}{0}
\setcounter{savedholder}{0}
\setcounter{introduction}{0}
\setcounter{savedintroduction}{0}
\setcounter{namea}{0}
\setcounter{savednamea}{0}
\setcounter{nameb}{0}
\setcounter{savednameb}{0}
\setcounter{namec}{0}
\setcounter{savednamec}{0}
\setcounter{translator}{0}
\setcounter{savedtranslator}{0}
\setcounter{shortauthor}{0}
\setcounter{savedshortauthor}{0}
\setcounter{shorteditor}{0}
\setcounter{savedshorteditor}{0}
\setcounter{labelname}{0}
\setcounter{savedlabelname}{0}
\setcounter{institution}{0}
\setcounter{savedinstitution}{0}
\setcounter{lista}{0}
\setcounter{savedlista}{0}
\setcounter{listb}{0}
\setcounter{savedlistb}{0}
\setcounter{listc}{0}
\setcounter{savedlistc}{0}
\setcounter{listd}{0}
\setcounter{savedlistd}{0}
\setcounter{liste}{0}
\setcounter{savedliste}{0}
\setcounter{listf}{0}
\setcounter{savedlistf}{0}
\setcounter{location}{0}
\setcounter{savedlocation}{0}
\setcounter{organization}{0}
\setcounter{savedorganization}{0}
\setcounter{origlocation}{0}
\setcounter{savedoriglocation}{0}
\setcounter{origpublisher}{0}
\setcounter{savedorigpublisher}{0}
\setcounter{publisher}{0}
\setcounter{savedpublisher}{0}
\setcounter{language}{0}
\setcounter{savedlanguage}{0}
\setcounter{origlanguage}{0}
\setcounter{savedoriglanguage}{0}
\setcounter{pageref}{0}
\setcounter{savedpageref}{0}
\setcounter{textcitecount}{0}
\setcounter{textcitetotal}{0}
\setcounter{textcitemaxnames}{0}
\setcounter{biburlnumpenalty}{0}
\setcounter{biburlucpenalty}{0}
\setcounter{biburllcpenalty}{0}
\setcounter{smartand}{1}
\setcounter{bbx:relatedcount}{0}
\setcounter{bbx:relatedtotal}{0}
\setcounter{ContinuedFloat}{0}
\setcounter{subfigure}{0}
\setcounter{subtable}{0}
\setcounter{lips@count}{0}
\setcounter{lstnumber}{6}
\setcounter{@pps}{0}
\setcounter{@ppsavesec}{0}
\setcounter{@ppsaveapp}{0}
\setcounter{section@level}{2}
\setcounter{lstlisting}{0}
}
