\relax 
\providecommand\hyper@newdestlabel[2]{}
\@writefile{toc}{\defcounter {refsection}{0}\relax }\@writefile{toc}{\contentsline {section}{\numberline {4}Mathematical Description}{5}{section.4}}
\@writefile{toc}{\defcounter {refsection}{0}\relax }\@writefile{toc}{\contentsline {subsection}{\numberline {4.1}Simulation of the Electric Field }{5}{subsection.4.1}}
\newlabel{eq:Maxwell1}{{4.1a}{5}{Simulation of the Electric Field}{equation.4.1a}{}}
\newlabel{eq:Maxwell1@cref}{{[subequation][1][4,1]4.1a}{[1][5][]5}}
\newlabel{eq:Maxwell2}{{4.1b}{5}{Simulation of the Electric Field}{equation.4.1b}{}}
\newlabel{eq:Maxwell2@cref}{{[subequation][2][4,1]4.1b}{[1][5][]5}}
\newlabel{eq:Neumann}{{4.4c}{5}{Simulation of the Electric Field}{equation.4.4c}{}}
\newlabel{eq:Neumann@cref}{{[subequation][3][4,4]4.4c}{[1][5][]5}}
\newlabel{eq:elLosses}{{4.6}{5}{Simulation of the Electric Field}{equation.4.6}{}}
\newlabel{eq:elLosses@cref}{{[equation][6][4]4.6}{[1][5][]5}}
\newlabel{eq:OhmLosses}{{4.7}{5}{Simulation of the Electric Field}{equation.4.7}{}}
\newlabel{eq:OhmLosses@cref}{{[equation][7][4]4.7}{[1][5][]5}}
\newlabel{eq:I}{{4.8}{5}{Simulation of the Electric Field}{equation.4.8}{}}
\newlabel{eq:I@cref}{{[equation][8][4]4.8}{[1][5][]5}}
\@writefile{toc}{\defcounter {refsection}{0}\relax }\@writefile{toc}{\contentsline {subsubsection}{\numberline {4.1.1}Weak Formulation}{6}{subsubsection.4.1.1}}
\@writefile{lof}{\defcounter {refsection}{0}\relax }\@writefile{lof}{\contentsline {figure}{\numberline {4.1}{\ignorespaces Vector plot with field lines of the simulated current density \textbf  {J} for the first geometry and $U\@uscore .0 = 125$ mV.\relax }}{7}{figure.caption.9}}
\newlabel{fig:ELJ1}{{4.1}{7}{Vector plot with field lines of the simulated current density \textbf {J} for the first geometry and $U_0 = 125$ mV.\relax }{figure.caption.9}{}}
\newlabel{fig:ELJ1@cref}{{[figure][1][4]4.1}{[1][6][]7}}
\@writefile{lof}{\defcounter {refsection}{0}\relax }\@writefile{lof}{\contentsline {figure}{\numberline {4.2}{\ignorespaces Vector plot with field lines of the simulated current density \textbf  {J} for the second geometry and $U\@uscore .0 = 125$ mV..\relax }}{7}{figure.caption.10}}
\newlabel{fig:ELJ2}{{4.2}{7}{Vector plot with field lines of the simulated current density \textbf {J} for the second geometry and $U_0 = 125$ mV..\relax }{figure.caption.10}{}}
\newlabel{fig:ELJ2@cref}{{[figure][2][4]4.2}{[1][6][]7}}
\@writefile{lof}{\defcounter {refsection}{0}\relax }\@writefile{lof}{\contentsline {figure}{\numberline {4.3}{\ignorespaces Vector plot with field lines of the simulated current density \textbf  {J} for the third geometry and $U\@uscore .0 = 125$ mV.\relax }}{8}{figure.caption.11}}
\newlabel{fig:ELJ3}{{4.3}{8}{Vector plot with field lines of the simulated current density \textbf {J} for the third geometry and $U_0 = 125$ mV.\relax }{figure.caption.11}{}}
\newlabel{fig:ELJ3@cref}{{[figure][3][4]4.3}{[1][7][]8}}
\@writefile{toc}{\defcounter {refsection}{0}\relax }\@writefile{toc}{\contentsline {subsection}{\numberline {4.2}Simulation of the Thermal Field}{8}{subsection.4.2}}
\newlabel{eq:TherBV1}{{4.14a}{8}{Simulation of the Thermal Field}{equation.4.14a}{}}
\newlabel{eq:TherBV1@cref}{{[subequation][1][4,14]4.14a}{[1][8][]8}}
\newlabel{eq:TherBV2}{{4.14b}{8}{Simulation of the Thermal Field}{equation.4.14b}{}}
\newlabel{eq:TherBV2@cref}{{[subequation][2][4,14]4.14b}{[1][8][]8}}
\@writefile{toc}{\defcounter {refsection}{0}\relax }\@writefile{toc}{\contentsline {subsubsection}{\numberline {4.2.1}Weak Formulation}{8}{subsubsection.4.2.1}}
\newlabel{sub:ThermalWeak}{{4.2.1}{8}{Weak Formulation}{subsubsection.4.2.1}{}}
\newlabel{sub:ThermalWeak@cref}{{[subsubsection][1][4,2]4.2.1}{[1][8][]8}}
\@writefile{toc}{\defcounter {refsection}{0}\relax }\@writefile{toc}{\contentsline {subsection}{\numberline {4.3}Coupled Problem}{9}{subsection.4.3}}
\newlabel{eq:BVPCoupled}{{4.21}{9}{Coupled Problem}{equation.4.21}{}}
\newlabel{eq:BVPCoupled@cref}{{[subequation][21][4]4.21}{[1][9][]9}}
\@writefile{lof}{\defcounter {refsection}{0}\relax }\@writefile{lof}{\contentsline {figure}{\numberline {4.4}{\ignorespaces Plot of the simulated temperature $T$ for the third geometry with $U\@uscore .0=225mV$ and after $T\@uscore .{end}=3s$, which indicates the stationary case.\relax }}{10}{figure.caption.12}}
\newlabel{fig:coupledT}{{4.4}{10}{Plot of the simulated temperature $T$ for the third geometry with $U_0=225mV$ and after $T_{end}=3s$, which indicates the stationary case.\relax }{figure.caption.12}{}}
\newlabel{fig:coupledT@cref}{{[figure][4][4]4.4}{[1][10][]10}}
\@writefile{lof}{\defcounter {refsection}{0}\relax }\@writefile{lof}{\contentsline {figure}{\numberline {4.5}{\ignorespaces Transient analysis of the temperature $T$ in the point $(x,y,z)=(0,0,0.009)$ mm and the current $I$ through the fuse. The set voltage is $U\@uscore .0=225mV$, the final time is $T\@uscore .{end}=3s$ and the third geometry is used.\relax }}{10}{figure.caption.13}}
\newlabel{fig:coupledTransient}{{4.5}{10}{Transient analysis of the temperature $T$ in the point $(x,y,z)=(0,0,0.009)$ mm and the current $I$ through the fuse. The set voltage is $U_0=225mV$, the final time is $T_{end}=3s$ and the third geometry is used.\relax }{figure.caption.13}{}}
\newlabel{fig:coupledTransient@cref}{{[figure][5][4]4.5}{[1][10][]10}}
\@writefile{toc}{\defcounter {refsection}{0}\relax }\@writefile{toc}{\contentsline {subsection}{\numberline {4.4}The Melting Process}{10}{subsection.4.4}}
\@writefile{toc}{\defcounter {refsection}{0}\relax }\@writefile{toc}{\contentsline {subsection}{\numberline {4.5}Solving the Non-Linearity}{11}{subsection.4.5}}
\newlabel{eq:BVPCoupledFP}{{4.26}{11}{Solving the Non-Linearity}{equation.4.26}{}}
\newlabel{eq:BVPCoupledFP@cref}{{[subequation][26][4]4.26}{[1][11][]11}}
\@writefile{toc}{\defcounter {refsection}{0}\relax }\@writefile{toc}{\contentsline {subsection}{\numberline {4.6}Solving the Time-Derivation}{12}{subsection.4.6}}
\newlabel{eq:TherFEMDiff}{{4.27}{12}{Solving the Time-Derivation}{equation.4.27}{}}
\newlabel{eq:TherFEMDiff@cref}{{[equation][27][4]4.27}{[1][12][]12}}
\@writefile{toc}{\defcounter {refsection}{0}\relax }\@writefile{toc}{\contentsline {subsection}{\numberline {4.7}Solving the Stationary Equation}{12}{subsection.4.7}}
\newlabel{eq:BVPCoupledFPstationary}{{4.35}{13}{Solving the Stationary Equation}{equation.4.35}{}}
\newlabel{eq:BVPCoupledFPstationary@cref}{{[subequation][35][4]4.35}{[1][12][]13}}
\@writefile{lof}{\defcounter {refsection}{0}\relax }\@writefile{lof}{\contentsline {figure}{\numberline {4.6}{\ignorespaces Plot of the simulated temperature $T$ in the stationary case in the $y=0$ plane. The voltage is set to $U\@uscore .0 = 225$ mV and the third geometry is used.\relax }}{13}{figure.caption.14}}
\newlabel{fig:ThTstaionary}{{4.6}{13}{Plot of the simulated temperature $T$ in the stationary case in the $y=0$ plane. The voltage is set to $U_0 = 225$ mV and the third geometry is used.\relax }{figure.caption.14}{}}
\newlabel{fig:ThTstaionary@cref}{{[figure][6][4]4.6}{[1][13][]13}}
\@setckpt{sections/theoreticalBackground}{
\setcounter{page}{14}
\setcounter{equation}{36}
\setcounter{enumi}{0}
\setcounter{enumii}{0}
\setcounter{enumiii}{0}
\setcounter{enumiv}{0}
\setcounter{footnote}{0}
\setcounter{mpfootnote}{0}
\setcounter{part}{0}
\setcounter{section}{4}
\setcounter{subsection}{7}
\setcounter{subsubsection}{0}
\setcounter{paragraph}{0}
\setcounter{subparagraph}{0}
\setcounter{figure}{6}
\setcounter{table}{2}
\setcounter{parentequation}{0}
\setcounter{float@type}{8}
\setcounter{Item}{0}
\setcounter{Hfootnote}{0}
\setcounter{bookmark@seq@number}{15}
\setcounter{su@anzahl}{0}
\setcounter{LT@tables}{0}
\setcounter{LT@chunks}{0}
\setcounter{tabx@nest}{0}
\setcounter{listtotal}{0}
\setcounter{listcount}{0}
\setcounter{liststart}{0}
\setcounter{liststop}{0}
\setcounter{citecount}{0}
\setcounter{citetotal}{0}
\setcounter{multicitecount}{0}
\setcounter{multicitetotal}{0}
\setcounter{instcount}{8}
\setcounter{maxnames}{3}
\setcounter{minnames}{1}
\setcounter{maxitems}{3}
\setcounter{minitems}{1}
\setcounter{citecounter}{0}
\setcounter{savedcitecounter}{0}
\setcounter{uniquelist}{0}
\setcounter{uniquename}{0}
\setcounter{refsection}{0}
\setcounter{refsegment}{0}
\setcounter{maxextratitle}{0}
\setcounter{maxextratitleyear}{0}
\setcounter{maxextradate}{0}
\setcounter{maxextraalpha}{0}
\setcounter{abbrvpenalty}{50}
\setcounter{highnamepenalty}{50}
\setcounter{lownamepenalty}{25}
\setcounter{maxparens}{3}
\setcounter{parenlevel}{0}
\setcounter{mincomprange}{10}
\setcounter{maxcomprange}{100000}
\setcounter{mincompwidth}{1}
\setcounter{afterword}{0}
\setcounter{savedafterword}{0}
\setcounter{annotator}{0}
\setcounter{savedannotator}{0}
\setcounter{author}{0}
\setcounter{savedauthor}{0}
\setcounter{bookauthor}{0}
\setcounter{savedbookauthor}{0}
\setcounter{commentator}{0}
\setcounter{savedcommentator}{0}
\setcounter{editor}{0}
\setcounter{savededitor}{0}
\setcounter{editora}{0}
\setcounter{savededitora}{0}
\setcounter{editorb}{0}
\setcounter{savededitorb}{0}
\setcounter{editorc}{0}
\setcounter{savededitorc}{0}
\setcounter{foreword}{0}
\setcounter{savedforeword}{0}
\setcounter{holder}{0}
\setcounter{savedholder}{0}
\setcounter{introduction}{0}
\setcounter{savedintroduction}{0}
\setcounter{namea}{0}
\setcounter{savednamea}{0}
\setcounter{nameb}{0}
\setcounter{savednameb}{0}
\setcounter{namec}{0}
\setcounter{savednamec}{0}
\setcounter{translator}{0}
\setcounter{savedtranslator}{0}
\setcounter{shortauthor}{0}
\setcounter{savedshortauthor}{0}
\setcounter{shorteditor}{0}
\setcounter{savedshorteditor}{0}
\setcounter{labelname}{0}
\setcounter{savedlabelname}{0}
\setcounter{institution}{0}
\setcounter{savedinstitution}{0}
\setcounter{lista}{0}
\setcounter{savedlista}{0}
\setcounter{listb}{0}
\setcounter{savedlistb}{0}
\setcounter{listc}{0}
\setcounter{savedlistc}{0}
\setcounter{listd}{0}
\setcounter{savedlistd}{0}
\setcounter{liste}{0}
\setcounter{savedliste}{0}
\setcounter{listf}{0}
\setcounter{savedlistf}{0}
\setcounter{location}{0}
\setcounter{savedlocation}{0}
\setcounter{organization}{0}
\setcounter{savedorganization}{0}
\setcounter{origlocation}{0}
\setcounter{savedoriglocation}{0}
\setcounter{origpublisher}{0}
\setcounter{savedorigpublisher}{0}
\setcounter{publisher}{0}
\setcounter{savedpublisher}{0}
\setcounter{language}{0}
\setcounter{savedlanguage}{0}
\setcounter{origlanguage}{0}
\setcounter{savedoriglanguage}{0}
\setcounter{pageref}{0}
\setcounter{savedpageref}{0}
\setcounter{textcitecount}{0}
\setcounter{textcitetotal}{0}
\setcounter{textcitemaxnames}{0}
\setcounter{biburlnumpenalty}{0}
\setcounter{biburlucpenalty}{0}
\setcounter{biburllcpenalty}{0}
\setcounter{smartand}{1}
\setcounter{bbx:relatedcount}{0}
\setcounter{bbx:relatedtotal}{0}
\setcounter{ContinuedFloat}{0}
\setcounter{subfigure}{0}
\setcounter{subtable}{0}
\setcounter{lips@count}{0}
\setcounter{lstnumber}{6}
\setcounter{@pps}{0}
\setcounter{@ppsavesec}{0}
\setcounter{@ppsaveapp}{0}
\setcounter{section@level}{2}
\setcounter{lstlisting}{0}
}
