\relax 
\providecommand\hyper@newdestlabel[2]{}
\providecommand\HyperFirstAtBeginDocument{\AtBeginDocument}
\HyperFirstAtBeginDocument{\ifx\hyper@anchor\@undefined
\global\let\oldcontentsline\contentsline
\gdef\contentsline#1#2#3#4{\oldcontentsline{#1}{#2}{#3}}
\global\let\oldnewlabel\newlabel
\gdef\newlabel#1#2{\newlabelxx{#1}#2}
\gdef\newlabelxx#1#2#3#4#5#6{\oldnewlabel{#1}{{#2}{#3}}}
\AtEndDocument{\ifx\hyper@anchor\@undefined
\let\contentsline\oldcontentsline
\let\newlabel\oldnewlabel
\fi}
\fi}
\global\let\hyper@last\relax 
\gdef\HyperFirstAtBeginDocument#1{#1}
\providecommand\HyField@AuxAddToFields[1]{}
\providecommand\HyField@AuxAddToCoFields[2]{}
\catcode `"\active 
\babel@aux{ngerman}{}
\@writefile{nav}{\headcommand {\slideentry {0}{0}{1}{1/1}{}{0}}}
\@writefile{nav}{\headcommand {\beamer@framepages {1}{1}}}
\@writefile{toc}{\beamer@sectionintoc {1}{\IeC {\"U}berblick}{2}{0}{1}}
\@writefile{nav}{\headcommand {\beamer@sectionpages {1}{1}}}
\@writefile{nav}{\headcommand {\beamer@subsectionpages {1}{1}}}
\@writefile{nav}{\headcommand {\sectionentry {1}{\IeC {\"U}berblick}{2}{\IeC {\"U}berblick}{0}}}
\@writefile{nav}{\headcommand {\slideentry {1}{0}{1}{2/2}{}{0}}}
\@writefile{nav}{\headcommand {\beamer@framepages {2}{2}}}
\@writefile{toc}{\beamer@sectionintoc {2}{Modelle von Track Fuses}{3}{0}{2}}
\@writefile{nav}{\headcommand {\beamer@sectionpages {2}{2}}}
\@writefile{nav}{\headcommand {\beamer@subsectionpages {2}{2}}}
\@writefile{nav}{\headcommand {\sectionentry {2}{Modelle von Track Fuses}{3}{Modelle von Track Fuses}{0}}}
\newlabel{fig:geo}{{1}{3}{Modelle von Track Fuses}{Doc-Start}{}}
\@writefile{snm}{\beamer@slide {fig:geo}{3}}
\@writefile{nav}{\headcommand {\slideentry {2}{0}{1}{3/3}{}{0}}}
\@writefile{nav}{\headcommand {\beamer@framepages {3}{3}}}
\newlabel{fig:geo1}{{2}{4}{Modelle von Track Fuses}{Doc-Start}{}}
\@writefile{snm}{\beamer@slide {fig:geo1}{4}}
\@writefile{nav}{\headcommand {\slideentry {2}{0}{2}{4/4}{}{0}}}
\@writefile{nav}{\headcommand {\beamer@framepages {4}{4}}}
\newlabel{fig:geo2}{{3}{5}{Modelle von Track Fuses}{Doc-Start}{}}
\@writefile{snm}{\beamer@slide {fig:geo2}{5}}
\@writefile{nav}{\headcommand {\slideentry {2}{0}{3}{5/5}{}{0}}}
\@writefile{nav}{\headcommand {\beamer@framepages {5}{5}}}
\newlabel{fig:geo3}{{4}{6}{Modelle von Track Fuses}{Doc-Start}{}}
\@writefile{snm}{\beamer@slide {fig:geo3}{6}}
\@writefile{nav}{\headcommand {\slideentry {2}{0}{4}{6/6}{}{0}}}
\@writefile{nav}{\headcommand {\beamer@framepages {6}{6}}}
\newlabel{fig:geoFull}{{5}{7}{Modelle von Track Fuses}{Doc-Start}{}}
\@writefile{snm}{\beamer@slide {fig:geoFull}{7}}
\@writefile{nav}{\headcommand {\slideentry {2}{0}{5}{7/7}{}{0}}}
\@writefile{nav}{\headcommand {\beamer@framepages {7}{7}}}
\@writefile{nav}{\headcommand {\slideentry {2}{0}{6}{8/8}{}{0}}}
\@writefile{nav}{\headcommand {\beamer@framepages {8}{8}}}
\@writefile{toc}{\beamer@sectionintoc {3}{W\IeC {\"a}rme- leitungs- gleichung}{9}{0}{3}}
\@writefile{nav}{\headcommand {\beamer@sectionpages {3}{8}}}
\@writefile{nav}{\headcommand {\beamer@subsectionpages {3}{8}}}
\@writefile{nav}{\headcommand {\sectionentry {3}{W\IeC {\"a}rme- leitungs- gleichung}{9}{W\IeC {\"a}rme- leitungs- gleichung}{0}}}
\@writefile{nav}{\headcommand {\slideentry {3}{0}{1}{9/9}{}{0}}}
\@writefile{nav}{\headcommand {\beamer@framepages {9}{9}}}
\@writefile{toc}{\beamer@sectionintoc {4}{Elektrisches Feld}{10}{0}{4}}
\@writefile{nav}{\headcommand {\beamer@sectionpages {9}{9}}}
\@writefile{nav}{\headcommand {\beamer@subsectionpages {9}{9}}}
\@writefile{nav}{\headcommand {\sectionentry {4}{Elektrisches Feld}{10}{Elektrisches Feld}{0}}}
\@writefile{snm}{\beamer@slide {eq:Neumann}{10}}
\newlabel{eq:Neumann}{{2c}{10}{Elektrisches Feld}{Doc-Start}{}}
\@writefile{nav}{\headcommand {\slideentry {4}{0}{1}{10/10}{}{0}}}
\@writefile{nav}{\headcommand {\beamer@framepages {10}{10}}}
\@writefile{toc}{\beamer@sectionintoc {5}{Coupled Problem}{11}{0}{5}}
\@writefile{nav}{\headcommand {\beamer@sectionpages {10}{10}}}
\@writefile{nav}{\headcommand {\beamer@subsectionpages {10}{10}}}
\@writefile{nav}{\headcommand {\sectionentry {5}{Coupled Problem}{11}{Coupled Problem}{0}}}
\newlabel{eq:BVPCoupled}{{3}{11}{Coupled Problem}{Doc-Start}{}}
\@writefile{snm}{\beamer@slide {eq:BVPCoupled}{11}}
\@writefile{nav}{\headcommand {\slideentry {5}{0}{1}{11/11}{}{0}}}
\@writefile{nav}{\headcommand {\beamer@framepages {11}{11}}}
\@writefile{nav}{\headcommand {\slideentry {5}{0}{2}{12/12}{}{0}}}
\@writefile{nav}{\headcommand {\beamer@framepages {12}{12}}}
\@writefile{toc}{\beamer@sectionintoc {6}{Simulations- ergebnisse}{13}{0}{6}}
\@writefile{nav}{\headcommand {\beamer@sectionpages {11}{12}}}
\@writefile{nav}{\headcommand {\beamer@subsectionpages {11}{12}}}
\@writefile{nav}{\headcommand {\sectionentry {6}{Simulations- ergebnisse}{13}{Simulations- ergebnisse}{0}}}
\newlabel{fig:FEModel}{{6}{13}{Simulations- ergebnisse}{Doc-Start}{}}
\@writefile{snm}{\beamer@slide {fig:FEModel}{13}}
\@writefile{nav}{\headcommand {\slideentry {6}{0}{1}{13/13}{}{0}}}
\@writefile{nav}{\headcommand {\beamer@framepages {13}{13}}}
\newlabel{fig:TransGeo3}{{7}{14}{Simulations- ergebnisse}{Doc-Start}{}}
\@writefile{snm}{\beamer@slide {fig:TransGeo3}{14}}
\@writefile{nav}{\headcommand {\slideentry {6}{0}{2}{14/14}{}{0}}}
\@writefile{nav}{\headcommand {\beamer@framepages {14}{14}}}
\newlabel{fig:StatGeo3}{{8}{15}{Simulations- ergebnisse}{Doc-Start}{}}
\@writefile{snm}{\beamer@slide {fig:StatGeo3}{15}}
\@writefile{nav}{\headcommand {\slideentry {6}{0}{3}{15/15}{}{0}}}
\@writefile{nav}{\headcommand {\beamer@framepages {15}{15}}}
\@writefile{toc}{\beamer@sectionintoc {7}{Future Work}{16}{0}{7}}
\@writefile{nav}{\headcommand {\beamer@sectionpages {13}{15}}}
\@writefile{nav}{\headcommand {\beamer@subsectionpages {13}{15}}}
\@writefile{nav}{\headcommand {\sectionentry {7}{Future Work}{16}{Future Work}{0}}}
\@writefile{nav}{\headcommand {\slideentry {7}{0}{1}{16/16}{}{0}}}
\@writefile{nav}{\headcommand {\beamer@framepages {16}{16}}}
\@writefile{nav}{\headcommand {\slideentry {7}{0}{2}{17/17}{}{0}}}
\@writefile{nav}{\headcommand {\beamer@framepages {17}{17}}}
\@writefile{nav}{\headcommand {\beamer@partpages {1}{17}}}
\@writefile{nav}{\headcommand {\beamer@subsectionpages {16}{17}}}
\@writefile{nav}{\headcommand {\beamer@sectionpages {16}{17}}}
\@writefile{nav}{\headcommand {\beamer@documentpages {17}}}
\@writefile{nav}{\headcommand {\gdef \inserttotalframenumber {17}}}
