\relax 
\providecommand\hyper@newdestlabel[2]{}
\providecommand\HyperFirstAtBeginDocument{\AtBeginDocument}
\HyperFirstAtBeginDocument{\ifx\hyper@anchor\@undefined
\global\let\oldcontentsline\contentsline
\gdef\contentsline#1#2#3#4{\oldcontentsline{#1}{#2}{#3}}
\global\let\oldnewlabel\newlabel
\gdef\newlabel#1#2{\newlabelxx{#1}#2}
\gdef\newlabelxx#1#2#3#4#5#6{\oldnewlabel{#1}{{#2}{#3}}}
\AtEndDocument{\ifx\hyper@anchor\@undefined
\let\contentsline\oldcontentsline
\let\newlabel\oldnewlabel
\fi}
\fi}
\global\let\hyper@last\relax 
\gdef\HyperFirstAtBeginDocument#1{#1}
\providecommand\HyField@AuxAddToFields[1]{}
\providecommand\HyField@AuxAddToCoFields[2]{}
\abx@aux@refcontext{nty/global//global/global}
\catcode `"\active 
\providecommand\@newglossary[4]{}
\@newglossary{main}{glg}{gls}{glo}
\providecommand\@glsorder[1]{}
\providecommand\@istfilename[1]{}
\@istfilename{main.ist}
\@glsorder{word}
\@writefile{toc}{\boolfalse {citerequest}\boolfalse {citetracker}\boolfalse {pagetracker}\boolfalse {backtracker}\relax }
\@writefile{lof}{\boolfalse {citerequest}\boolfalse {citetracker}\boolfalse {pagetracker}\boolfalse {backtracker}\relax }
\@writefile{lot}{\boolfalse {citerequest}\boolfalse {citetracker}\boolfalse {pagetracker}\boolfalse {backtracker}\relax }
\babel@aux{british}{}
\@input{sections/introduction.aux}
\abx@aux@cite{Parkes1968}
\abx@aux@segm{0}{0}{Parkes1968}
\abx@aux@cite{Dimitrov2018}
\abx@aux@segm{0}{0}{Dimitrov2018}
\abx@aux@cite{Brooks2015}
\abx@aux@segm{0}{0}{Brooks2015}
\abx@aux@cite{NGSolve}
\abx@aux@segm{0}{0}{NGSolve}
\@input{sections/geometries.aux}
\abx@aux@segm{0}{0}{NGSolve}
\@input{sections/matPar.aux}
\@input{sections/theoreticalBackground.aux}
\abx@aux@cite{Sabelka2001}
\abx@aux@segm{0}{0}{Sabelka2001}
\abx@aux@cite{Kucz2008FP}
\abx@aux@segm{0}{0}{Kucz2008FP}
\abx@aux@segm{0}{0}{Kucz2008FP}
\@input{sections/simulationresults.aux}
\abx@aux@refcontextdefaultsdone
\abx@aux@defaultrefcontext{0}{Dimitrov2018}{nty/global//global/global}
\abx@aux@defaultrefcontext{0}{Brooks2015}{nty/global//global/global}
\abx@aux@defaultrefcontext{0}{Kucz2008FP}{nty/global//global/global}
\abx@aux@defaultrefcontext{0}{NGSolve}{nty/global//global/global}
\abx@aux@defaultrefcontext{0}{Parkes1968}{nty/global//global/global}
\abx@aux@defaultrefcontext{0}{Sabelka2001}{nty/global//global/global}
